Mesures/Data/D&I_4ms_5v.csv

;Scopy version,f4beeb1
;Exported on,Wednesday May 15/05/2024
;Device,M2K
;Nr of samples,6400
;Sample rate,100000
;Tool,Oscilloscope
;Additional Information,
Sample,Time(S),CH1(V),CH2(V)
0,-0.032,14.2149,11.1414
1,-0.03199,14.2149,11.1414
2,-0.03198,14.2149,11.1414
3,-0.03197,14.2149,11.1414
4,-0.03196,14.2149,11.1915
5,-0.03195,14.2149,11.1581
6,-0.03194,14.2149,11.2082
7,-0.03193,14.2149,11.1915
8,-0.03192,14.2149,11.2249
9,-0.03191,14.2149,11.2249
10,-0.0319,14.2149,11.2249
11,-0.03189,14.2149,11.2249
12,-0.03188,14.2149,11.2583
13,-0.03187,14.2149,11.2416
14,-0.03186,14.2149,11.275
15,-0.03185,14.2483,11.2583
16,-0.03184,14.2316,11.2917
17,-0.03183,14.2149,11.2917
18,-0.03182,14.2149,11.2917
19,-0.03181,14.2149,11.2917
20,-0.0318,14.2149,11.2917
21,-0.03179,14.2149,11.3251
22,-0.03178,14.2149,11.3084
23,-0.03177,14.2149,11.3418
24,-0.03176,14.2149,11.3251
25,-0.03175,14.2149,11.3585
26,-0.03174,14.2149,11.3418
27,-0.03173,14.2149,11.3752
28,-0.03172,14.2149,11.3585
29,-0.03171,14.2149,11.3919
30,-0.0317,14.2149,11.3919
31,-0.03169,14.2483,11.3919
32,-0.03168,14.2316,11.3919
33,-0.03167,14.2316,11.442
34,-0.03166,14.2149,11.4253
35,-0.03165,14.2149,11.4588
36,-0.03164,14.2149,11.442
37,-0.03163,14.2149,11.4755
38,-0.03162,14.2149,11.4755
39,-0.03161,14.2149,11.4755
40,-0.0316,14.2149,11.4922
41,-0.03159,14.2149,11.4922
42,-0.03158,14.2149,11.5089
43,-0.03157,14.2149,11.5089
44,-0.03156,14.2149,11.5256
45,-0.03155,14.2149,11.5256
46,-0.03154,14.2149,11.5423
47,-0.03153,14.2149,11.5256
48,-0.03152,14.2149,11.559
49,-0.03151,14.2149,11.5423
50,-0.0315,14.2149,11.5757
51,-0.03149,14.2149,11.5757
52,-0.03148,14.2149,11.5757
53,-0.03147,14.2149,11.5924
54,-0.03146,14.2149,11.5924
55,-0.03145,14.2149,11.6091
56,-0.03144,14.2149,11.6091
57,-0.03143,14.2149,11.6258
58,-0.03142,14.2149,11.6258
59,-0.03141,14.2149,11.6592
60,-0.0314,14.2149,11.6592
61,-0.03139,14.2149,11.6759
62,-0.03138,14.2149,11.6592
63,-0.03137,14.2149,11.6926
64,-0.03136,14.2149,11.6759
65,-0.03135,14.2149,11.7093
66,-0.03134,14.2149,11.6926
67,-0.03133,14.2149,11.726
68,-0.03132,14.2149,11.7093
69,-0.03131,14.2149,11.7427
70,-0.0313,14.2149,11.726
71,-0.03129,14.2149,11.7594
72,-0.03128,14.2149,11.7594
73,-0.03127,14.2149,11.7761
74,-0.03126,14.2483,11.7761
75,-0.03125,14.2316,11.7928
76,-0.03124,14.2149,11.7928
77,-0.03123,14.2149,11.7928
78,-0.03122,14.2149,11.8095
79,-0.03121,14.2149,11.7928
80,-0.0312,14.2149,11.8262
81,-0.03119,14.2149,11.8095
82,-0.03118,14.2149,11.8429
83,-0.03117,14.2149,11.8262
84,-0.03116,14.2149,11.8596
85,-0.03115,14.2149,11.8596
86,-0.03114,14.2149,11.893
87,-0.03113,14.2149,11.893
88,-0.03112,14.2483,11.9098
89,-0.03111,14.2483,11.9098
90,-0.0311,14.2149,11.9265
91,-0.03109,14.2149,11.9098
92,-0.03108,14.2149,11.9432
93,-0.03107,14.2149,11.9265
94,-0.03106,14.2149,11.9599
95,-0.03105,14.2149,11.9432
96,-0.03104,14.2149,11.9766
97,-0.03103,14.2149,11.9766
98,-0.03102,14.2149,11.9766
99,-0.03101,14.2149,11.9766
100,-0.031,14.2149,12.01
101,-0.03099,14.2483,11.9933
102,-0.03098,14.2316,12.0267
103,-0.03097,14.2316,12.0267
104,-0.03096,14.2483,12.0267
105,-0.03095,14.2149,12.0434
106,-0.03094,14.2149,12.0267
107,-0.03093,14.2149,12.0601
108,-0.03092,14.2149,12.0434
109,-0.03091,14.2149,12.0768
110,-0.0309,14.2149,12.0601
111,-0.03089,14.2149,12.1102
112,-0.03088,14.2149,12.1102
113,-0.03087,14.2149,12.1102
114,-0.03086,14.2149,12.1102
115,-0.03085,14.2149,12.1436
116,-0.03084,14.2149,12.1269
117,-0.03083,14.2149,12.1603
118,-0.03082,14.2149,12.1436
119,-0.03081,14.2149,12.177
120,-0.0308,14.2316,12.1603
121,-0.03079,14.2316,12.1937
122,-0.03078,14.2483,12.177
123,-0.03077,14.2149,12.2104
124,-0.03076,14.2149,12.2104
125,-0.03075,14.2149,12.2104
126,-0.03074,14.2149,12.2271
127,-0.03073,14.2149,12.2104
128,-0.03072,14.2149,12.2438
129,-0.03071,14.2149,12.2271
130,-0.0307,14.2149,12.2605
131,-0.03069,14.2149,12.2605
132,-0.03068,14.2149,12.2772
133,-0.03067,14.2149,12.2605
134,-0.03066,14.2316,12.2939
135,-0.03065,14.2149,12.2939
136,-0.03064,14.2149,12.2939
137,-0.03063,14.2149,12.3106
138,-0.03062,14.2149,12.2939
139,-0.03061,14.2149,12.3441
140,-0.0306,14.2149,12.3441
141,-0.03059,14.2149,12.3608
142,-0.03058,14.2149,12.3608
143,-0.03057,14.2149,12.3775
144,-0.03056,14.2149,12.3608
145,-0.03055,14.2149,12.3942
146,-0.03054,14.2149,12.3775
147,-0.03053,14.2149,12.3942
148,-0.03052,13.9309,12.6781
149,-0.03051,13.5634,7.09908
150,-0.0305,-1.08574,-0.250556
151,-0.03049,0.0334074,-0.517815
152,-0.03048,-0.0835186,-0.601334
153,-0.03047,-0.0501112,-0.567927
154,-0.03046,0.0334074,-0.551223
155,-0.03045,0.0835186,-0.501112
156,-0.03044,0.116926,-0.451
157,-0.03043,0.150333,-0.417593
158,-0.03042,0.183741,-0.400889
159,-0.03041,0.183741,-0.367482
160,-0.0304,0.183741,-0.350778
161,-0.03039,0.217148,-0.317371
162,-0.03038,0.200445,-0.300667
163,-0.03037,0.250556,-0.26726
164,-0.03036,0.250556,-0.0668149
165,-0.03035,0.250556,-0.0835186
166,-0.03034,0.250556,-0.0835186
167,-0.03033,0.250556,-0.0835186
168,-0.03032,0.250556,-0.0835186
169,-0.03031,0.250556,-0.0835186
170,-0.0303,0.250556,-0.0835186
171,-0.03029,0.200445,-0.0668149
172,-0.03028,0.217148,-0.100222
173,-0.03027,0.217148,-0.100222
174,-0.03026,0.217148,-0.100222
175,-0.03025,0.217148,-0.100222
176,-0.03024,0.217148,-0.100222
177,-0.03023,0.217148,-0.100222
178,-0.03022,0.217148,-0.100222
179,-0.03021,0.217148,-0.0835186
180,-0.0302,0.200445,-0.0835186
181,-0.03019,0.250556,-0.0835186
182,-0.03018,0.250556,-0.0835186
183,-0.03017,0.250556,-0.0835186
184,-0.03016,0.217148,-0.0835186
185,-0.03015,0.217148,-0.0835186
186,-0.03014,0.250556,-0.0835186
187,-0.03013,0.217148,-0.0668149
188,-0.03012,0.217148,-0.100222
189,-0.03011,0.217148,-0.0835186
190,-0.0301,0.217148,-0.100222
191,-0.03009,0.217148,-0.0835186
192,-0.03008,0.217148,-0.0835186
193,-0.03007,0.217148,-0.0835186
194,-0.03006,0.217148,-0.0835186
195,-0.03005,0.217148,-0.0835186
196,-0.03004,0.217148,-0.0835186
197,-0.03003,0.217148,-0.0835186
198,-0.03002,0.217148,-0.0835186
199,-0.03001,0.200445,-0.0835186
200,-0.03,0.217148,-0.0835186
201,-0.02999,0.217148,-0.0668149
202,-0.02998,0.217148,-0.0835186
203,-0.02997,0.217148,-0.0835186
204,-0.02996,0.217148,-0.0835186
205,-0.02995,0.217148,-0.0835186
206,-0.02994,0.217148,-0.0835186
207,-0.02993,0.217148,-0.0835186
208,-0.02992,0.217148,-0.0835186
209,-0.02991,0.217148,-0.0835186
210,-0.0299,0.217148,-0.0835186
211,-0.02989,0.217148,-0.0835186
212,-0.02988,0.217148,-0.0835186
213,-0.02987,0.217148,-0.0835186
214,-0.02986,0.217148,-0.0835186
215,-0.02985,0.217148,-0.0835186
216,-0.02984,0.217148,-0.0835186
217,-0.02983,0.200445,-0.0835186
218,-0.02982,0.217148,-0.0835186
219,-0.02981,0.217148,-0.0835186
220,-0.0298,0.217148,-0.0668149
221,-0.02979,0.217148,-0.0835186
222,-0.02978,0.217148,-0.0835186
223,-0.02977,0.217148,-0.0835186
224,-0.02976,0.200445,-0.0835186
225,-0.02975,0.250556,-0.0835186
226,-0.02974,0.250556,-0.0835186
227,-0.02973,0.217148,-0.0835186
228,-0.02972,0.217148,-0.0835186
229,-0.02971,0.250556,-0.0668149
230,-0.0297,0.200445,-0.0835186
231,-0.02969,0.217148,-0.100222
232,-0.02968,0.217148,-0.0835186
233,-0.02967,0.217148,-0.0668149
234,-0.02966,0.217148,-0.0835186
235,-0.02965,0.217148,-0.0835186
236,-0.02964,0.217148,-0.0835186
237,-0.02963,0.217148,-0.0835186
238,-0.02962,0.217148,-0.0835186
239,-0.02961,0.217148,-0.100222
240,-0.0296,0.217148,-0.0668149
241,-0.02959,0.217148,-0.0835186
242,-0.02958,0.217148,-0.100222
243,-0.02957,0.217148,-0.0668149
244,-0.02956,0.217148,-0.0835186
245,-0.02955,0.217148,-0.0835186
246,-0.02954,0.217148,-0.0835186
247,-0.02953,0.217148,-0.0835186
248,-0.02952,0.217148,-0.0835186
249,-0.02951,0.217148,-0.0835186
250,-0.0295,0.217148,-0.0835186
251,-0.02949,0.217148,-0.0668149
252,-0.02948,0.217148,-0.0835186
253,-0.02947,0.217148,-0.0835186
254,-0.02946,0.217148,-0.100222
255,-0.02945,0.217148,-0.0668149
256,-0.02944,0.217148,-0.0835186
257,-0.02943,0.217148,-0.0668149
258,-0.02942,0.217148,-0.100222
259,-0.02941,0.217148,-0.0835186
260,-0.0294,0.217148,-0.0835186
261,-0.02939,0.217148,-0.0835186
262,-0.02938,0.217148,-0.0835186
263,-0.02937,0.217148,-0.0668149
264,-0.02936,0.217148,-0.100222
265,-0.02935,0.217148,-0.0835186
266,-0.02934,0.217148,-0.0835186
267,-0.02933,0.217148,-0.100222
268,-0.02932,0.217148,-0.0835186
269,-0.02931,0.217148,-0.0835186
270,-0.0293,0.217148,-0.0835186
271,-0.02929,0.217148,-0.0668149
272,-0.02928,0.200445,-0.0835186
273,-0.02927,0.250556,-0.0835186
274,-0.02926,0.200445,-0.0835186
275,-0.02925,0.217148,-0.0835186
276,-0.02924,0.217148,-0.0668149
277,-0.02923,0.250556,-0.0668149
278,-0.02922,0.250556,-0.0668149
279,-0.02921,0.250556,-0.0334074
280,-0.0292,0.250556,0
281,-0.02919,0.250556,0
282,-0.02918,0.250556,0.0167037
283,-0.02917,0.250556,0.0167037
284,-0.02916,0.250556,0.0167037
285,-0.02915,0.250556,0.0334074
286,-0.02914,0.250556,0.0167037
287,-0.02913,0.250556,0.0501112
288,-0.02912,0.250556,0.0501112
289,-0.02911,0.200445,0.0501112
290,-0.0291,0.200445,0.0334074
291,-0.02909,0.183741,0.0668149
292,-0.02908,0.217148,0.0835186
293,-0.02907,0.217148,0.100222
294,-0.02906,0.217148,0.100222
295,-0.02905,0.250556,0.116926
296,-0.02904,0.200445,0.116926
297,-0.02903,0.250556,0.13363
298,-0.02902,0.217148,0.13363
299,-0.02901,0.217148,0.150333
300,-0.029,0.217148,0.150333
301,-0.02899,0.217148,0.150333
302,-0.02898,0.200445,0.183741
303,-0.02897,0.250556,0.167037
304,-0.02896,0.250556,0.200445
305,-0.02895,0.250556,0.200445
306,-0.02894,0.250556,0.200445
307,-0.02893,0.250556,0.250556
308,-0.02892,0.250556,0.250556
309,-0.02891,0.250556,0.250556
310,-0.0289,0.250556,0.26726
311,-0.02889,0.250556,0.26726
312,-0.02888,0.250556,0.283963
313,-0.02887,0.250556,0.283963
314,-0.02886,0.250556,0.300667
315,-0.02885,0.250556,0.300667
316,-0.02884,0.250556,0.317371
317,-0.02883,0.250556,0.317371
318,-0.02882,0.250556,0.334074
319,-0.02881,0.250556,0.334074
320,-0.0288,0.200445,0.334074
321,-0.02879,0.217148,0.334074
322,-0.02878,0.217148,0.367482
323,-0.02877,0.217148,0.367482
324,-0.02876,0.200445,0.384186
325,-0.02875,0.250556,0.384186
326,-0.02874,0.250556,0.384186
327,-0.02873,0.217148,0.417593
328,-0.02872,0.217148,0.400889
329,-0.02871,0.250556,0.434297
330,-0.0287,0.250556,0.417593
331,-0.02869,0.217148,0.467704
332,-0.02868,0.217148,0.434297
333,-0.02867,0.200445,0.484408
334,-0.02866,0.250556,0.467704
335,-0.02865,0.250556,0.501112
336,-0.02864,0.250556,0.501112
337,-0.02863,0.250556,0.517815
338,-0.02862,0.250556,0.517815
339,-0.02861,0.250556,0.534519
340,-0.0286,0.250556,0.534519
341,-0.02859,0.250556,0.551223
342,-0.02858,0.250556,0.551223
343,-0.02857,0.250556,0.567927
344,-0.02856,0.250556,0.567927
345,-0.02855,0.250556,0.58463
346,-0.02854,0.250556,0.58463
347,-0.02853,0.217148,0.601334
348,-0.02852,0.217148,0.601334
349,-0.02851,0.26726,0.618038
350,-0.0285,0.217148,0.618038
351,-0.02849,0.250556,0.634741
352,-0.02848,0.200445,0.634741
353,-0.02847,0.217148,0.651445
354,-0.02846,0.217148,0.651445
355,-0.02845,0.217148,0.651445
356,-0.02844,0.217148,0.701556
357,-0.02843,0.200445,0.668149
358,-0.02842,0.217148,0.71826
359,-0.02841,0.250556,0.701556
360,-0.0284,0.250556,0.734964
361,-0.02839,0.250556,0.734964
362,-0.02838,0.250556,0.751667
363,-0.02837,0.250556,0.751667
364,-0.02836,0.250556,0.768371
365,-0.02835,0.200445,0.751667
366,-0.02834,0.217148,0.785075
367,-0.02833,0.217148,0.768371
368,-0.02832,0.217148,0.801779
369,-0.02831,0.217148,0.785075
370,-0.0283,0.217148,0.818482
371,-0.02829,0.217148,0.801779
372,-0.02828,0.217148,0.835186
373,-0.02827,0.217148,0.818482
374,-0.02826,0.217148,0.85189
375,-0.02825,0.200445,0.85189
376,-0.02824,0.250556,0.868594
377,-0.02823,0.250556,0.868594
378,-0.02822,0.200445,0.885297
379,-0.02821,0.250556,0.885297
380,-0.0282,0.250556,0.902001
381,-0.02819,0.250556,0.902001
382,-0.02818,0.250556,0.902001
383,-0.02817,0.250556,0.952112
384,-0.02816,0.250556,0.935408
385,-0.02815,0.217148,0.968816
386,-0.02814,0.217148,0.952112
387,-0.02813,0.250556,0.98552
388,-0.02812,0.250556,0.968816
389,-0.02811,0.250556,1.00222
390,-0.0281,0.217148,0.98552
391,-0.02809,0.217148,1.01893
392,-0.02808,0.217148,1.01893
393,-0.02807,0.217148,1.01893
394,-0.02806,0.217148,1.01893
395,-0.02805,0.217148,1.05233
396,-0.02804,0.217148,1.03563
397,-0.02803,0.217148,1.06904
398,-0.02802,0.217148,1.05233
399,-0.02801,0.217148,1.08574
400,-0.028,0.250556,1.08574
401,-0.02799,0.250556,1.10245
402,-0.02798,0.250556,1.10245
403,-0.02797,0.250556,1.11915
404,-0.02796,0.250556,1.10245
405,-0.02795,0.250556,1.13585
406,-0.02794,0.250556,1.13585
407,-0.02793,0.217148,1.16926
408,-0.02792,0.200445,1.16926
409,-0.02791,0.217148,1.18596
410,-0.0279,0.200445,1.18596
411,-0.02789,0.250556,1.20267
412,-0.02788,0.217148,1.20267
413,-0.02787,0.217148,1.20267
414,-0.02786,0.250556,1.23608
415,-0.02785,0.250556,1.21937
416,-0.02784,0.250556,1.25278
417,-0.02783,0.217148,1.25278
418,-0.02782,0.217148,1.25278
419,-0.02781,0.217148,1.26948
420,-0.0278,0.217148,1.26948
421,-0.02779,0.217148,1.28619
422,-0.02778,0.250556,1.28619
423,-0.02777,0.200445,1.30289
424,-0.02776,0.200445,1.30289
425,-0.02775,0.250556,1.31959
426,-0.02774,0.217148,1.31959
427,-0.02773,0.217148,1.3363
428,-0.02772,0.217148,1.3363
429,-0.02771,0.217148,1.3363
430,-0.0277,0.200445,1.36971
431,-0.02769,0.250556,1.36971
432,-0.02768,0.250556,1.40311
433,-0.02767,0.250556,1.40311
434,-0.02766,0.250556,1.41982
435,-0.02765,0.250556,1.41982
436,-0.02764,0.250556,1.43652
437,-0.02763,0.250556,1.43652
438,-0.02762,0.250556,1.45322
439,-0.02761,0.250556,1.45322
440,-0.0276,0.250556,1.46993
441,-0.02759,0.217148,1.46993
442,-0.02758,0.217148,1.48663
443,-0.02757,0.250556,1.48663
444,-0.02756,0.217148,1.48663
445,-0.02755,0.200445,1.52004
446,-0.02754,0.250556,1.52004
447,-0.02753,0.250556,1.53674
448,-0.02752,0.250556,1.53674
449,-0.02751,0.250556,1.55345
450,-0.0275,0.250556,1.55345
451,-0.02749,0.250556,1.57015
452,-0.02748,0.250556,1.57015
453,-0.02747,0.250556,1.58685
454,-0.02746,0.250556,1.58685
455,-0.02745,0.250556,1.60356
456,-0.02744,0.250556,1.60356
457,-0.02743,0.250556,1.63696
458,-0.02742,0.250556,1.63696
459,-0.02741,0.250556,1.65367
460,-0.0274,0.250556,1.65367
461,-0.02739,0.250556,1.65367
462,-0.02738,0.250556,1.68708
463,-0.02737,0.250556,1.68708
464,-0.02736,0.250556,1.70378
465,-0.02735,0.250556,1.70378
466,-0.02734,0.250556,1.72048
467,-0.02733,0.250556,1.72048
468,-0.02732,0.250556,1.73719
469,-0.02731,0.250556,1.73719
470,-0.0273,0.250556,1.75389
471,-0.02729,0.250556,1.75389
472,-0.02728,0.250556,1.77059
473,-0.02727,0.250556,1.77059
474,-0.02726,0.250556,1.7873
475,-0.02725,0.250556,1.7873
476,-0.02724,0.217148,1.804
477,-0.02723,0.217148,1.804
478,-0.02722,0.250556,1.82071
479,-0.02721,0.250556,1.83741
480,-0.0272,0.250556,1.83741
481,-0.02719,0.250556,1.87082
482,-0.02718,0.250556,1.87082
483,-0.02717,0.250556,1.88752
484,-0.02716,0.250556,1.88752
485,-0.02715,0.250556,1.90422
486,-0.02714,0.250556,1.90422
487,-0.02713,0.250556,1.92093
488,-0.02712,0.250556,1.92093
489,-0.02711,0.250556,1.93763
490,-0.0271,0.250556,1.93763
491,-0.02709,0.200445,1.95434
492,-0.02708,0.250556,1.95434
493,-0.02707,0.250556,1.97104
494,-0.02706,0.250556,1.97104
495,-0.02705,0.250556,1.98774
496,-0.02704,0.250556,1.98774
497,-0.02703,0.250556,2.00445
498,-0.02702,0.250556,2.00445
499,-0.02701,0.250556,2.02115
500,-0.027,0.200445,2.02115
501,-0.02699,0.217148,2.03785
502,-0.02698,0.250556,2.03785
503,-0.02697,0.200445,2.05456
504,-0.02696,0.200445,2.05456
505,-0.02695,0.250556,2.07126
506,-0.02694,0.200445,2.07126
507,-0.02693,0.200445,2.10467
508,-0.02692,0.250556,2.10467
509,-0.02691,0.250556,2.12137
510,-0.0269,0.0668149,2.12137
511,-0.02689,3.157,2.13808
512,-0.02688,5.57904,2.13808
513,-0.02687,5.62915,2.15478
514,-0.02686,5.77949,2.15478
515,-0.02685,5.87971,2.17148
516,-0.02684,6.03004,2.17148
517,-0.02683,6.18038,2.18819
518,-0.02682,6.36412,2.18819
519,-0.02681,6.54786,2.20489
520,-0.0268,6.76501,2.20489
521,-0.02679,7.09908,2.2216
522,-0.02678,8.15142,2.2216
523,-0.02677,14.9498,2.2383
524,-0.02676,14.3652,2.2383
525,-0.02675,14.4153,2.255
526,-0.02674,14.3819,2.255
527,-0.02673,14.3485,2.27171
528,-0.02672,14.3151,2.27171
529,-0.02671,14.2984,2.28841
530,-0.0267,14.2817,2.28841
531,-0.02669,14.2817,2.30511
532,-0.02668,14.2316,2.30511
533,-0.02667,14.2316,2.35522
534,-0.02666,14.2316,2.33852
535,-0.02665,14.2316,2.35522
536,-0.02664,14.2316,2.35522
537,-0.02663,14.2483,2.38863
538,-0.02662,14.2149,2.37193
539,-0.02661,14.2149,2.40534
540,-0.0266,14.2149,2.38863
541,-0.02659,14.2149,2.42204
542,-0.02658,14.2316,2.40534
543,-0.02657,14.2316,2.43874
544,-0.02656,14.2149,2.42204
545,-0.02655,14.2149,2.45545
546,-0.02654,14.2149,2.43874
547,-0.02653,14.2149,2.47215
548,-0.02652,14.2149,2.45545
549,-0.02651,14.2149,2.48885
550,-0.0265,14.2149,2.48885
551,-0.02649,14.2149,2.48885
552,-0.02648,14.2149,2.48885
553,-0.02647,14.2149,2.52226
554,-0.02646,14.2149,2.52226
555,-0.02645,14.2149,2.52226
556,-0.02644,14.2149,2.52226
557,-0.02643,14.2149,2.57237
558,-0.02642,14.2149,2.53897
559,-0.02641,14.2149,2.58908
560,-0.0264,14.2149,2.58908
561,-0.02639,14.2149,2.58908
562,-0.02638,14.2149,2.60578
563,-0.02637,14.2149,2.60578
564,-0.02636,14.2316,2.63919
565,-0.02635,14.2149,2.62248
566,-0.02634,14.2149,2.65589
567,-0.02633,14.2149,2.63919
568,-0.02632,14.2149,2.65589
569,-0.02631,14.2149,2.65589
570,-0.0263,14.2149,2.6726
571,-0.02629,14.2149,2.6726
572,-0.02628,14.2149,2.706
573,-0.02627,14.2149,2.6893
574,-0.02626,14.2149,2.72271
575,-0.02625,14.2483,2.706
576,-0.02624,14.2316,2.73941
577,-0.02623,14.2316,2.73941
578,-0.02622,14.2316,2.73941
579,-0.02621,14.2316,2.75611
580,-0.0262,14.2316,2.75611
581,-0.02619,14.2149,2.75611
582,-0.02618,14.2149,2.77282
583,-0.02617,14.2149,2.77282
584,-0.02616,14.2149,2.80623
585,-0.02615,14.2149,2.80623
586,-0.02614,14.2149,2.82293
587,-0.02613,14.2149,2.82293
588,-0.02612,14.2149,2.85634
589,-0.02611,14.2149,2.85634
590,-0.0261,14.2149,2.85634
591,-0.02609,14.2149,2.87304
592,-0.02608,14.2149,2.87304
593,-0.02607,14.2149,2.87304
594,-0.02606,14.2149,2.90645
595,-0.02605,14.2149,2.90645
596,-0.02604,14.2149,2.90645
597,-0.02603,14.2149,2.90645
598,-0.02602,14.2149,2.93986
599,-0.02601,14.2149,2.92315
600,-0.026,14.2149,2.95656
601,-0.02599,14.2149,2.93986
602,-0.02598,14.2149,2.97326
603,-0.02597,14.2149,2.95656
604,-0.02596,14.2149,2.98997
605,-0.02595,14.2149,2.98997
606,-0.02594,14.2149,2.98997
607,-0.02593,14.2149,2.98997
608,-0.02592,14.2149,3.04008
609,-0.02591,14.2149,3.00667
610,-0.0259,14.2149,3.05678
611,-0.02589,14.2149,3.04008
612,-0.02588,14.2149,3.07348
613,-0.02587,14.2149,3.05678
614,-0.02586,14.2149,3.09019
615,-0.02585,14.2149,3.07348
616,-0.02584,14.2149,3.10689
617,-0.02583,14.2149,3.09019
618,-0.02582,14.2149,3.1236
619,-0.02581,14.2149,3.10689
620,-0.0258,14.2149,3.1403
621,-0.02579,14.2149,3.1236
622,-0.02578,14.2149,3.157
623,-0.02577,14.2149,3.1403
624,-0.02576,14.2149,3.17371
625,-0.02575,14.2149,3.157
626,-0.02574,14.2149,3.19041
627,-0.02573,14.2149,3.17371
628,-0.02572,14.2149,3.19041
629,-0.02571,14.2149,3.19041
630,-0.0257,14.2149,3.22382
631,-0.02569,14.2149,3.20711
632,-0.02568,14.2149,3.24052
633,-0.02567,14.2483,3.24052
634,-0.02566,14.2149,3.24052
635,-0.02565,14.2149,3.24052
636,-0.02564,14.2149,3.29063
637,-0.02563,14.2149,3.27393
638,-0.02562,14.2149,3.29063
639,-0.02561,14.2149,3.29063
640,-0.0256,14.2149,3.30734
641,-0.02559,14.2149,3.30734
642,-0.02558,14.2149,3.32404
643,-0.02557,14.2149,3.32404
644,-0.02556,14.2149,3.34074
645,-0.02555,14.2149,3.34074
646,-0.02554,14.2149,3.37415
647,-0.02553,14.2149,3.35745
648,-0.02552,14.2149,3.39086
649,-0.02551,14.2149,3.37415
650,-0.0255,14.2149,3.40756
651,-0.02549,14.2149,3.39086
652,-0.02548,14.2149,3.42426
653,-0.02547,14.2149,3.40756
654,-0.02546,14.2149,3.44097
655,-0.02545,14.2149,3.42426
656,-0.02544,14.2149,3.45767
657,-0.02543,14.2149,3.44097
658,-0.02542,14.2149,3.47437
659,-0.02541,14.2149,3.45767
660,-0.0254,14.2149,3.50778
661,-0.02539,14.2149,3.50778
