Mesures/Data/D_4ms_5v.csv

;Scopy version,f4beeb1
;Exported on,Wednesday May 15/05/2024
;Device,M2K
;Nr of samples,6400
;Sample rate,100000
;Tool,Oscilloscope
;Additional Information,
Sample,Time(S),CH1(V)
0,-0.032,14.2149
1,-0.03199,14.2149
2,-0.03198,14.2149
3,-0.03197,14.2149
4,-0.03196,14.2149
5,-0.03195,14.2149
6,-0.03194,14.2149
7,-0.03193,14.2149
8,-0.03192,14.2149
9,-0.03191,14.2149
10,-0.0319,14.2149
11,-0.03189,14.2149
12,-0.03188,14.2149
13,-0.03187,14.2149
14,-0.03186,14.2149
15,-0.03185,14.2149
16,-0.03184,14.2149
17,-0.03183,14.2149
18,-0.03182,14.2149
19,-0.03181,14.2149
20,-0.0318,14.2149
21,-0.03179,14.2149
22,-0.03178,14.2149
23,-0.03177,14.2149
24,-0.03176,14.2149
25,-0.03175,14.2149
26,-0.03174,14.2149
27,-0.03173,14.2149
28,-0.03172,14.2149
29,-0.03171,14.2149
30,-0.0317,14.2149
31,-0.03169,14.2149
32,-0.03168,14.2149
33,-0.03167,14.2149
34,-0.03166,14.2149
35,-0.03165,14.2149
36,-0.03164,14.2149
37,-0.03163,14.2149
38,-0.03162,14.2149
39,-0.03161,14.2149
40,-0.0316,14.2149
41,-0.03159,14.2149
42,-0.03158,14.2149
43,-0.03157,14.2149
44,-0.03156,14.2149
45,-0.03155,14.2149
46,-0.03154,14.2149
47,-0.03153,14.2149
48,-0.03152,14.2149
49,-0.03151,14.2149
50,-0.0315,14.2149
51,-0.03149,14.2149
52,-0.03148,14.2149
53,-0.03147,14.2149
54,-0.03146,14.2149
55,-0.03145,14.2149
56,-0.03144,14.2149
57,-0.03143,14.2149
58,-0.03142,14.2149
59,-0.03141,14.2149
60,-0.0314,14.2149
61,-0.03139,14.2149
62,-0.03138,14.2149
63,-0.03137,14.2149
64,-0.03136,14.2149
65,-0.03135,14.2149
66,-0.03134,14.2149
67,-0.03133,14.2149
68,-0.03132,14.2149
69,-0.03131,14.2149
70,-0.0313,14.2149
71,-0.03129,14.2149
72,-0.03128,14.2149
73,-0.03127,14.2149
74,-0.03126,14.2149
75,-0.03125,14.2149
76,-0.03124,14.2149
77,-0.03123,14.2149
78,-0.03122,14.2149
79,-0.03121,14.2149
80,-0.0312,14.2149
81,-0.03119,14.2149
82,-0.03118,14.2149
83,-0.03117,14.2149
84,-0.03116,14.2149
85,-0.03115,14.2149
86,-0.03114,14.2149
87,-0.03113,14.2149
88,-0.03112,14.2149
89,-0.03111,14.2149
90,-0.0311,14.2149
91,-0.03109,14.2149
92,-0.03108,14.2149
93,-0.03107,14.2149
94,-0.03106,14.2149
95,-0.03105,14.2149
96,-0.03104,14.2149
97,-0.03103,14.2149
98,-0.03102,14.2149
99,-0.03101,14.2149
100,-0.031,14.2149
101,-0.03099,14.2149
102,-0.03098,14.2149
103,-0.03097,14.2149
104,-0.03096,14.2149
105,-0.03095,14.2149
106,-0.03094,14.2149
107,-0.03093,14.2149
108,-0.03092,14.2149
109,-0.03091,14.2149
110,-0.0309,14.2149
111,-0.03089,14.2149
112,-0.03088,14.2149
113,-0.03087,14.2149
114,-0.03086,14.2149
115,-0.03085,14.2149
116,-0.03084,14.2149
117,-0.03083,14.2149
118,-0.03082,14.2149
119,-0.03081,14.2149
120,-0.0308,14.2149
121,-0.03079,14.2149
122,-0.03078,14.2149
123,-0.03077,14.2149
124,-0.03076,14.2149
125,-0.03075,14.2149
126,-0.03074,14.2149
127,-0.03073,14.2149
128,-0.03072,14.2149
129,-0.03071,14.2149
130,-0.0307,14.2149
131,-0.03069,14.2149
132,-0.03068,14.2149
133,-0.03067,14.2149
134,-0.03066,14.2149
135,-0.03065,14.2149
136,-0.03064,14.2149
137,-0.03063,14.2149
138,-0.03062,14.2149
139,-0.03061,14.2149
140,-0.0306,14.2149
141,-0.03059,14.2149
142,-0.03058,14.2149
143,-0.03057,14.2149
144,-0.03056,14.2149
145,-0.03055,14.2149
146,-0.03054,14.1313
147,-0.03053,10.3396
148,-0.03052,-0.968816
149,-0.03051,-0.0668149
150,-0.0305,-0.0668149
151,-0.03049,-0.0334074
152,-0.03048,0.0334074
153,-0.03047,0.0835186
154,-0.03046,0.116926
155,-0.03045,0.150333
156,-0.03044,0.183741
157,-0.03043,0.183741
158,-0.03042,0.200445
159,-0.03041,0.200445
160,-0.0304,0.217148
161,-0.03039,0.217148
162,-0.03038,0.217148
163,-0.03037,0.250556
164,-0.03036,0.250556
165,-0.03035,0.250556
166,-0.03034,0.250556
167,-0.03033,0.250556
168,-0.03032,0.250556
169,-0.03031,0.250556
170,-0.0303,0.250556
171,-0.03029,0.200445
172,-0.03028,0.217148
173,-0.03027,0.217148
174,-0.03026,0.217148
175,-0.03025,0.217148
176,-0.03024,0.217148
177,-0.03023,0.217148
178,-0.03022,0.217148
179,-0.03021,0.217148
180,-0.0302,0.200445
181,-0.03019,0.250556
182,-0.03018,0.250556
183,-0.03017,0.250556
184,-0.03016,0.250556
185,-0.03015,0.250556
186,-0.03014,0.250556
187,-0.03013,0.250556
188,-0.03012,0.250556
189,-0.03011,0.250556
190,-0.0301,0.217148
191,-0.03009,0.200445
192,-0.03008,0.217148
193,-0.03007,0.217148
194,-0.03006,0.217148
195,-0.03005,0.217148
196,-0.03004,0.217148
197,-0.03003,0.217148
198,-0.03002,0.217148
199,-0.03001,0.250556
200,-0.03,0.250556
201,-0.02999,0.250556
202,-0.02998,0.217148
203,-0.02997,0.217148
204,-0.02996,0.200445
205,-0.02995,0.250556
206,-0.02994,0.217148
207,-0.02993,0.250556
208,-0.02992,0.200445
209,-0.02991,0.217148
210,-0.0299,0.217148
211,-0.02989,0.217148
212,-0.02988,0.217148
213,-0.02987,0.200445
214,-0.02986,0.217148
215,-0.02985,0.217148
216,-0.02984,0.217148
217,-0.02983,0.217148
218,-0.02982,0.217148
219,-0.02981,0.250556
220,-0.0298,0.200445
221,-0.02979,0.250556
222,-0.02978,0.250556
223,-0.02977,0.250556
224,-0.02976,0.200445
225,-0.02975,0.217148
226,-0.02974,0.217148
227,-0.02973,0.217148
228,-0.02972,0.217148
229,-0.02971,0.217148
230,-0.0297,0.217148
231,-0.02969,0.217148
232,-0.02968,0.250556
233,-0.02967,0.250556
234,-0.02966,0.217148
235,-0.02965,0.217148
236,-0.02964,0.200445
237,-0.02963,0.250556
238,-0.02962,0.217148
239,-0.02961,0.217148
240,-0.0296,0.217148
241,-0.02959,0.200445
242,-0.02958,0.250556
243,-0.02957,0.200445
244,-0.02956,0.217148
245,-0.02955,0.217148
246,-0.02954,0.217148
247,-0.02953,0.217148
248,-0.02952,0.217148
249,-0.02951,0.217148
250,-0.0295,0.217148
251,-0.02949,0.217148
252,-0.02948,0.200445
253,-0.02947,0.250556
254,-0.02946,0.217148
255,-0.02945,0.217148
256,-0.02944,0.217148
257,-0.02943,0.217148
258,-0.02942,0.250556
259,-0.02941,0.200445
260,-0.0294,0.217148
261,-0.02939,0.217148
262,-0.02938,0.217148
263,-0.02937,0.217148
264,-0.02936,0.217148
265,-0.02935,0.217148
266,-0.02934,0.217148
267,-0.02933,0.217148
268,-0.02932,0.217148
269,-0.02931,0.217148
270,-0.0293,0.217148
271,-0.02929,0.250556
272,-0.02928,0.250556
273,-0.02927,0.250556
274,-0.02926,0.250556
275,-0.02925,0.250556
276,-0.02924,0.250556
277,-0.02923,0.250556
278,-0.02922,0.250556
279,-0.02921,0.250556
280,-0.0292,0.250556
281,-0.02919,0.250556
282,-0.02918,0.250556
283,-0.02917,0.250556
284,-0.02916,0.250556
285,-0.02915,0.250556
286,-0.02914,0.250556
287,-0.02913,0.250556
288,-0.02912,0.250556
289,-0.02911,0.250556
290,-0.0291,0.250556
291,-0.02909,0.250556
292,-0.02908,0.250556
293,-0.02907,0.250556
294,-0.02906,0.250556
295,-0.02905,0.250556
296,-0.02904,0.250556
297,-0.02903,0.250556
298,-0.02902,0.250556
299,-0.02901,0.250556
300,-0.029,0.250556
301,-0.02899,0.250556
302,-0.02898,0.250556
303,-0.02897,0.250556
304,-0.02896,0.250556
305,-0.02895,0.250556
306,-0.02894,0.250556
307,-0.02893,0.250556
308,-0.02892,0.250556
309,-0.02891,0.250556
310,-0.0289,0.250556
311,-0.02889,0.250556
312,-0.02888,0.250556
313,-0.02887,0.250556
314,-0.02886,0.250556
315,-0.02885,0.250556
316,-0.02884,0.250556
317,-0.02883,0.250556
318,-0.02882,0.250556
319,-0.02881,0.250556
320,-0.0288,0.250556
321,-0.02879,0.250556
322,-0.02878,0.250556
323,-0.02877,0.250556
324,-0.02876,0.200445
325,-0.02875,0.250556
326,-0.02874,0.250556
327,-0.02873,0.250556
328,-0.02872,0.250556
329,-0.02871,0.217148
330,-0.0287,0.217148
331,-0.02869,0.217148
332,-0.02868,0.217148
333,-0.02867,0.217148
334,-0.02866,0.217148
335,-0.02865,0.217148
336,-0.02864,0.200445
337,-0.02863,0.217148
338,-0.02862,0.217148
339,-0.02861,0.217148
340,-0.0286,0.217148
341,-0.02859,0.217148
342,-0.02858,0.250556
343,-0.02857,0.250556
344,-0.02856,0.250556
345,-0.02855,0.250556
346,-0.02854,0.250556
347,-0.02853,0.250556
348,-0.02852,0.250556
349,-0.02851,0.250556
350,-0.0285,0.217148
351,-0.02849,0.217148
352,-0.02848,0.217148
353,-0.02847,0.217148
354,-0.02846,0.217148
355,-0.02845,0.250556
356,-0.02844,0.250556
357,-0.02843,0.250556
358,-0.02842,0.250556
359,-0.02841,0.250556
360,-0.0284,0.250556
361,-0.02839,0.250556
362,-0.02838,0.250556
363,-0.02837,0.250556
364,-0.02836,0.250556
365,-0.02835,0.250556
366,-0.02834,0.250556
367,-0.02833,0.250556
368,-0.02832,0.250556
369,-0.02831,0.250556
370,-0.0283,0.217148
371,-0.02829,0.217148
372,-0.02828,0.250556
373,-0.02827,0.250556
374,-0.02826,0.250556
375,-0.02825,0.200445
376,-0.02824,0.250556
377,-0.02823,0.250556
378,-0.02822,0.250556
379,-0.02821,0.250556
380,-0.0282,0.250556
381,-0.02819,0.250556
382,-0.02818,0.250556
383,-0.02817,0.250556
384,-0.02816,0.250556
385,-0.02815,0.250556
386,-0.02814,0.250556
387,-0.02813,0.250556
388,-0.02812,0.250556
389,-0.02811,0.250556
390,-0.0281,0.250556
391,-0.02809,0.250556
392,-0.02808,0.250556
393,-0.02807,0.200445
394,-0.02806,0.217148
395,-0.02805,0.217148
396,-0.02804,0.217148
397,-0.02803,0.250556
398,-0.02802,0.250556
399,-0.02801,0.250556
400,-0.028,0.250556
401,-0.02799,0.250556
402,-0.02798,0.250556
403,-0.02797,0.250556
404,-0.02796,0.250556
405,-0.02795,0.250556
406,-0.02794,0.250556
407,-0.02793,0.250556
408,-0.02792,0.250556
409,-0.02791,0.250556
410,-0.0279,0.250556
411,-0.02789,0.250556
412,-0.02788,0.250556
413,-0.02787,0.250556
414,-0.02786,0.250556
415,-0.02785,0.250556
416,-0.02784,0.250556
417,-0.02783,0.250556
418,-0.02782,0.250556
419,-0.02781,0.250556
420,-0.0278,0.250556
421,-0.02779,0.250556
422,-0.02778,0.250556
423,-0.02777,0.250556
424,-0.02776,0.250556
425,-0.02775,0.250556
426,-0.02774,0.250556
427,-0.02773,0.250556
428,-0.02772,0.250556
429,-0.02771,0.250556
430,-0.0277,0.250556
431,-0.02769,0.250556
432,-0.02768,0.250556
433,-0.02767,0.250556
434,-0.02766,0.217148
435,-0.02765,0.217148
436,-0.02764,0.217148
437,-0.02763,0.217148
438,-0.02762,0.250556
439,-0.02761,0.250556
440,-0.0276,0.217148
441,-0.02759,0.250556
442,-0.02758,0.217148
443,-0.02757,0.250556
444,-0.02756,0.200445
445,-0.02755,0.217148
446,-0.02754,0.217148
447,-0.02753,0.250556
448,-0.02752,0.250556
449,-0.02751,0.250556
450,-0.0275,0.250556
451,-0.02749,0.250556
452,-0.02748,0.217148
453,-0.02747,0.217148
454,-0.02746,0.250556
455,-0.02745,0.250556
456,-0.02744,0.200445
457,-0.02743,0.250556
458,-0.02742,0.250556
459,-0.02741,0.217148
460,-0.0274,0.217148
461,-0.02739,0.250556
462,-0.02738,0.250556
463,-0.02737,0.250556
464,-0.02736,0.250556
465,-0.02735,0.250556
466,-0.02734,0.250556
467,-0.02733,0.250556
468,-0.02732,0.250556
469,-0.02731,0.250556
470,-0.0273,0.250556
471,-0.02729,0.250556
472,-0.02728,0.250556
473,-0.02727,0.250556
474,-0.02726,0.250556
475,-0.02725,0.217148
476,-0.02724,0.217148
477,-0.02723,0.217148
478,-0.02722,0.217148
479,-0.02721,0.250556
480,-0.0272,0.250556
481,-0.02719,0.250556
482,-0.02718,0.250556
483,-0.02717,0.250556
484,-0.02716,0.250556
485,-0.02715,0.250556
486,-0.02714,0.250556
487,-0.02713,0.250556
488,-0.02712,0.217148
489,-0.02711,0.217148
490,-0.0271,0.217148
491,-0.02709,0.217148
492,-0.02708,0.217148
493,-0.02707,0.217148
494,-0.02706,0.200445
495,-0.02705,0.250556
496,-0.02704,0.250556
497,-0.02703,0.250556
498,-0.02702,0.250556
499,-0.02701,0.250556
500,-0.027,0.250556
501,-0.02699,0.250556
502,-0.02698,0.250556
503,-0.02697,0.250556
504,-0.02696,0.183741
505,-0.02695,2.32182
506,-0.02694,5.66256
507,-0.02693,5.59575
508,-0.02692,5.76278
509,-0.02691,5.87971
510,-0.0269,6.03004
511,-0.02689,6.21378
512,-0.02688,6.36412
513,-0.02687,6.56456
514,-0.02686,6.81512
515,-0.02685,6.69819
516,-0.02684,12.0768
517,-0.02683,14.432
518,-0.02682,14.432
519,-0.02681,14.3986
520,-0.0268,14.3652
521,-0.02679,14.3318
522,-0.02678,14.2984
523,-0.02677,14.2817
524,-0.02676,14.2483
525,-0.02675,14.2316
526,-0.02674,14.2316
527,-0.02673,14.2149
528,-0.02672,14.2149
529,-0.02671,14.2149
530,-0.0267,14.2149
531,-0.02669,14.2149
532,-0.02668,14.2149
533,-0.02667,14.2149
534,-0.02666,14.2149
535,-0.02665,14.2149
536,-0.02664,14.2149
537,-0.02663,14.2149
538,-0.02662,14.2149
539,-0.02661,14.2149
540,-0.0266,14.2149
541,-0.02659,14.2149
542,-0.02658,14.2149
543,-0.02657,14.2149
544,-0.02656,14.2149
545,-0.02655,14.2149
546,-0.02654,14.2149
547,-0.02653,14.2149
548,-0.02652,14.2149
549,-0.02651,14.2149
550,-0.0265,14.2149
551,-0.02649,14.2149
552,-0.02648,14.2149
553,-0.02647,14.2149
554,-0.02646,14.2149
555,-0.02645,14.2149
556,-0.02644,14.2149
557,-0.02643,14.2149
558,-0.02642,14.2149
559,-0.02641,14.2149
560,-0.0264,14.2149
561,-0.02639,14.2149
562,-0.02638,14.2149
563,-0.02637,14.2149
564,-0.02636,14.2149
565,-0.02635,14.2149
566,-0.02634,14.2149
567,-0.02633,14.2149
568,-0.02632,14.2149
569,-0.02631,14.2149
570,-0.0263,14.2149
571,-0.02629,14.2149
572,-0.02628,14.2149
573,-0.02627,14.2149
574,-0.02626,14.2149
575,-0.02625,14.2149
576,-0.02624,14.2149
577,-0.02623,14.2149
578,-0.02622,14.2149
579,-0.02621,14.2149
580,-0.0262,14.2149
581,-0.02619,14.2149
582,-0.02618,14.2149
583,-0.02617,14.2149
584,-0.02616,14.2149
585,-0.02615,14.2149
586,-0.02614,14.2149
587,-0.02613,14.2149
588,-0.02612,14.2149
589,-0.02611,14.2149
590,-0.0261,14.2149
591,-0.02609,14.2149
592,-0.02608,14.2149
593,-0.02607,14.2149
594,-0.02606,14.2149
595,-0.02605,14.2149
596,-0.02604,14.2149
597,-0.02603,14.2149
598,-0.02602,14.2149
599,-0.02601,14.2149
600,-0.026,14.2149
601,-0.02599,14.2149
602,-0.02598,14.2149
603,-0.02597,14.2149
604,-0.02596,14.2149
605,-0.02595,14.2149
606,-0.02594,14.2149
607,-0.02593,14.2149
608,-0.02592,14.2149
609,-0.02591,14.2149
610,-0.0259,14.2149
611,-0.02589,14.2149
612,-0.02588,14.2149
613,-0.02587,14.2149
614,-0.02586,14.2149
615,-0.02585,14.2149
616,-0.02584,14.2149
617,-0.02583,14.2149
618,-0.02582,14.2149
619,-0.02581,14.2149
620,-0.0258,14.2149
621,-0.02579,14.2149
622,-0.02578,14.2149
623,-0.02577,14.2149
624,-0.02576,14.2149
625,-0.02575,14.2149
626,-0.02574,14.2149
627,-0.02573,14.2149
628,-0.02572,14.2149
629,-0.02571,14.2149
630,-0.0257,14.2149
631,-0.02569,14.2149
632,-0.02568,14.2149
633,-0.02567,14.2149
634,-0.02566,14.2149
635,-0.02565,14.2149
636,-0.02564,14.2149
637,-0.02563,14.2149
638,-0.02562,14.2149
639,-0.02561,14.2149
640,-0.0256,14.2149
641,-0.02559,14.2149
642,-0.02558,14.2149
643,-0.02557,14.2149
644,-0.02556,14.2149
645,-0.02555,14.2149
646,-0.02554,14.2149
647,-0.02553,14.2149
648,-0.02552,14.2149
649,-0.02551,14.2149
650,-0.0255,14.2149
651,-0.02549,14.2149
652,-0.02548,14.2149
653,-0.02547,14.2149
654,-0.02546,14.2149
655,-0.02545,14.2149
656,-0.02544,14.2149
657,-0.02543,14.2149
658,-0.02542,14.2149
659,-0.02541,14.2149
660,-0.0254,14.2149
661,-0.02539,14.2149
662,-0.02538,14.2149
663,-0.02537,14.2149
664,-0.02536,14.2149
665,-0.02535,14.2149
666,-0.02534,14.2149
667,-0.02533,14.2149
668,-0.02532,14.2149
669,-0.02531,14.2149
670,-0.0253,14.2149
671,-0.02529,14.2149
672,-0.02528,14.2149
673,-0.02527,14.2149
674,-0.02526,14.2149
675,-0.02525,14.2149
676,-0.02524,14.2149
677,-0.02523,14.2149
678,-0.02522,14.2149
679,-0.02521,14.2149
680,-0.0252,14.2149
681,-0.02519,14.2149
682,-0.02518,14.2149
683,-0.02517,14.2149
684,-0.02516,14.2149
685,-0.02515,14.2149
686,-0.02514,14.2149
687,-0.02513,14.2149
688,-0.02512,14.2149
689,-0.02511,14.2149
690,-0.0251,14.2149
691,-0.02509,14.2149
692,-0.02508,14.2149
693,-0.02507,14.2149
694,-0.02506,14.2149
695,-0.02505,14.2149
696,-0.02504,14.2149
697,-0.02503,14.2149
698,-0.02502,14.2149
699,-0.02501,14.2149
700,-0.025,14.2149
701,-0.02499,14.2149
702,-0.02498,14.2149
703,-0.02497,14.2149
704,-0.02496,14.2149
705,-0.02495,14.2149
706,-0.02494,14.2149
707,-0.02493,14.2149
708,-0.02492,14.2149
709,-0.02491,14.2149
710,-0.0249,14.2149
711,-0.02489,14.2149
712,-0.02488,14.2149
713,-0.02487,14.2149
714,-0.02486,14.2149
715,-0.02485,14.2149
716,-0.02484,14.2149
717,-0.02483,14.2149
718,-0.02482,14.2149
719,-0.02481,14.2149
720,-0.0248,14.2149
721,-0.02479,14.2149
722,-0.02478,14.2149
723,-0.02477,14.2149
724,-0.02476,14.2149
725,-0.02475,14.2149
726,-0.02474,14.2149
727,-0.02473,14.2149
728,-0.02472,14.2149
729,-0.02471,14.2149
730,-0.0247,14.2149
731,-0.02469,14.2149
732,-0.02468,14.2149
733,-0.02467,14.2149
734,-0.02466,14.2149
735,-0.02465,14.2149
736,-0.02464,14.2149
737,-0.02463,14.2149
738,-0.02462,14.2149
739,-0.02461,14.2149
740,-0.0246,14.2149
741,-0.02459,14.2149
742,-0.02458,14.2149
743,-0.02457,14.2149
744,-0.02456,14.2149
745,-0.02455,14.2149
746,-0.02454,14.2149
747,-0.02453,14.2149
748,-0.02452,14.2149
749,-0.02451,14.2149
750,-0.0245,14.2149
751,-0.02449,14.2149
752,-0.02448,14.2149
753,-0.02447,14.2149
754,-0.02446,14.2149
755,-0.02445,14.2149
756,-0.02444,14.2149
757,-0.02443,14.2149
758,-0.02442,14.2149
759,-0.02441,14.2149
760,-0.0244,14.2149
761,-0.02439,14.2149
762,-0.02438,14.2149
763,-0.02437,14.2149
764,-0.02436,14.2149
765,-0.02435,14.2149
766,-0.02434,14.2149
767,-0.02433,14.2149
768,-0.02432,14.2149
769,-0.02431,14.2149
770,-0.0243,14.2149
771,-0.02429,14.2149
772,-0.02428,14.2149
773,-0.02427,14.2149
774,-0.02426,14.2149
775,-0.02425,14.2149
776,-0.02424,14.2149
777,-0.02423,14.2149
778,-0.02422,14.2149
779,-0.02421,14.2149
780,-0.0242,14.2149
781,-0.02419,14.2149
782,-0.02418,14.2149
783,-0.02417,14.2149
784,-0.02416,14.2149
785,-0.02415,14.2149
786,-0.02414,14.2149
787,-0.02413,14.2149
788,-0.02412,14.2149
789,-0.02411,14.2149
790,-0.0241,14.2149
791,-0.02409,14.2149
792,-0.02408,14.2149
793,-0.02407,14.2149
794,-0.02406,14.2149
795,-0.02405,14.2149
796,-0.02404,14.2149
797,-0.02403,14.2149
798,-0.02402,14.2149
799,-0.02401,14.2149
800,-0.024,14.2149
801,-0.02399,14.2149
802,-0.02398,14.2149
803,-0.02397,14.2149
804,-0.02396,14.2149
805,-0.02395,14.2149
806,-0.02394,14.2149
807,-0.02393,14.2149
808,-0.02392,14.2149
809,-0.02391,14.2149
810,-0.0239,14.2149
811,-0.02389,14.2149
812,-0.02388,14.2149
813,-0.02387,14.2149
814,-0.02386,14.2149
815,-0.02385,14.2149
816,-0.02384,14.2149
817,-0.02383,14.2149
818,-0.02382,14.2149
819,-0.02381,14.2149
820,-0.0238,14.2149
821,-0.02379,14.2149
822,-0.02378,14.2149
823,-0.02377,14.2149
824,-0.02376,14.2149
825,-0.02375,14.2149
826,-0.02374,14.2149
827,-0.02373,14.2149
828,-0.02372,14.2149
829,-0.02371,14.2149
830,-0.0237,14.2149
831,-0.02369,14.2149
832,-0.02368,14.2149
833,-0.02367,14.2149
834,-0.02366,14.2149
835,-0.02365,14.2149
836,-0.02364,14.2149
837,-0.02363,14.2149
838,-0.02362,14.2149
839,-0.02361,14.2149
840,-0.0236,14.2149
841,-0.02359,14.2149
842,-0.02358,14.2149
843,-0.02357,14.2149
844,-0.02356,14.2149
845,-0.02355,14.2149
846,-0.02354,14.2149
847,-0.02353,14.2149
848,-0.02352,14.2149
849,-0.02351,14.2149
850,-0.0235,14.2149
851,-0.02349,14.2149
852,-0.02348,14.2149
853,-0.02347,14.2149
854,-0.02346,14.2149
855,-0.02345,14.2149
856,-0.02344,14.2149
857,-0.02343,14.2149
858,-0.02342,14.2149
859,-0.02341,14.2149
860,-0.0234,14.2149
861,-0.02339,14.2149
862,-0.02338,14.2149
863,-0.02337,14.2149
864,-0.02336,14.2149
865,-0.02335,14.2149
866,-0.02334,14.2149
867,-0.02333,14.2149
868,-0.02332,14.2149
869,-0.02331,14.2149
870,-0.0233,14.2149
871,-0.02329,14.2149
872,-0.02328,14.2149
873,-0.02327,14.2149
874,-0.02326,14.2149
875,-0.02325,14.2149
876,-0.02324,14.2149
877,-0.02323,14.2149
878,-0.02322,14.2149
879,-0.02321,14.2149
880,-0.0232,14.2149
881,-0.02319,14.2149
882,-0.02318,14.2149
883,-0.02317,14.2149
884,-0.02316,14.2149
885,-0.02315,14.2149
886,-0.02314,14.2149
887,-0.02313,14.2149
888,-0.02312,14.2149
889,-0.02311,14.2149
890,-0.0231,14.2149
891,-0.02309,14.2149
892,-0.02308,14.2149
893,-0.02307,14.2149
894,-0.02306,14.2149
895,-0.02305,14.2149
896,-0.02304,14.2149
897,-0.02303,14.2149
898,-0.02302,14.2149
899,-0.02301,14.2149
900,-0.023,14.2149
901,-0.02299,14.2149
902,-0.02298,14.2149
903,-0.02297,14.2149
904,-0.02296,14.2149
905,-0.02295,14.2149
906,-0.02294,14.2149
907,-0.02293,14.2149
908,-0.02292,14.2149
909,-0.02291,14.2149
910,-0.0229,14.2149
911,-0.02289,14.2149
912,-0.02288,14.2149
913,-0.02287,14.2149
914,-0.02286,14.2149
915,-0.02285,14.2149
916,-0.02284,14.2149
917,-0.02283,14.2149
918,-0.02282,14.2149
919,-0.02281,14.2149
920,-0.0228,14.2149
921,-0.02279,14.2149
922,-0.02278,14.2149
923,-0.02277,14.2149
924,-0.02276,14.2149
925,-0.02275,14.2149
926,-0.02274,14.2149
927,-0.02273,14.2149
928,-0.02272,14.2149
929,-0.02271,14.2149
930,-0.0227,14.2149
931,-0.02269,14.2149
932,-0.02268,14.2149
933,-0.02267,14.2149
934,-0.02266,14.2149
935,-0.02265,14.2149
