Mesures/Data/Filtre_4ms_1v.csv

;Scopy version,f4beeb1
;Exported on,Wednesday May 15/05/2024
;Device,M2K
;Nr of samples,6400
;Sample rate,100000
;Tool,Oscilloscope
;Additional Information,
Sample,Time(S),CH1(V)
0,-0.032,-0.0668149
1,-0.03199,-0.0668149
2,-0.03198,-0.0668149
3,-0.03197,-0.0668149
4,-0.03196,-0.0668149
5,-0.03195,-0.0668149
6,-0.03194,-0.0668149
7,-0.03193,-0.0668149
8,-0.03192,-0.0668149
9,-0.03191,-0.0668149
10,-0.0319,-0.0668149
11,-0.03189,-0.0668149
12,-0.03188,-0.0668149
13,-0.03187,-0.0668149
14,-0.03186,-0.0668149
15,-0.03185,-0.0668149
16,-0.03184,-0.0668149
17,-0.03183,-0.0668149
18,-0.03182,-0.0668149
19,-0.03181,-0.0668149
20,-0.0318,-0.0668149
21,-0.03179,-0.0668149
22,-0.03178,-0.0668149
23,-0.03177,-0.0668149
24,-0.03176,-0.0668149
25,-0.03175,-0.0668149
26,-0.03174,-0.0668149
27,-0.03173,-0.0668149
28,-0.03172,-0.0668149
29,-0.03171,-0.0668149
30,-0.0317,-0.0668149
31,-0.03169,-0.0668149
32,-0.03168,-0.0668149
33,-0.03167,-0.0668149
34,-0.03166,-0.0668149
35,-0.03165,-0.0668149
36,-0.03164,-0.0668149
37,-0.03163,-0.0668149
38,-0.03162,-0.0668149
39,-0.03161,-0.0668149
40,-0.0316,-0.0668149
41,-0.03159,-0.0668149
42,-0.03158,-0.0668149
43,-0.03157,-0.0668149
44,-0.03156,-0.0668149
45,-0.03155,-0.0668149
46,-0.03154,-0.0668149
47,-0.03153,-0.0668149
48,-0.03152,-0.0668149
49,-0.03151,-0.0668149
50,-0.0315,-0.0668149
51,-0.03149,-0.0668149
52,-0.03148,-0.0668149
53,-0.03147,-0.0668149
54,-0.03146,-0.0668149
55,-0.03145,-0.0668149
56,-0.03144,-0.0668149
57,-0.03143,-0.0668149
58,-0.03142,-0.0668149
59,-0.03141,-0.0668149
60,-0.0314,-0.0668149
61,-0.03139,-0.0668149
62,-0.03138,-0.0668149
63,-0.03137,-0.0668149
64,-0.03136,-0.0668149
65,-0.03135,-0.0668149
66,-0.03134,-0.0668149
67,-0.03133,-0.0668149
68,-0.03132,-0.0668149
69,-0.03131,-0.0668149
70,-0.0313,-0.0668149
71,-0.03129,-0.0668149
72,-0.03128,-0.0668149
73,-0.03127,-0.0668149
74,-0.03126,-0.0668149
75,-0.03125,-0.0668149
76,-0.03124,-0.0668149
77,-0.03123,-0.0668149
78,-0.03122,-0.0668149
79,-0.03121,-0.0668149
80,-0.0312,-0.0668149
81,-0.03119,-0.0668149
82,-0.03118,-0.0668149
83,-0.03117,-0.0668149
84,-0.03116,-0.0668149
85,-0.03115,-0.0668149
86,-0.03114,-0.0668149
87,-0.03113,-0.0668149
88,-0.03112,-0.0668149
89,-0.03111,-0.0668149
90,-0.0311,-0.0668149
91,-0.03109,-0.0668149
92,-0.03108,-0.0668149
93,-0.03107,-0.0668149
94,-0.03106,-0.0668149
95,-0.03105,-0.0668149
96,-0.03104,-0.0668149
97,-0.03103,-0.0668149
98,-0.03102,-0.0668149
99,-0.03101,-0.0668149
100,-0.031,-0.0668149
101,-0.03099,-0.0668149
102,-0.03098,-0.0668149
103,-0.03097,-0.0668149
104,-0.03096,-0.0668149
105,-0.03095,-0.0668149
106,-0.03094,-0.0668149
107,-0.03093,-0.0668149
108,-0.03092,-0.0668149
109,-0.03091,-0.0668149
110,-0.0309,-0.0668149
111,-0.03089,-0.0668149
112,-0.03088,-0.0668149
113,-0.03087,-0.0668149
114,-0.03086,-0.0668149
115,-0.03085,-0.0668149
116,-0.03084,-0.0668149
117,-0.03083,-0.0668149
118,-0.03082,-0.0668149
119,-0.03081,-0.0668149
120,-0.0308,-0.0668149
121,-0.03079,-0.0668149
122,-0.03078,-0.0668149
123,-0.03077,-0.0668149
124,-0.03076,-0.0668149
125,-0.03075,-0.0668149
126,-0.03074,-0.0668149
127,-0.03073,-0.0668149
128,-0.03072,-0.0668149
129,-0.03071,-0.0668149
130,-0.0307,-0.0668149
131,-0.03069,-0.0668149
132,-0.03068,-0.0668149
133,-0.03067,-0.0668149
134,-0.03066,-0.0501112
135,-0.03065,-0.0501112
136,-0.03064,-0.0668149
137,-0.03063,-0.0835186
138,-0.03062,-0.0668149
139,-0.03061,-0.0334074
140,-0.0306,-0.0501112
141,-0.03059,-0.0835186
142,-0.03058,-0.0668149
143,-0.03057,-0.0334074
144,-0.03056,-0.0835186
145,-0.03055,-0.0501112
146,-0.03054,0
147,-0.03053,-0.100222
148,-0.03052,-0.0334074
149,-0.03051,-0.0668149
150,-0.0305,-0.0835186
151,-0.03049,0.0501112
152,-0.03048,-0.13363
153,-0.03047,-0.0501112
154,-0.03046,0
155,-0.03045,-0.100222
156,-0.03044,-0.0668149
157,-0.03043,-0.0334074
158,-0.03042,-0.0334074
159,-0.03041,-0.100222
160,-0.0304,-0.0334074
161,-0.03039,-0.0501112
162,-0.03038,-0.100222
163,-0.03037,-0.0334074
164,-0.03036,-0.0501112
165,-0.03035,-0.0668149
166,-0.03034,-0.0668149
167,-0.03033,-0.0501112
168,-0.03032,-0.0835186
169,-0.03031,-0.0501112
170,-0.0303,-0.0501112
171,-0.03029,-0.100222
172,-0.03028,-0.0334074
173,-0.03027,-0.0334074
174,-0.03026,-0.100222
175,-0.03025,-0.0668149
176,-0.03024,-0.0334074
177,-0.03023,-0.0668149
178,-0.03022,-0.0668149
179,-0.03021,-0.0334074
180,-0.0302,-0.0501112
181,-0.03019,-0.0668149
182,-0.03018,-0.0334074
183,-0.03017,-0.0334074
184,-0.03016,-0.100222
185,-0.03015,-0.0334074
186,-0.03014,-0.0501112
187,-0.03013,-0.116926
188,-0.03012,-0.0334074
189,-0.03011,-0.0501112
190,-0.0301,-0.0835186
191,-0.03009,-0.0501112
192,-0.03008,-0.0501112
193,-0.03007,-0.0835186
194,-0.03006,-0.0668149
195,-0.03005,-0.0334074
196,-0.03004,-0.100222
197,-0.03003,-0.0668149
198,-0.03002,-0.0334074
199,-0.03001,-0.0668149
200,-0.03,-0.0668149
201,-0.02999,-0.0334074
202,-0.02998,-0.0668149
203,-0.02997,-0.0668149
204,-0.02996,-0.0334074
205,-0.02995,-0.0835186
206,-0.02994,-0.100222
207,-0.02993,0.0334074
208,-0.02992,-0.0668149
209,-0.02991,-0.13363
210,-0.0299,0
211,-0.02989,-0.0334074
212,-0.02988,-0.13363
213,-0.02987,0.0334074
214,-0.02986,-0.0668149
215,-0.02985,-0.0668149
216,-0.02984,-0.0334074
217,-0.02983,-0.116926
218,-0.02982,0.0167037
219,-0.02981,-0.100222
220,-0.0298,-0.0668149
221,-0.02979,0.0167037
222,-0.02978,-0.116926
223,-0.02977,-0.0334074
224,-0.02976,-0.0668149
225,-0.02975,-0.0668149
226,-0.02974,-0.0334074
227,-0.02973,-0.0835186
228,-0.02972,-0.0334074
229,-0.02971,-0.0668149
230,-0.0297,-0.0668149
231,-0.02969,-0.0668149
232,-0.02968,-0.0668149
233,-0.02967,-0.0334074
234,-0.02966,-0.0835186
235,-0.02965,-0.0501112
236,-0.02964,-0.0501112
237,-0.02963,-0.0668149
238,-0.02962,-0.0668149
239,-0.02961,-0.0668149
240,-0.0296,-0.0334074
241,-0.02959,-0.0668149
242,-0.02958,-0.0668149
243,-0.02957,-0.0668149
244,-0.02956,-0.0668149
245,-0.02955,-0.0668149
246,-0.02954,-0.0668149
247,-0.02953,-0.0668149
248,-0.02952,-0.0668149
249,-0.02951,-0.0668149
250,-0.0295,-0.0668149
251,-0.02949,-0.0668149
252,-0.02948,-0.0668149
253,-0.02947,-0.0668149
254,-0.02946,-0.0668149
255,-0.02945,-0.0668149
256,-0.02944,-0.0668149
257,-0.02943,-0.0668149
258,-0.02942,-0.0668149
259,-0.02941,-0.0668149
260,-0.0294,-0.0501112
261,-0.02939,-0.0668149
262,-0.02938,-0.0668149
263,-0.02937,-0.0668149
264,-0.02936,-0.0668149
265,-0.02935,-0.0668149
266,-0.02934,-0.0668149
267,-0.02933,-0.0668149
268,-0.02932,-0.0668149
269,-0.02931,-0.0668149
270,-0.0293,-0.0668149
271,-0.02929,-0.0668149
272,-0.02928,-0.0668149
273,-0.02927,-0.0668149
274,-0.02926,-0.0668149
275,-0.02925,-0.0668149
276,-0.02924,-0.0668149
277,-0.02923,-0.0668149
278,-0.02922,-0.0668149
279,-0.02921,-0.0668149
280,-0.0292,-0.0668149
281,-0.02919,-0.0668149
282,-0.02918,-0.0668149
283,-0.02917,-0.0668149
284,-0.02916,-0.0668149
285,-0.02915,-0.0668149
286,-0.02914,-0.0668149
287,-0.02913,-0.0668149
288,-0.02912,-0.0668149
289,-0.02911,-0.0668149
290,-0.0291,-0.0668149
291,-0.02909,-0.0668149
292,-0.02908,-0.0668149
293,-0.02907,-0.0668149
294,-0.02906,-0.0668149
295,-0.02905,-0.0668149
296,-0.02904,-0.0668149
297,-0.02903,-0.0668149
298,-0.02902,-0.0668149
299,-0.02901,-0.0668149
300,-0.029,-0.0668149
301,-0.02899,-0.0668149
302,-0.02898,-0.0668149
303,-0.02897,-0.0668149
304,-0.02896,-0.0668149
305,-0.02895,-0.0668149
306,-0.02894,-0.0668149
307,-0.02893,-0.0668149
308,-0.02892,-0.0668149
309,-0.02891,-0.0668149
310,-0.0289,-0.0668149
311,-0.02889,-0.0668149
312,-0.02888,-0.0668149
313,-0.02887,-0.0668149
314,-0.02886,-0.0668149
315,-0.02885,-0.0668149
316,-0.02884,-0.0668149
317,-0.02883,-0.0668149
318,-0.02882,-0.0668149
319,-0.02881,-0.0668149
320,-0.0288,-0.0668149
321,-0.02879,-0.0668149
322,-0.02878,-0.0668149
323,-0.02877,-0.0668149
324,-0.02876,-0.0668149
325,-0.02875,-0.0668149
326,-0.02874,-0.0668149
327,-0.02873,-0.0668149
328,-0.02872,-0.0668149
329,-0.02871,-0.0668149
330,-0.0287,-0.0668149
331,-0.02869,-0.0668149
332,-0.02868,-0.0668149
333,-0.02867,-0.0668149
334,-0.02866,-0.0668149
335,-0.02865,-0.0668149
336,-0.02864,-0.0668149
337,-0.02863,-0.0668149
338,-0.02862,-0.0668149
339,-0.02861,-0.0668149
340,-0.0286,-0.0668149
341,-0.02859,-0.0668149
342,-0.02858,-0.0668149
343,-0.02857,-0.0668149
344,-0.02856,-0.0668149
345,-0.02855,-0.0668149
346,-0.02854,-0.0668149
347,-0.02853,-0.0668149
348,-0.02852,-0.0668149
349,-0.02851,-0.0668149
350,-0.0285,-0.0668149
351,-0.02849,-0.0668149
352,-0.02848,-0.0668149
353,-0.02847,-0.0668149
354,-0.02846,-0.0668149
355,-0.02845,-0.0668149
356,-0.02844,-0.0668149
357,-0.02843,-0.0668149
358,-0.02842,-0.0668149
359,-0.02841,-0.0668149
360,-0.0284,-0.0668149
361,-0.02839,-0.0668149
362,-0.02838,-0.0668149
363,-0.02837,-0.0668149
364,-0.02836,-0.0668149
365,-0.02835,-0.0668149
366,-0.02834,-0.0668149
367,-0.02833,-0.0668149
368,-0.02832,-0.0668149
369,-0.02831,-0.0668149
370,-0.0283,-0.0668149
371,-0.02829,-0.0668149
372,-0.02828,-0.0668149
373,-0.02827,-0.0668149
374,-0.02826,-0.0668149
375,-0.02825,-0.0668149
376,-0.02824,-0.0668149
377,-0.02823,-0.0668149
378,-0.02822,-0.0668149
379,-0.02821,-0.0668149
380,-0.0282,-0.0668149
381,-0.02819,-0.0668149
382,-0.02818,-0.0668149
383,-0.02817,-0.0668149
384,-0.02816,-0.0668149
385,-0.02815,-0.0668149
386,-0.02814,-0.0668149
387,-0.02813,-0.0668149
388,-0.02812,-0.0668149
389,-0.02811,-0.0668149
390,-0.0281,-0.0668149
391,-0.02809,-0.0668149
392,-0.02808,-0.0668149
393,-0.02807,-0.0668149
394,-0.02806,-0.0668149
395,-0.02805,-0.0668149
396,-0.02804,-0.0668149
397,-0.02803,-0.0668149
398,-0.02802,-0.0668149
399,-0.02801,-0.0668149
400,-0.028,-0.0668149
401,-0.02799,-0.0668149
402,-0.02798,-0.0668149
403,-0.02797,-0.0668149
404,-0.02796,-0.0668149
405,-0.02795,-0.0668149
406,-0.02794,-0.0668149
407,-0.02793,-0.0668149
408,-0.02792,-0.0668149
409,-0.02791,-0.0668149
410,-0.0279,-0.0668149
411,-0.02789,-0.0668149
412,-0.02788,-0.0668149
413,-0.02787,-0.0668149
414,-0.02786,-0.0668149
415,-0.02785,-0.0668149
416,-0.02784,-0.0668149
417,-0.02783,-0.0668149
418,-0.02782,-0.0668149
419,-0.02781,-0.0668149
420,-0.0278,-0.0668149
421,-0.02779,-0.0668149
422,-0.02778,-0.0668149
423,-0.02777,-0.0668149
424,-0.02776,-0.0668149
425,-0.02775,-0.0668149
426,-0.02774,-0.0668149
427,-0.02773,-0.0668149
428,-0.02772,-0.0668149
429,-0.02771,-0.0668149
430,-0.0277,-0.0668149
431,-0.02769,-0.0668149
432,-0.02768,-0.0668149
433,-0.02767,-0.0668149
434,-0.02766,-0.0668149
435,-0.02765,-0.0668149
436,-0.02764,-0.0668149
437,-0.02763,-0.0668149
438,-0.02762,-0.0668149
439,-0.02761,-0.0668149
440,-0.0276,-0.0668149
441,-0.02759,-0.0668149
442,-0.02758,-0.0668149
443,-0.02757,-0.0668149
444,-0.02756,-0.0668149
445,-0.02755,-0.0668149
446,-0.02754,-0.0668149
447,-0.02753,-0.0668149
448,-0.02752,-0.0668149
449,-0.02751,-0.0668149
450,-0.0275,-0.0668149
451,-0.02749,-0.0668149
452,-0.02748,-0.0668149
453,-0.02747,-0.0668149
454,-0.02746,-0.0668149
455,-0.02745,-0.0668149
456,-0.02744,-0.0668149
457,-0.02743,-0.0668149
458,-0.02742,-0.0668149
459,-0.02741,-0.0668149
460,-0.0274,-0.0668149
461,-0.02739,-0.0668149
462,-0.02738,-0.0668149
463,-0.02737,-0.0668149
464,-0.02736,-0.0668149
465,-0.02735,-0.0668149
466,-0.02734,-0.0668149
467,-0.02733,-0.0668149
468,-0.02732,-0.0668149
469,-0.02731,-0.0668149
470,-0.0273,-0.0668149
471,-0.02729,-0.0668149
472,-0.02728,-0.0501112
473,-0.02727,-0.0835186
474,-0.02726,-0.0501112
475,-0.02725,-0.0668149
476,-0.02724,-0.0668149
477,-0.02723,-0.0668149
478,-0.02722,-0.0668149
479,-0.02721,-0.0668149
480,-0.0272,-0.0668149
481,-0.02719,-0.0668149
482,-0.02718,-0.0668149
483,-0.02717,-0.0668149
484,-0.02716,-0.0668149
485,-0.02715,-0.0668149
486,-0.02714,-0.0668149
487,-0.02713,-0.0668149
488,-0.02712,-0.0668149
489,-0.02711,-0.0668149
490,-0.0271,-0.0668149
491,-0.02709,-0.0668149
492,-0.02708,-0.0668149
493,-0.02707,-0.0668149
494,-0.02706,-0.0668149
495,-0.02705,-0.0668149
496,-0.02704,-0.0668149
497,-0.02703,-0.0668149
498,-0.02702,-0.0668149
499,-0.02701,-0.0668149
500,-0.027,-0.0668149
501,-0.02699,-0.0668149
502,-0.02698,-0.0668149
503,-0.02697,-0.0668149
504,-0.02696,-0.0668149
505,-0.02695,-0.0668149
506,-0.02694,-0.0668149
507,-0.02693,-0.0668149
508,-0.02692,-0.0668149
509,-0.02691,-0.0668149
510,-0.0269,-0.0668149
511,-0.02689,-0.0668149
512,-0.02688,-0.0668149
513,-0.02687,-0.0668149
514,-0.02686,-0.0668149
515,-0.02685,-0.0668149
516,-0.02684,-0.0668149
517,-0.02683,-0.0668149
518,-0.02682,-0.0668149
519,-0.02681,-0.0668149
520,-0.0268,-0.0668149
521,-0.02679,-0.0668149
522,-0.02678,-0.0668149
523,-0.02677,-0.0668149
524,-0.02676,-0.0668149
525,-0.02675,-0.0668149
526,-0.02674,-0.0668149
527,-0.02673,-0.0668149
528,-0.02672,-0.0668149
529,-0.02671,-0.0668149
530,-0.0267,-0.0668149
531,-0.02669,-0.0668149
532,-0.02668,-0.0668149
533,-0.02667,-0.0668149
534,-0.02666,-0.0668149
535,-0.02665,-0.0668149
536,-0.02664,-0.0668149
537,-0.02663,-0.0668149
538,-0.02662,-0.0668149
539,-0.02661,-0.0668149
540,-0.0266,-0.0668149
541,-0.02659,-0.0668149
542,-0.02658,-0.0668149
543,-0.02657,-0.0668149
544,-0.02656,-0.0668149
545,-0.02655,-0.0668149
546,-0.02654,-0.0668149
547,-0.02653,-0.0668149
548,-0.02652,-0.0668149
549,-0.02651,-0.0668149
550,-0.0265,-0.0668149
551,-0.02649,-0.0668149
552,-0.02648,-0.0668149
553,-0.02647,-0.0668149
554,-0.02646,-0.0668149
555,-0.02645,-0.0668149
556,-0.02644,-0.0668149
557,-0.02643,-0.0668149
558,-0.02642,-0.0668149
559,-0.02641,-0.0668149
560,-0.0264,-0.0668149
561,-0.02639,-0.0668149
562,-0.02638,-0.0668149
563,-0.02637,-0.0668149
564,-0.02636,-0.0668149
565,-0.02635,-0.0668149
566,-0.02634,-0.0668149
567,-0.02633,-0.0668149
568,-0.02632,-0.0668149
569,-0.02631,-0.0668149
570,-0.0263,-0.0668149
571,-0.02629,-0.0668149
572,-0.02628,-0.0668149
573,-0.02627,-0.0668149
574,-0.02626,-0.0668149
575,-0.02625,-0.0668149
576,-0.02624,-0.0668149
577,-0.02623,-0.0668149
578,-0.02622,-0.0668149
579,-0.02621,-0.0668149
580,-0.0262,-0.0668149
581,-0.02619,-0.0668149
582,-0.02618,-0.0668149
583,-0.02617,-0.0668149
584,-0.02616,-0.0668149
585,-0.02615,-0.0668149
586,-0.02614,-0.0668149
587,-0.02613,-0.0668149
588,-0.02612,-0.0668149
589,-0.02611,-0.0668149
590,-0.0261,-0.0668149
591,-0.02609,-0.0668149
592,-0.02608,-0.0668149
593,-0.02607,-0.0668149
594,-0.02606,-0.0668149
595,-0.02605,-0.0668149
596,-0.02604,-0.0668149
597,-0.02603,-0.0668149
598,-0.02602,-0.0668149
599,-0.02601,-0.0668149
600,-0.026,-0.0668149
601,-0.02599,-0.0668149
602,-0.02598,-0.0668149
603,-0.02597,-0.0668149
604,-0.02596,-0.0668149
605,-0.02595,-0.0668149
606,-0.02594,-0.0668149
607,-0.02593,-0.0668149
608,-0.02592,-0.0668149
609,-0.02591,-0.0668149
610,-0.0259,-0.0668149
611,-0.02589,-0.0668149
612,-0.02588,-0.0668149
613,-0.02587,-0.0668149
614,-0.02586,-0.0668149
615,-0.02585,-0.0668149
616,-0.02584,-0.0668149
617,-0.02583,-0.0668149
618,-0.02582,-0.0668149
619,-0.02581,-0.0668149
620,-0.0258,-0.0668149
621,-0.02579,-0.0668149
622,-0.02578,-0.0668149
623,-0.02577,-0.0668149
624,-0.02576,-0.0668149
625,-0.02575,-0.0668149
626,-0.02574,-0.0668149
627,-0.02573,-0.0668149
628,-0.02572,-0.0668149
629,-0.02571,-0.0668149
630,-0.0257,-0.0668149
631,-0.02569,-0.0668149
632,-0.02568,-0.0668149
633,-0.02567,-0.0668149
634,-0.02566,-0.0668149
635,-0.02565,-0.0668149
636,-0.02564,-0.0668149
637,-0.02563,-0.0668149
638,-0.02562,-0.0668149
639,-0.02561,-0.0668149
640,-0.0256,-0.0668149
641,-0.02559,-0.0668149
642,-0.02558,-0.0668149
643,-0.02557,-0.0668149
644,-0.02556,-0.0668149
645,-0.02555,-0.0668149
646,-0.02554,-0.0668149
647,-0.02553,-0.0668149
648,-0.02552,-0.0668149
649,-0.02551,-0.0668149
650,-0.0255,-0.0668149
651,-0.02549,-0.0668149
652,-0.02548,-0.0668149
653,-0.02547,-0.0668149
654,-0.02546,-0.0668149
655,-0.02545,-0.0668149
656,-0.02544,-0.0668149
657,-0.02543,-0.0668149
658,-0.02542,-0.0668149
659,-0.02541,-0.0668149
660,-0.0254,-0.0668149
661,-0.02539,-0.0668149
662,-0.02538,-0.0668149
663,-0.02537,-0.0668149
664,-0.02536,-0.0668149
665,-0.02535,-0.0668149
666,-0.02534,-0.0668149
667,-0.02533,-0.0668149
668,-0.02532,-0.0668149
669,-0.02531,-0.0668149
670,-0.0253,-0.0668149
671,-0.02529,-0.0668149
672,-0.02528,-0.0668149
673,-0.02527,-0.0668149
674,-0.02526,-0.0668149
675,-0.02525,-0.0668149
676,-0.02524,-0.0668149
677,-0.02523,-0.0668149
678,-0.02522,-0.0668149
679,-0.02521,-0.0668149
680,-0.0252,-0.0668149
681,-0.02519,-0.0668149
682,-0.02518,-0.0668149
683,-0.02517,-0.0668149
684,-0.02516,-0.0668149
685,-0.02515,-0.0668149
686,-0.02514,-0.0668149
687,-0.02513,-0.0668149
688,-0.02512,-0.0668149
689,-0.02511,-0.0668149
690,-0.0251,-0.0668149
691,-0.02509,-0.0668149
692,-0.02508,-0.0668149
693,-0.02507,-0.0668149
694,-0.02506,-0.0668149
695,-0.02505,-0.0668149
696,-0.02504,-0.0668149
697,-0.02503,-0.0668149
698,-0.02502,-0.0668149
699,-0.02501,-0.0668149
700,-0.025,-0.0668149
701,-0.02499,-0.0668149
702,-0.02498,-0.0668149
703,-0.02497,-0.0668149
704,-0.02496,-0.0668149
705,-0.02495,-0.0668149
706,-0.02494,-0.0668149
707,-0.02493,-0.0668149
708,-0.02492,-0.0668149
709,-0.02491,-0.0668149
710,-0.0249,-0.0668149
711,-0.02489,-0.0668149
712,-0.02488,-0.0668149
713,-0.02487,-0.0668149
714,-0.02486,-0.0668149
715,-0.02485,-0.0668149
716,-0.02484,-0.0668149
717,-0.02483,-0.0668149
718,-0.02482,-0.0668149
719,-0.02481,-0.0668149
720,-0.0248,-0.0668149
721,-0.02479,-0.0668149
722,-0.02478,-0.0668149
723,-0.02477,-0.0668149
724,-0.02476,-0.0668149
725,-0.02475,-0.0668149
726,-0.02474,-0.0668149
727,-0.02473,-0.0668149
728,-0.02472,-0.0668149
729,-0.02471,-0.0668149
730,-0.0247,-0.0668149
731,-0.02469,-0.0668149
732,-0.02468,-0.0668149
733,-0.02467,-0.0668149
734,-0.02466,-0.0668149
735,-0.02465,-0.0668149
736,-0.02464,-0.0668149
737,-0.02463,-0.0668149
738,-0.02462,-0.0668149
739,-0.02461,-0.0668149
740,-0.0246,-0.0668149
741,-0.02459,-0.0668149
742,-0.02458,-0.0668149
743,-0.02457,-0.0668149
744,-0.02456,-0.0668149
745,-0.02455,-0.0668149
746,-0.02454,-0.0668149
747,-0.02453,-0.0668149
748,-0.02452,-0.0668149
749,-0.02451,-0.0668149
750,-0.0245,-0.0668149
751,-0.02449,-0.0668149
752,-0.02448,-0.0668149
753,-0.02447,-0.0668149
754,-0.02446,-0.0668149
755,-0.02445,-0.0668149
756,-0.02444,-0.0668149
757,-0.02443,-0.0668149
758,-0.02442,-0.0668149
759,-0.02441,-0.0668149
760,-0.0244,-0.0668149
761,-0.02439,-0.0668149
762,-0.02438,-0.0668149
763,-0.02437,-0.0668149
764,-0.02436,-0.0668149
765,-0.02435,-0.0668149
766,-0.02434,-0.0668149
767,-0.02433,-0.0668149
768,-0.02432,-0.0668149
769,-0.02431,-0.0668149
770,-0.0243,-0.0668149
771,-0.02429,-0.0668149
772,-0.02428,-0.0668149
773,-0.02427,-0.0668149
774,-0.02426,-0.0668149
775,-0.02425,-0.0668149
776,-0.02424,-0.0668149
777,-0.02423,-0.0668149
778,-0.02422,-0.0668149
779,-0.02421,-0.0668149
780,-0.0242,-0.0668149
781,-0.02419,-0.0668149
782,-0.02418,-0.0668149
783,-0.02417,-0.0668149
784,-0.02416,-0.0668149
785,-0.02415,-0.0668149
786,-0.02414,-0.0668149
787,-0.02413,-0.0668149
788,-0.02412,-0.0668149
789,-0.02411,-0.0668149
790,-0.0241,-0.0668149
791,-0.02409,-0.0668149
792,-0.02408,-0.0668149
793,-0.02407,-0.0668149
794,-0.02406,-0.0668149
795,-0.02405,-0.0668149
796,-0.02404,-0.0668149
797,-0.02403,-0.0668149
798,-0.02402,-0.0668149
799,-0.02401,-0.0668149
800,-0.024,-0.0668149
801,-0.02399,-0.0668149
802,-0.02398,-0.0668149
803,-0.02397,-0.0668149
804,-0.02396,-0.0668149
805,-0.02395,-0.0668149
806,-0.02394,-0.0668149
807,-0.02393,-0.0668149
808,-0.02392,-0.0668149
809,-0.02391,-0.0668149
810,-0.0239,-0.0668149
811,-0.02389,-0.0668149
812,-0.02388,-0.0668149
813,-0.02387,-0.0668149
814,-0.02386,-0.0668149
815,-0.02385,-0.0668149
816,-0.02384,-0.0668149
817,-0.02383,-0.0668149
818,-0.02382,-0.0668149
819,-0.02381,-0.0668149
820,-0.0238,-0.0668149
821,-0.02379,-0.0668149
822,-0.02378,-0.0668149
823,-0.02377,-0.0668149
824,-0.02376,-0.0668149
825,-0.02375,-0.0668149
826,-0.02374,-0.0668149
827,-0.02373,-0.0668149
828,-0.02372,-0.0668149
829,-0.02371,-0.0668149
830,-0.0237,-0.0668149
831,-0.02369,-0.0668149
832,-0.02368,-0.0668149
833,-0.02367,-0.0668149
834,-0.02366,-0.0668149
835,-0.02365,-0.0668149
