Mesures/Data/Fm&Ref_4ms_2v5_1m5.csv

;Scopy version,f4beeb1
;Exported on,Wednesday May 15/05/2024
;Device,M2K
;Nr of samples,6400
;Sample rate,100000
;Tool,Oscilloscope
;Additional Information,
Sample,Time(S),CH1(V),CH2(V)
0,-0.032,2.92315,0.818482
1,-0.03199,2.62248,0.818482
2,-0.03198,2.47215,0.818482
3,-0.03197,3.157,0.818482
4,-0.03196,2.73941,0.818482
5,-0.03195,2.42204,0.818482
6,-0.03194,2.75611,0.818482
7,-0.03193,2.47215,0.818482
8,-0.03192,2.2216,0.818482
9,-0.03191,2.72271,0.818482
10,-0.0319,2.40534,0.818482
11,-0.03189,2.57237,0.818482
12,-0.03188,6.01334,0.818482
13,-0.03187,5.12804,0.818482
14,-0.03186,4.59352,0.818482
15,-0.03185,4.74386,0.818482
16,-0.03184,4.4766,0.818482
17,-0.03183,4.00889,0.818482
18,-0.03182,4.35967,0.818482
19,-0.03181,3.85856,0.818482
20,-0.0318,3.47437,0.818482
21,-0.03179,3.10689,0.818482
22,-0.03178,3.52449,0.818482
23,-0.03177,5.8129,0.818482
24,-0.03176,5.01112,0.818482
25,-0.03175,4.4766,0.818482
26,-0.03174,4.96101,0.818482
27,-0.03173,4.37638,0.818482
28,-0.03172,3.94208,0.818482
29,-0.03171,3.50778,0.818482
30,-0.0317,3.1403,0.818482
31,-0.03169,2.82293,0.818482
32,-0.03168,2.53897,0.818482
33,-0.03167,2.255,0.818482
34,-0.03166,2.02115,0.818482
35,-0.03165,1.804,0.818482
36,-0.03164,1.63696,0.818482
37,-0.03163,1.45322,0.818482
38,-0.03162,1.28619,0.818482
39,-0.03161,1.15256,0.818482
40,-0.0316,1.00222,0.818482
41,-0.03159,1.60356,0.818482
42,-0.03158,1.41982,0.818482
43,-0.03157,1.28619,0.818482
44,-0.03156,1.353,0.818482
45,-0.03155,1.57015,0.818482
46,-0.03154,1.38641,0.818482
47,-0.03153,1.25278,0.818482
48,-0.03152,1.11915,0.818482
49,-0.03151,1.00222,0.818482
50,-0.0315,0.868594,0.818482
51,-0.03149,0.801779,0.818482
52,-0.03148,0.701556,0.818482
53,-0.03147,0.601334,0.818482
54,-0.03146,0.618038,0.818482
55,-0.03145,0.85189,0.818482
56,-0.03144,0.71826,0.818482
57,-0.03143,0.618038,0.818482
58,-0.03142,0.902001,0.818482
59,-0.03141,0.818482,0.818482
60,-0.0314,0.701556,0.818482
61,-0.03139,0.634741,0.818482
62,-0.03138,0.567927,0.818482
63,-0.03137,0.751667,0.818482
64,-0.03136,0.634741,0.818482
65,-0.03135,0.868594,0.818482
66,-0.03134,0.85189,0.818482
67,-0.03133,0.768371,0.818482
68,-0.03132,0.684853,0.818482
69,-0.03131,0.58463,0.818482
70,-0.0313,0.551223,0.818482
71,-0.03129,0.467704,0.818482
72,-0.03128,0.400889,0.818482
73,-0.03127,0.384186,0.801779
74,-0.03126,0.334074,0.818482
75,-0.03125,0.601334,0.818482
76,-0.03124,0.501112,0.818482
77,-0.03123,0.451,0.818482
78,-0.03122,0.417593,0.818482
79,-0.03121,0.350778,0.818482
80,-0.0312,0.300667,0.818482
81,-0.03119,0.467704,0.818482
82,-0.03118,0.551223,0.818482
83,-0.03117,0.467704,0.818482
84,-0.03116,0.434297,0.818482
85,-0.03115,0.384186,0.818482
86,-0.03114,0.334074,0.818482
87,-0.03113,0.517815,0.818482
88,-0.03112,0.434297,0.818482
89,-0.03111,0.367482,0.818482
90,-0.0311,0.85189,0.818482
91,-0.03109,0.684853,0.818482
92,-0.03108,0.634741,0.818482
93,-0.03107,0.567927,0.818482
94,-0.03106,0.501112,0.818482
95,-0.03105,0.417593,0.818482
96,-0.03104,0.367482,0.818482
97,-0.03103,0.567927,0.818482
98,-0.03102,0.467704,0.818482
99,-0.03101,0.417593,0.818482
100,-0.031,0.618038,0.818482
101,-0.03099,0.534519,0.818482
102,-0.03098,0.501112,0.818482
103,-0.03097,0.417593,0.818482
104,-0.03096,0.651445,0.818482
105,-0.03095,0.668149,0.818482
106,-0.03094,0.601334,0.818482
107,-0.03093,0.534519,0.818482
108,-0.03092,0.451,0.818482
109,-0.03091,0.417593,0.818482
110,-0.0309,0.367482,0.818482
111,-0.03089,0.434297,0.818482
112,-0.03088,0.501112,0.818482
113,-0.03087,0.417593,0.818482
114,-0.03086,0.384186,0.818482
115,-0.03085,0.334074,0.818482
116,-0.03084,0.417593,0.818482
117,-0.03083,0.551223,0.818482
118,-0.03082,0.501112,0.818482
119,-0.03081,0.434297,0.818482
120,-0.0308,0.384186,0.818482
121,-0.03079,0.334074,0.818482
122,-0.03078,0.300667,0.818482
123,-0.03077,0.26726,0.818482
124,-0.03076,0.200445,0.818482
125,-0.03075,0.317371,0.818482
126,-0.03074,0.501112,0.818482
127,-0.03073,0.400889,0.801779
128,-0.03072,0.334074,0.801779
129,-0.03071,0.768371,0.818482
130,-0.0307,0.668149,0.818482
131,-0.03069,0.618038,0.818482
132,-0.03068,0.551223,0.818482
133,-0.03067,0.467704,0.818482
134,-0.03066,0.417593,0.818482
135,-0.03065,0.367482,0.818482
136,-0.03064,0.334074,0.818482
137,-0.03063,0.283963,0.818482
138,-0.03062,0.217148,0.818482
139,-0.03061,0.467704,0.818482
140,-0.0306,0.434297,0.818482
141,-0.03059,0.384186,0.818482
142,-0.03058,0.350778,0.818482
143,-0.03057,0.300667,0.818482
144,-0.03056,0.26726,0.818482
145,-0.03055,0.217148,0.818482
146,-0.03054,0.183741,0.818482
147,-0.03053,0.300667,0.818482
148,-0.03052,0.350778,0.818482
149,-0.03051,0.300667,0.818482
150,-0.0305,0.250556,0.818482
151,-0.03049,0.417593,0.818482
152,-0.03048,0.451,0.818482
153,-0.03047,0.417593,0.818482
154,-0.03046,0.367482,0.818482
155,-0.03045,0.317371,0.818482
156,-0.03044,0.283963,0.818482
157,-0.03043,0.250556,0.818482
158,-0.03042,0.300667,0.818482
159,-0.03041,0.367482,0.818482
160,-0.0304,0.317371,0.818482
161,-0.03039,0.283963,0.818482
162,-0.03038,0.217148,0.818482
163,-0.03037,0.200445,0.818482
164,-0.03036,0.367482,0.818482
165,-0.03035,0.317371,0.818482
166,-0.03034,0.300667,0.818482
167,-0.03033,0.217148,0.818482
168,-0.03032,0.567927,0.818482
169,-0.03031,0.451,0.818482
170,-0.0303,0.417593,0.818482
171,-0.03029,0.367482,0.818482
172,-0.03028,0.334074,0.818482
173,-0.03027,0.283963,0.818482
174,-0.03026,0.217148,0.818482
175,-0.03025,0.501112,0.818482
176,-0.03024,0.417593,0.818482
177,-0.03023,0.350778,0.818482
178,-0.03022,0.451,0.818482
179,-0.03021,0.400889,0.818482
180,-0.0302,0.367482,0.818482
181,-0.03019,0.334074,0.818482
182,-0.03018,0.300667,0.818482
183,-0.03017,0.250556,0.818482
184,-0.03016,0.250556,0.818482
185,-0.03015,0.350778,0.818482
186,-0.03014,0.283963,0.818482
187,-0.03013,0.467704,0.818482
188,-0.03012,0.417593,0.818482
189,-0.03011,0.384186,0.818482
190,-0.0301,0.334074,0.818482
191,-0.03009,0.300667,0.818482
192,-0.03008,0.250556,0.818482
193,-0.03007,0.434297,0.818482
194,-0.03006,0.384186,0.818482
195,-0.03005,0.317371,0.818482
196,-0.03004,0.400889,0.818482
197,-0.03003,0.417593,0.818482
198,-0.03002,0.367482,0.818482
199,-0.03001,0.334074,0.818482
200,-0.03,0.283963,0.818482
201,-0.02999,0.26726,0.818482
202,-0.02998,0.217148,0.818482
203,-0.02997,0.183741,0.818482
204,-0.02996,0.384186,0.818482
205,-0.02995,0.317371,0.818482
206,-0.02994,0.283963,0.818482
207,-0.02993,0.384186,0.818482
208,-0.02992,0.350778,0.818482
209,-0.02991,0.317371,0.818482
210,-0.0299,0.283963,0.818482
211,-0.02989,0.400889,0.818482
212,-0.02988,0.517815,0.818482
213,-0.02987,0.451,0.818482
214,-0.02986,0.400889,0.818482
215,-0.02985,0.334074,0.818482
216,-0.02984,0.300667,0.818482
217,-0.02983,0.350778,0.818482
218,-0.02982,0.334074,0.818482
219,-0.02981,0.300667,0.818482
220,-0.0298,0.26726,0.818482
221,-0.02979,0.317371,0.818482
222,-0.02978,0.417593,0.818482
223,-0.02977,0.367482,0.818482
224,-0.02976,0.367482,0.818482
225,-0.02975,0.400889,0.818482
226,-0.02974,0.350778,0.818482
227,-0.02973,0.300667,0.818482
228,-0.02972,0.26726,0.818482
229,-0.02971,0.367482,0.818482
230,-0.0297,0.350778,0.818482
231,-0.02969,0.317371,0.818482
232,-0.02968,0.26726,0.818482
233,-0.02967,0.250556,0.818482
234,-0.02966,0.250556,0.818482
235,-0.02965,0.150333,0.818482
236,-0.02964,0.400889,0.818482
237,-0.02963,0.367482,0.818482
238,-0.02962,0.350778,0.818482
239,-0.02961,0.534519,0.818482
240,-0.0296,0.467704,0.818482
241,-0.02959,0.400889,0.818482
242,-0.02958,0.367482,0.818482
243,-0.02957,0.317371,0.818482
244,-0.02956,0.283963,0.818482
245,-0.02955,0.26726,0.818482
246,-0.02954,0.501112,0.818482
247,-0.02953,0.417593,0.785075
248,-0.02952,0.367482,0.801779
249,-0.02951,0.334074,0.818482
250,-0.0295,0.283963,0.818482
251,-0.02949,0.467704,0.818482
252,-0.02948,0.417593,0.818482
253,-0.02947,0.384186,0.818482
254,-0.02946,0.334074,0.818482
255,-0.02945,0.300667,0.818482
256,-0.02944,0.250556,0.818482
257,-0.02943,0.451,0.818482
258,-0.02942,0.400889,0.818482
259,-0.02941,0.367482,0.818482
260,-0.0294,0.334074,0.818482
261,-0.02939,0.283963,0.818482
262,-0.02938,0.217148,0.818482
263,-0.02937,0.350778,0.818482
264,-0.02936,0.384186,0.818482
265,-0.02935,0.334074,0.818482
266,-0.02934,0.300667,0.818482
267,-0.02933,0.26726,0.818482
268,-0.02932,0.300667,0.818482
269,-0.02931,0.300667,0.818482
270,-0.0293,0.250556,0.818482
271,-0.02929,0.217148,0.818482
272,-0.02928,0.26726,0.818482
273,-0.02927,0.417593,0.818482
274,-0.02926,0.334074,0.818482
275,-0.02925,0.300667,0.818482
276,-0.02924,0.467704,0.818482
277,-0.02923,0.384186,0.818482
278,-0.02922,0.350778,0.818482
279,-0.02921,0.334074,0.818482
280,-0.0292,0.26726,0.818482
281,-0.02919,0.334074,0.818482
282,-0.02918,0.467704,0.818482
283,-0.02917,0.417593,0.818482
284,-0.02916,0.350778,0.818482
285,-0.02915,0.317371,0.818482
286,-0.02914,0.283963,0.818482
287,-0.02913,0.26726,0.818482
288,-0.02912,0.200445,0.818482
289,-0.02911,0.467704,0.818482
290,-0.0291,0.384186,0.818482
291,-0.02909,0.334074,0.818482
292,-0.02908,0.300667,0.818482
293,-0.02907,0.26726,0.818482
294,-0.02906,0.350778,0.818482
295,-0.02905,0.317371,0.818482
296,-0.02904,0.283963,0.818482
297,-0.02903,0.217148,0.818482
298,-0.02902,0.384186,0.818482
299,-0.02901,0.317371,0.818482
300,-0.029,0.26726,0.818482
301,-0.02899,0.534519,0.818482
302,-0.02898,0.417593,0.818482
303,-0.02897,0.400889,0.818482
304,-0.02896,0.334074,0.818482
305,-0.02895,0.283963,0.818482
306,-0.02894,0.534519,0.818482
307,-0.02893,0.434297,0.818482
308,-0.02892,0.400889,0.818482
309,-0.02891,0.350778,0.818482
310,-0.0289,0.317371,0.818482
311,-0.02889,0.283963,0.818482
312,-0.02888,0.250556,0.818482
313,-0.02887,0.317371,0.818482
314,-0.02886,0.417593,0.818482
315,-0.02885,0.334074,0.818482
316,-0.02884,0.334074,0.818482
317,-0.02883,0.26726,0.818482
318,-0.02882,0.417593,0.818482
319,-0.02881,0.434297,0.818482
320,-0.0288,0.384186,0.801779
321,-0.02879,0.350778,0.818482
322,-0.02878,0.300667,0.818482
323,-0.02877,0.26726,0.818482
324,-0.02876,0.200445,0.818482
325,-0.02875,0.517815,0.818482
326,-0.02874,0.451,0.818482
327,-0.02873,0.400889,0.818482
328,-0.02872,0.350778,0.818482
329,-0.02871,0.300667,0.818482
330,-0.0287,0.501112,0.818482
331,-0.02869,0.434297,0.818482
332,-0.02868,0.400889,0.818482
333,-0.02867,0.350778,0.818482
334,-0.02866,0.300667,0.818482
335,-0.02865,0.451,0.818482
336,-0.02864,0.434297,0.818482
337,-0.02863,0.384186,0.818482
338,-0.02862,0.350778,0.818482
339,-0.02861,0.300667,0.818482
340,-0.0286,0.451,0.818482
341,-0.02859,0.400889,0.818482
342,-0.02858,0.367482,0.818482
343,-0.02857,0.317371,0.818482
344,-0.02856,0.300667,0.818482
345,-0.02855,0.367482,0.818482
346,-0.02854,0.283963,0.818482
347,-0.02853,0.300667,0.818482
348,-0.02852,0.317371,0.818482
349,-0.02851,0.26726,0.818482
350,-0.0285,0.434297,0.818482
351,-0.02849,0.350778,0.818482
352,-0.02848,0.334074,0.818482
353,-0.02847,0.283963,0.818482
354,-0.02846,0.250556,0.818482
355,-0.02845,0.183741,0.801779
356,-0.02844,0.417593,0.801779
357,-0.02843,0.400889,0.818482
358,-0.02842,0.367482,0.818482
359,-0.02841,0.334074,0.818482
360,-0.0284,0.283963,0.818482
361,-0.02839,0.26726,0.818482
362,-0.02838,0.434297,0.818482
363,-0.02837,0.367482,0.818482
364,-0.02836,0.317371,0.818482
365,-0.02835,0.283963,0.818482
366,-0.02834,0.26726,0.818482
367,-0.02833,0.217148,0.818482
368,-0.02832,0.317371,0.818482
369,-0.02831,0.350778,0.818482
370,-0.0283,0.317371,0.818482
371,-0.02829,0.26726,0.818482
372,-0.02828,0.334074,0.818482
373,-0.02827,0.300667,0.818482
374,-0.02826,0.250556,0.818482
375,-0.02825,0.334074,0.801779
376,-0.02824,0.350778,0.818482
377,-0.02823,0.300667,0.818482
378,-0.02822,0.501112,0.818482
379,-0.02821,0.417593,0.818482
380,-0.0282,0.367482,0.818482
381,-0.02819,0.334074,0.818482
382,-0.02818,0.300667,0.818482
383,-0.02817,0.26726,0.818482
384,-0.02816,0.283963,0.818482
385,-0.02815,0.417593,0.818482
386,-0.02814,0.367482,0.818482
387,-0.02813,0.367482,0.818482
388,-0.02812,0.417593,0.818482
389,-0.02811,0.334074,0.818482
390,-0.0281,0.384186,0.818482
391,-0.02809,0.400889,0.818482
392,-0.02808,0.367482,0.818482
393,-0.02807,0.300667,0.818482
394,-0.02806,0.26726,0.818482
395,-0.02805,0.317371,0.818482
396,-0.02804,0.334074,0.818482
397,-0.02803,0.300667,0.818482
398,-0.02802,0.26726,0.818482
399,-0.02801,0.217148,0.818482
400,-0.028,0.501112,0.818482
401,-0.02799,0.417593,0.818482
402,-0.02798,0.367482,0.818482
403,-0.02797,0.334074,0.818482
404,-0.02796,0.283963,0.818482
405,-0.02795,0.467704,0.818482
406,-0.02794,0.400889,0.818482
407,-0.02793,0.350778,0.818482
408,-0.02792,0.317371,0.818482
409,-0.02791,0.334074,0.818482
410,-0.0279,0.434297,0.818482
411,-0.02789,0.384186,0.818482
412,-0.02788,0.334074,0.818482
413,-0.02787,0.300667,0.818482
414,-0.02786,0.300667,0.818482
415,-0.02785,0.334074,0.818482
416,-0.02784,0.283963,0.818482
417,-0.02783,0.26726,0.818482
418,-0.02782,0.334074,0.818482
419,-0.02781,0.283963,0.818482
420,-0.0278,0.250556,0.818482
421,-0.02779,0.300667,0.818482
422,-0.02778,0.350778,0.818482
423,-0.02777,0.300667,0.818482
424,-0.02776,0.334074,0.818482
425,-0.02775,0.451,0.818482
426,-0.02774,0.400889,0.818482
427,-0.02773,0.350778,0.818482
428,-0.02772,0.300667,0.818482
429,-0.02771,0.26726,0.818482
430,-0.0277,0.217148,0.818482
431,-0.02769,0.334074,0.818482
432,-0.02768,0.350778,0.818482
433,-0.02767,0.317371,0.818482
434,-0.02766,0.26726,0.818482
435,-0.02765,0.250556,0.818482
436,-0.02764,0.183741,0.818482
437,-0.02763,0.300667,0.818482
438,-0.02762,0.250556,0.818482
439,-0.02761,0.200445,0.818482
440,-0.0276,0.417593,0.818482
441,-0.02759,0.334074,0.818482
442,-0.02758,0.317371,0.818482
443,-0.02757,0.283963,0.818482
444,-0.02756,0.300667,0.818482
445,-0.02755,0.300667,0.818482
446,-0.02754,0.250556,0.818482
447,-0.02753,0.384186,0.818482
448,-0.02752,0.350778,0.818482
449,-0.02751,0.317371,0.818482
450,-0.0275,0.26726,0.818482
451,-0.02749,0.250556,0.818482
452,-0.02748,0.367482,0.818482
453,-0.02747,0.367482,0.818482
454,-0.02746,0.334074,0.818482
455,-0.02745,0.300667,0.818482
456,-0.02744,0.250556,0.818482
457,-0.02743,0.417593,0.818482
458,-0.02742,0.367482,0.818482
459,-0.02741,0.334074,0.818482
460,-0.0274,0.300667,0.818482
461,-0.02739,0.26726,0.818482
462,-0.02738,0.217148,0.818482
463,-0.02737,0.167037,0.818482
464,-0.02736,0.400889,0.818482
465,-0.02735,0.350778,0.818482
466,-0.02734,0.317371,0.818482
467,-0.02733,0.283963,0.818482
468,-0.02732,0.250556,0.818482
469,-0.02731,0.283963,0.818482
470,-0.0273,0.334074,0.818482
471,-0.02729,0.283963,0.818482
472,-0.02728,0.250556,0.818482
473,-0.02727,0.300667,0.818482
474,-0.02726,0.250556,0.818482
475,-0.02725,0.183741,0.818482
476,-0.02724,0.367482,0.818482
477,-0.02723,0.350778,0.818482
478,-0.02722,0.300667,0.818482
479,-0.02721,0.26726,0.818482
480,-0.0272,0.26726,0.818482
481,-0.02719,0.350778,0.818482
482,-0.02718,0.300667,0.818482
483,-0.02717,0.283963,0.818482
484,-0.02716,0.250556,0.818482
485,-0.02715,0.26726,0.818482
486,-0.02714,0.283963,0.818482
487,-0.02713,0.200445,0.818482
488,-0.02712,0.283963,0.818482
489,-0.02711,0.384186,0.818482
490,-0.0271,0.317371,0.818482
491,-0.02709,0.283963,0.818482
492,-0.02708,0.217148,0.818482
493,-0.02707,0.350778,0.818482
494,-0.02706,0.317371,0.818482
495,-0.02705,0.283963,0.818482
496,-0.02704,0.250556,0.818482
497,-0.02703,0.300667,0.818482
498,-0.02702,0.26726,0.818482
499,-0.02701,0.217148,0.818482
500,-0.027,0.317371,0.818482
501,-0.02699,0.283963,0.818482
502,-0.02698,0.26726,0.818482
503,-0.02697,0.250556,0.818482
504,-0.02696,0.250556,0.818482
505,-0.02695,0.350778,0.818482
506,-0.02694,0.300667,0.818482
507,-0.02693,0.300667,0.818482
508,-0.02692,0.384186,0.818482
509,-0.02691,0.334074,0.818482
510,-0.0269,0.283963,0.818482
511,-0.02689,0.250556,0.818482
512,-0.02688,0.334074,0.818482
513,-0.02687,0.350778,0.818482
514,-0.02686,0.317371,0.818482
515,-0.02685,0.283963,0.818482
516,-0.02684,0.217148,0.818482
517,-0.02683,0.317371,0.818482
518,-0.02682,0.334074,0.818482
519,-0.02681,0.283963,0.818482
520,-0.0268,0.250556,0.818482
521,-0.02679,0.217148,0.818482
522,-0.02678,0.300667,0.818482
523,-0.02677,0.26726,0.818482
524,-0.02676,0.217148,0.818482
525,-0.02675,0.334074,0.818482
526,-0.02674,0.283963,0.818482
527,-0.02673,0.250556,0.818482
528,-0.02672,0.250556,0.818482
529,-0.02671,0.367482,0.818482
530,-0.0267,0.300667,0.818482
531,-0.02669,0.26726,0.818482
532,-0.02668,0.350778,0.818482
533,-0.02667,0.350778,0.818482
534,-0.02666,0.317371,0.818482
535,-0.02665,0.283963,0.818482
536,-0.02664,0.250556,0.818482
537,-0.02663,0.217148,0.818482
538,-0.02662,0.334074,0.818482
539,-0.02661,0.283963,0.818482
540,-0.0266,0.250556,0.818482
541,-0.02659,0.283963,0.818482
542,-0.02658,0.317371,0.818482
543,-0.02657,0.283963,0.818482
544,-0.02656,0.200445,0.818482
545,-0.02655,0.400889,0.818482
546,-0.02654,0.317371,0.818482
547,-0.02653,0.300667,0.818482
548,-0.02652,0.250556,0.818482
549,-0.02651,0.350778,0.818482
550,-0.0265,0.300667,0.818482
551,-0.02649,0.26726,0.818482
552,-0.02648,0.334074,0.818482
553,-0.02647,0.350778,0.818482
554,-0.02646,0.317371,0.818482
555,-0.02645,0.283963,0.818482
556,-0.02644,0.250556,0.818482
557,-0.02643,0.183741,0.818482
558,-0.02642,0.384186,0.818482
559,-0.02641,0.317371,0.818482
560,-0.0264,0.283963,0.818482
561,-0.02639,0.250556,0.818482
562,-0.02638,0.317371,0.818482
563,-0.02637,0.400889,0.818482
564,-0.02636,0.350778,0.818482
565,-0.02635,0.300667,0.818482
566,-0.02634,0.26726,0.818482
567,-0.02633,0.367482,0.818482
568,-0.02632,0.334074,0.818482
569,-0.02631,0.300667,0.818482
570,-0.0263,0.26726,0.818482
571,-0.02629,0.200445,0.818482
572,-0.02628,0.300667,0.818482
573,-0.02627,0.350778,0.818482
574,-0.02626,0.283963,0.818482
575,-0.02625,0.26726,0.818482
576,-0.02624,0.250556,0.818482
577,-0.02623,0.434297,0.818482
578,-0.02622,0.367482,0.818482
579,-0.02621,0.334074,0.818482
580,-0.0262,0.283963,0.818482
581,-0.02619,0.26726,0.818482
582,-0.02618,0.334074,0.818482
583,-0.02617,0.300667,0.818482
584,-0.02616,0.26726,0.818482
585,-0.02615,0.350778,0.818482
586,-0.02614,0.300667,0.818482
587,-0.02613,0.26726,0.818482
588,-0.02612,0.217148,0.818482
589,-0.02611,0.417593,0.818482
590,-0.0261,0.334074,0.818482
591,-0.02609,0.317371,0.818482
592,-0.02608,0.26726,0.818482
593,-0.02607,0.334074,0.818482
594,-0.02606,0.434297,0.818482
595,-0.02605,0.367482,0.818482
596,-0.02604,0.334074,0.818482
597,-0.02603,0.300667,0.818482
598,-0.02602,0.26726,0.818482
599,-0.02601,0.217148,0.818482
600,-0.026,0.334074,0.818482
601,-0.02599,0.283963,0.818482
602,-0.02598,0.217148,0.818482
603,-0.02597,0.283963,0.818482
604,-0.02596,0.334074,0.818482
605,-0.02595,0.283963,0.818482
606,-0.02594,0.250556,0.818482
607,-0.02593,0.317371,0.818482
608,-0.02592,0.283963,0.818482
609,-0.02591,0.283963,0.818482
610,-0.0259,0.400889,0.818482
611,-0.02589,0.317371,0.818482
612,-0.02588,0.283963,0.818482
613,-0.02587,0.250556,0.818482
614,-0.02586,0.250556,0.818482
615,-0.02585,0.400889,0.818482
616,-0.02584,0.317371,0.818482
617,-0.02583,0.283963,0.818482
618,-0.02582,0.250556,0.818482
619,-0.02581,0.217148,0.818482
620,-0.0258,0.300667,0.818482
621,-0.02579,0.217148,0.818482
622,-0.02578,0.200445,0.818482
623,-0.02577,0.367482,0.818482
624,-0.02576,0.367482,0.818482
625,-0.02575,0.334074,0.818482
626,-0.02574,0.300667,0.818482
627,-0.02573,0.283963,0.818482
628,-0.02572,0.334074,0.818482
629,-0.02571,0.283963,0.818482
630,-0.0257,0.26726,0.818482
631,-0.02569,0.217148,0.818482
632,-0.02568,0.367482,0.818482
633,-0.02567,0.300667,0.818482
634,-0.02566,0.26726,0.818482
635,-0.02565,0.250556,0.818482
636,-0.02564,0.167037,0.818482
637,-0.02563,0.367482,0.818482
638,-0.02562,0.317371,0.818482
639,-0.02561,0.283963,0.818482
640,-0.0256,0.400889,0.818482
641,-0.02559,0.317371,0.818482
642,-0.02558,0.283963,0.818482
643,-0.02557,0.217148,0.818482
644,-0.02556,0.384186,0.818482
645,-0.02555,0.334074,0.818482
646,-0.02554,0.300667,0.818482
647,-0.02553,0.26726,0.818482
648,-0.02552,0.217148,0.818482
