Mesures/Data/Fm_4ms_5v_1m5.csv

;Scopy version,f4beeb1
;Exported on,Wednesday May 15/05/2024
;Device,M2K
;Nr of samples,6400
;Sample rate,100000
;Tool,Oscilloscope
;Additional Information,
Sample,Time(S),CH1(V)
0,-0.032,0.400889
1,-0.03199,0.501112
2,-0.03198,0.417593
3,-0.03197,0.384186
4,-0.03196,0.317371
5,-0.03195,0.300667
6,-0.03194,0.434297
7,-0.03193,0.367482
8,-0.03192,0.317371
9,-0.03191,0.283963
10,-0.0319,0.334074
11,-0.03189,0.384186
12,-0.03188,0.350778
13,-0.03187,0.334074
14,-0.03186,0.26726
15,-0.03185,0.200445
16,-0.03184,0.434297
17,-0.03183,0.367482
18,-0.03182,0.300667
19,-0.03181,0.300667
20,-0.0318,0.26726
21,-0.03179,0.183741
22,-0.03178,0.467704
23,-0.03177,0.417593
24,-0.03176,0.400889
25,-0.03175,0.334074
26,-0.03174,0.300667
27,-0.03173,0.26726
28,-0.03172,0.283963
29,-0.03171,0.434297
30,-0.0317,0.367482
31,-0.03169,0.317371
32,-0.03168,0.367482
33,-0.03167,0.317371
34,-0.03166,0.334074
35,-0.03165,0.451
36,-0.03164,0.384186
37,-0.03163,0.350778
38,-0.03162,0.317371
39,-0.03161,0.283963
40,-0.0316,0.217148
41,-0.03159,0.451
42,-0.03158,0.367482
43,-0.03157,0.334074
44,-0.03156,0.334074
45,-0.03155,0.350778
46,-0.03154,0.283963
47,-0.03153,0.501112
48,-0.03152,0.451
49,-0.03151,0.400889
50,-0.0315,0.350778
51,-0.03149,0.300667
52,-0.03148,0.417593
53,-0.03147,0.384186
54,-0.03146,0.350778
55,-0.03145,0.317371
56,-0.03144,0.26726
57,-0.03143,0.317371
58,-0.03142,0.300667
59,-0.03141,0.283963
60,-0.0314,0.367482
61,-0.03139,0.300667
62,-0.03138,0.283963
63,-0.03137,0.217148
64,-0.03136,0.400889
65,-0.03135,0.367482
66,-0.03134,0.350778
67,-0.03133,0.283963
68,-0.03132,0.250556
69,-0.03131,0.250556
70,-0.0313,0.367482
71,-0.03129,0.283963
72,-0.03128,0.250556
73,-0.03127,0.250556
74,-0.03126,0.317371
75,-0.03125,0.250556
76,-0.03124,0.200445
77,-0.03123,0.200445
78,-0.03122,0.467704
79,-0.03121,0.384186
80,-0.0312,0.334074
81,-0.03119,0.300667
82,-0.03118,0.26726
83,-0.03117,0.217148
84,-0.03116,0.26726
85,-0.03115,0.400889
86,-0.03114,0.334074
87,-0.03113,0.283963
88,-0.03112,0.26726
89,-0.03111,0.217148
90,-0.0311,0.300667
91,-0.03109,0.26726
92,-0.03108,0.217148
93,-0.03107,0.26726
94,-0.03106,0.384186
95,-0.03105,0.317371
96,-0.03104,0.26726
97,-0.03103,0.367482
98,-0.03102,0.334074
99,-0.03101,0.317371
100,-0.031,0.250556
101,-0.03099,0.217148
102,-0.03098,0.183741
103,-0.03097,0.334074
104,-0.03096,0.26726
105,-0.03095,0.217148
106,-0.03094,0.334074
107,-0.03093,0.400889
108,-0.03092,0.350778
109,-0.03091,0.300667
110,-0.0309,0.26726
111,-0.03089,0.217148
112,-0.03088,0.350778
113,-0.03087,0.350778
114,-0.03086,0.334074
115,-0.03085,0.26726
116,-0.03084,0.283963
117,-0.03083,0.283963
118,-0.03082,0.200445
119,-0.03081,0.400889
120,-0.0308,0.350778
121,-0.03079,0.317371
122,-0.03078,0.283963
123,-0.03077,0.250556
124,-0.03076,0.200445
125,-0.03075,0.434297
126,-0.03074,0.367482
127,-0.03073,0.317371
128,-0.03072,0.517815
129,-0.03071,0.451
130,-0.0307,0.417593
131,-0.03069,0.384186
132,-0.03068,0.317371
133,-0.03067,0.283963
134,-0.03066,0.250556
135,-0.03065,0.317371
136,-0.03064,0.283963
137,-0.03063,0.250556
138,-0.03062,0.384186
139,-0.03061,0.334074
140,-0.0306,0.300667
141,-0.03059,0.367482
142,-0.03058,0.317371
143,-0.03057,0.300667
144,-0.03056,0.367482
145,-0.03055,0.317371
146,-0.03054,0.283963
147,-0.03053,0.300667
148,-0.03052,0.334074
149,-0.03051,0.283963
150,-0.0305,0.367482
151,-0.03049,0.334074
152,-0.03048,0.300667
153,-0.03047,0.26726
154,-0.03046,0.217148
155,-0.03045,0.217148
156,-0.03044,0.350778
157,-0.03043,0.26726
158,-0.03042,0.200445
159,-0.03041,0.417593
160,-0.0304,0.384186
161,-0.03039,0.350778
162,-0.03038,0.317371
163,-0.03037,0.283963
164,-0.03036,0.217148
165,-0.03035,0.26726
166,-0.03034,0.417593
167,-0.03033,0.334074
168,-0.03032,0.300667
169,-0.03031,0.26726
170,-0.0303,0.200445
171,-0.03029,0.300667
172,-0.03028,0.334074
173,-0.03027,0.451
174,-0.03026,0.534519
175,-0.03025,0.451
176,-0.03024,0.551223
177,-0.03023,0.467704
178,-0.03022,0.417593
179,-0.03021,0.367482
180,-0.0302,0.317371
181,-0.03019,0.283963
182,-0.03018,0.250556
183,-0.03017,0.26726
184,-0.03016,0.217148
185,-0.03015,0.183741
186,-0.03014,0.350778
187,-0.03013,0.283963
188,-0.03012,0.434297
189,-0.03011,0.334074
190,-0.0301,0.334074
191,-0.03009,0.350778
192,-0.03008,0.300667
193,-0.03007,0.26726
194,-0.03006,0.200445
195,-0.03005,0.384186
196,-0.03004,0.350778
197,-0.03003,0.300667
198,-0.03002,0.26726
199,-0.03001,0.200445
200,-0.03,0.467704
201,-0.02999,0.400889
202,-0.02998,0.384186
203,-0.02997,0.317371
204,-0.02996,0.283963
205,-0.02995,0.26726
206,-0.02994,0.200445
207,-0.02993,0.300667
208,-0.02992,0.400889
209,-0.02991,0.334074
210,-0.0299,0.300667
211,-0.02989,0.26726
212,-0.02988,0.217148
213,-0.02987,0.217148
214,-0.02986,0.334074
215,-0.02985,0.26726
216,-0.02984,0.217148
217,-0.02983,0.334074
218,-0.02982,0.300667
219,-0.02981,0.26726
220,-0.0298,0.217148
221,-0.02979,0.283963
222,-0.02978,0.283963
223,-0.02977,0.217148
224,-0.02976,0.367482
225,-0.02975,0.367482
226,-0.02974,0.350778
227,-0.02973,0.283963
228,-0.02972,0.250556
229,-0.02971,0.250556
230,-0.0297,0.200445
231,-0.02969,0.283963
232,-0.02968,0.217148
233,-0.02967,0.183741
234,-0.02966,0.384186
235,-0.02965,0.300667
236,-0.02964,0.26726
237,-0.02963,0.26726
238,-0.02962,0.400889
239,-0.02961,0.334074
240,-0.0296,0.300667
241,-0.02959,0.250556
242,-0.02958,0.217148
243,-0.02957,0.400889
244,-0.02956,0.334074
245,-0.02955,0.300667
246,-0.02954,0.26726
247,-0.02953,0.217148
248,-0.02952,0.367482
249,-0.02951,0.300667
250,-0.0295,0.26726
251,-0.02949,0.250556
252,-0.02948,0.367482
253,-0.02947,0.283963
254,-0.02946,0.217148
255,-0.02945,0.350778
256,-0.02944,0.300667
257,-0.02943,0.26726
258,-0.02942,0.26726
259,-0.02941,0.350778
260,-0.0294,0.283963
261,-0.02939,0.250556
262,-0.02938,0.217148
263,-0.02937,0.167037
264,-0.02936,0.350778
265,-0.02935,0.283963
266,-0.02934,0.250556
267,-0.02933,0.250556
268,-0.02932,0.334074
269,-0.02931,0.250556
270,-0.0293,0.250556
271,-0.02929,0.334074
272,-0.02928,0.300667
273,-0.02927,0.250556
274,-0.02926,0.200445
275,-0.02925,0.300667
276,-0.02924,0.300667
277,-0.02923,0.26726
278,-0.02922,0.217148
279,-0.02921,0.317371
280,-0.0292,0.317371
281,-0.02919,0.26726
282,-0.02918,0.300667
283,-0.02917,0.367482
284,-0.02916,0.317371
285,-0.02915,0.283963
286,-0.02914,0.250556
287,-0.02913,0.317371
288,-0.02912,0.367482
289,-0.02911,0.317371
290,-0.0291,0.283963
291,-0.02909,0.250556
292,-0.02908,0.283963
293,-0.02907,0.317371
294,-0.02906,0.217148
295,-0.02905,0.350778
296,-0.02904,0.317371
297,-0.02903,0.250556
298,-0.02902,0.250556
299,-0.02901,0.217148
300,-0.029,0.400889
301,-0.02899,0.350778
302,-0.02898,0.651445
303,-0.02897,0.551223
304,-0.02896,0.467704
305,-0.02895,0.400889
306,-0.02894,0.551223
307,-0.02893,0.71826
308,-0.02892,0.634741
309,-0.02891,0.768371
310,-0.0289,1.18596
311,-0.02889,1.00222
312,-0.02888,0.918705
313,-0.02887,1.20267
314,-0.02886,2.37193
315,-0.02885,2.03785
316,-0.02884,1.73719
317,-0.02883,2.83963
318,-0.02882,2.92315
319,-0.02881,2.60578
320,-0.0288,2.88974
321,-0.02879,3.1403
322,-0.02878,2.98997
323,-0.02877,3.29063
324,-0.02876,2.6893
325,-0.02875,5.34519
326,-0.02874,7.04897
327,-0.02873,6.23049
328,-0.02872,5.57904
329,-0.02871,4.97771
330,-0.0287,4.44319
331,-0.02869,3.97549
332,-0.02868,3.55789
333,-0.02867,3.157
334,-0.02866,2.83963
335,-0.02865,2.55567
336,-0.02864,2.28841
337,-0.02863,2.02115
338,-0.02862,2.75611
339,-0.02861,2.40534
340,-0.0286,2.12137
341,-0.02859,2.63919
342,-0.02858,2.42204
343,-0.02857,2.08797
344,-0.02856,3.22382
345,-0.02855,2.97326
346,-0.02854,2.58908
347,-0.02853,3.5746
348,-0.02852,3.49108
349,-0.02851,3.10689
350,-0.0285,3.05678
351,-0.02849,3.30734
352,-0.02848,2.90645
353,-0.02847,2.6726
354,-0.02846,2.95656
355,-0.02845,2.57237
356,-0.02844,2.55567
357,-0.02843,3.17371
358,-0.02842,2.80623
359,-0.02841,2.60578
360,-0.0284,3.82515
361,-0.02839,3.29063
362,-0.02838,2.90645
363,-0.02837,3.608
364,-0.02836,3.20711
365,-0.02835,2.82293
366,-0.02834,3.02337
367,-0.02833,2.80623
368,-0.02832,2.43874
369,-0.02831,3.09019
370,-0.0283,3.00667
371,-0.02829,2.6726
372,-0.02828,2.82293
373,-0.02827,3.09019
374,-0.02826,2.73941
375,-0.02825,2.47215
376,-0.02824,2.65589
377,-0.02823,2.32182
378,-0.02822,2.30511
379,-0.02821,2.60578
380,-0.0282,2.255
381,-0.02819,3.55789
382,-0.02818,5.72938
383,-0.02817,4.97771
384,-0.02816,4.39308
385,-0.02815,4.86078
386,-0.02814,4.32626
387,-0.02813,4.059
388,-0.02812,4.20934
389,-0.02811,3.70823
390,-0.0281,3.34074
391,-0.02809,2.83963
392,-0.02808,4.39308
393,-0.02807,5.42871
394,-0.02806,4.79397
395,-0.02805,4.51
396,-0.02804,4.79397
397,-0.02803,4.24275
398,-0.02802,3.79174
399,-0.02801,3.39086
400,-0.028,3.04008
401,-0.02799,2.72271
402,-0.02798,2.42204
403,-0.02797,2.15478
404,-0.02796,1.93763
405,-0.02795,1.73719
406,-0.02794,1.55345
407,-0.02793,1.45322
408,-0.02792,1.40311
409,-0.02791,1.28619
410,-0.0279,1.15256
411,-0.02789,1.62026
412,-0.02788,1.38641
413,-0.02787,1.25278
414,-0.02786,1.3363
415,-0.02785,1.3363
416,-0.02784,1.18596
417,-0.02783,1.05233
418,-0.02782,0.918705
419,-0.02781,0.85189
420,-0.0278,0.71826
421,-0.02779,0.651445
422,-0.02778,0.58463
423,-0.02777,0.517815
424,-0.02776,0.551223
425,-0.02775,0.601334
426,-0.02774,0.534519
427,-0.02773,0.517815
428,-0.02772,0.952112
429,-0.02771,0.818482
430,-0.0277,0.71826
431,-0.02769,0.634741
432,-0.02768,0.835186
433,-0.02767,0.684853
434,-0.02766,0.634741
435,-0.02765,1.01893
436,-0.02764,0.868594
437,-0.02763,0.785075
438,-0.02762,0.684853
439,-0.02761,0.618038
440,-0.0276,0.517815
441,-0.02759,0.701556
442,-0.02758,0.684853
443,-0.02757,0.58463
444,-0.02756,0.551223
445,-0.02755,0.467704
446,-0.02754,0.400889
447,-0.02753,0.367482
448,-0.02752,0.400889
449,-0.02751,0.367482
450,-0.0275,0.300667
451,-0.02749,0.601334
452,-0.02748,0.534519
453,-0.02747,0.467704
454,-0.02746,0.417593
455,-0.02745,0.367482
456,-0.02744,0.367482
457,-0.02743,0.601334
458,-0.02742,0.517815
459,-0.02741,0.451
460,-0.0274,0.768371
461,-0.02739,0.668149
462,-0.02738,0.567927
463,-0.02737,0.534519
464,-0.02736,0.451
465,-0.02735,0.400889
466,-0.02734,0.367482
467,-0.02733,0.601334
468,-0.02732,0.501112
469,-0.02731,0.434297
470,-0.0273,0.618038
471,-0.02729,0.517815
472,-0.02728,0.467704
473,-0.02727,0.417593
474,-0.02726,0.417593
475,-0.02725,0.451
476,-0.02724,0.400889
477,-0.02723,0.350778
478,-0.02722,0.300667
479,-0.02721,0.283963
480,-0.0272,0.217148
481,-0.02719,0.451
482,-0.02718,0.384186
483,-0.02717,0.350778
484,-0.02716,0.317371
485,-0.02715,0.250556
486,-0.02714,0.300667
487,-0.02713,0.384186
488,-0.02712,0.300667
489,-0.02711,0.451
490,-0.0271,0.400889
491,-0.02709,0.384186
492,-0.02708,0.300667
493,-0.02707,0.317371
494,-0.02706,0.217148
495,-0.02705,0.367482
496,-0.02704,0.601334
497,-0.02703,0.501112
498,-0.02702,0.451
499,-0.02701,0.417593
500,-0.027,0.350778
501,-0.02699,0.300667
502,-0.02698,0.317371
503,-0.02697,0.434297
504,-0.02696,0.367482
505,-0.02695,0.334074
506,-0.02694,0.300667
507,-0.02693,0.250556
508,-0.02692,0.217148
509,-0.02691,0.434297
510,-0.0269,0.334074
511,-0.02689,0.300667
512,-0.02688,0.300667
513,-0.02687,0.451
514,-0.02686,0.384186
515,-0.02685,0.350778
516,-0.02684,0.300667
517,-0.02683,0.250556
518,-0.02682,0.400889
519,-0.02681,0.367482
520,-0.0268,0.317371
521,-0.02679,0.317371
522,-0.02678,0.334074
523,-0.02677,0.26726
524,-0.02676,0.300667
525,-0.02675,0.434297
526,-0.02674,0.384186
527,-0.02673,0.334074
528,-0.02672,0.300667
529,-0.02671,0.367482
530,-0.0267,0.300667
531,-0.02669,0.417593
532,-0.02668,0.451
533,-0.02667,0.400889
534,-0.02666,0.350778
535,-0.02665,0.317371
536,-0.02664,0.283963
537,-0.02663,0.200445
538,-0.02662,0.58463
539,-0.02661,0.501112
540,-0.0266,0.467704
541,-0.02659,0.400889
542,-0.02658,0.350778
543,-0.02657,0.334074
544,-0.02656,0.26726
545,-0.02655,0.334074
546,-0.02654,0.317371
547,-0.02653,0.283963
548,-0.02652,0.384186
549,-0.02651,0.334074
550,-0.0265,0.300667
551,-0.02649,0.250556
552,-0.02648,0.217148
553,-0.02647,0.250556
554,-0.02646,0.26726
555,-0.02645,0.200445
556,-0.02644,0.250556
557,-0.02643,0.451
558,-0.02642,0.367482
559,-0.02641,0.317371
560,-0.0264,0.334074
561,-0.02639,0.317371
562,-0.02638,0.26726
563,-0.02637,0.451
564,-0.02636,0.400889
565,-0.02635,0.350778
566,-0.02634,0.317371
567,-0.02633,0.300667
568,-0.02632,0.217148
569,-0.02631,0.317371
570,-0.0263,0.467704
571,-0.02629,0.384186
572,-0.02628,0.350778
573,-0.02627,0.300667
574,-0.02626,0.26726
575,-0.02625,0.217148
576,-0.02624,0.200445
577,-0.02623,0.451
578,-0.02622,0.350778
579,-0.02621,0.317371
580,-0.0262,0.283963
581,-0.02619,0.217148
582,-0.02618,0.300667
583,-0.02617,0.334074
584,-0.02616,0.26726
585,-0.02615,0.467704
586,-0.02614,0.400889
587,-0.02613,0.384186
588,-0.02612,0.317371
589,-0.02611,0.283963
590,-0.0261,0.26726
591,-0.02609,0.200445
592,-0.02608,0.434297
593,-0.02607,0.384186
594,-0.02606,0.350778
595,-0.02605,0.317371
596,-0.02604,0.250556
597,-0.02603,0.217148
598,-0.02602,0.451
599,-0.02601,0.350778
600,-0.026,0.317371
601,-0.02599,0.317371
602,-0.02598,0.350778
603,-0.02597,0.300667
604,-0.02596,0.26726
605,-0.02595,0.300667
606,-0.02594,0.317371
607,-0.02593,0.283963
608,-0.02592,0.217148
609,-0.02591,0.367482
610,-0.0259,0.300667
611,-0.02589,0.26726
612,-0.02588,0.250556
613,-0.02587,0.434297
614,-0.02586,0.350778
615,-0.02585,0.334074
616,-0.02584,0.334074
617,-0.02583,0.250556
618,-0.02582,0.200445
619,-0.02581,0.300667
620,-0.0258,0.384186
621,-0.02579,0.317371
622,-0.02578,0.300667
623,-0.02577,0.283963
624,-0.02576,0.317371
625,-0.02575,0.217148
626,-0.02574,0.217148
627,-0.02573,0.250556
628,-0.02572,0.300667
629,-0.02571,0.200445
630,-0.0257,0.384186
631,-0.02569,0.400889
632,-0.02568,0.384186
633,-0.02567,0.317371
634,-0.02566,0.283963
635,-0.02565,0.26726
636,-0.02564,0.217148
637,-0.02563,0.150333
638,-0.02562,0.317371
639,-0.02561,0.300667
640,-0.0256,0.26726
641,-0.02559,0.200445
642,-0.02558,0.367482
643,-0.02557,0.367482
644,-0.02556,0.350778
645,-0.02555,0.283963
646,-0.02554,0.26726
647,-0.02553,0.217148
648,-0.02552,0.300667
649,-0.02551,0.250556
650,-0.0255,0.183741
651,-0.02549,0.334074
652,-0.02548,0.384186
653,-0.02547,0.350778
654,-0.02546,0.283963
655,-0.02545,0.250556
656,-0.02544,0.334074
657,-0.02543,0.300667
658,-0.02542,0.26726
659,-0.02541,0.217148
660,-0.0254,0.26726
661,-0.02539,0.384186
662,-0.02538,0.334074
663,-0.02537,0.283963
664,-0.02536,0.250556
665,-0.02535,0.367482
666,-0.02534,0.384186
667,-0.02533,0.334074
668,-0.02532,0.300667
669,-0.02531,0.250556
670,-0.0253,0.367482
671,-0.02529,0.350778
672,-0.02528,0.317371
673,-0.02527,0.26726
674,-0.02526,0.217148
675,-0.02525,0.434297
676,-0.02524,0.367482
677,-0.02523,0.334074
678,-0.02522,0.400889
679,-0.02521,0.350778
680,-0.0252,0.300667
681,-0.02519,0.26726
682,-0.02518,0.217148
683,-0.02517,0.300667
684,-0.02516,0.250556
685,-0.02515,0.200445
686,-0.02514,0.250556
687,-0.02513,0.317371
688,-0.02512,0.26726
689,-0.02511,0.183741
690,-0.0251,0.384186
691,-0.02509,0.300667
692,-0.02508,0.283963
693,-0.02507,0.217148
694,-0.02506,0.400889
695,-0.02505,0.400889
696,-0.02504,0.367482
697,-0.02503,0.317371
698,-0.02502,0.300667
699,-0.02501,0.26726
700,-0.025,0.417593
701,-0.02499,0.350778
702,-0.02498,0.317371
703,-0.02497,0.283963
704,-0.02496,0.250556
705,-0.02495,0.183741
706,-0.02494,0.317371
707,-0.02493,0.384186
708,-0.02492,0.334074
709,-0.02491,0.384186
710,-0.0249,0.467704
711,-0.02489,0.400889
712,-0.02488,0.350778
713,-0.02487,0.317371
714,-0.02486,0.26726
715,-0.02485,0.200445
716,-0.02484,0.417593
717,-0.02483,0.400889
718,-0.02482,0.350778
719,-0.02481,0.317371
720,-0.0248,0.300667
721,-0.02479,0.217148
722,-0.02478,0.26726
723,-0.02477,0.367482
724,-0.02476,0.300667
725,-0.02475,0.283963
726,-0.02474,0.367482
727,-0.02473,0.300667
728,-0.02472,0.26726
729,-0.02471,0.250556
730,-0.0247,0.183741
731,-0.02469,0.26726
732,-0.02468,0.334074
733,-0.02467,0.283963
734,-0.02466,0.283963
735,-0.02465,0.451
736,-0.02464,0.400889
737,-0.02463,0.350778
738,-0.02462,0.317371
739,-0.02461,0.26726
740,-0.0246,0.300667
741,-0.02459,0.350778
742,-0.02458,0.283963
743,-0.02457,0.250556
744,-0.02456,0.350778
745,-0.02455,0.451
746,-0.02454,0.417593
747,-0.02453,0.367482
748,-0.02452,0.317371
749,-0.02451,0.283963
750,-0.0245,0.250556
751,-0.02449,0.250556
752,-0.02448,0.367482
753,-0.02447,0.317371
754,-0.02446,0.283963
755,-0.02445,0.250556
756,-0.02444,0.300667
757,-0.02443,0.417593
758,-0.02442,0.367482
759,-0.02441,0.317371
760,-0.0244,0.26726
761,-0.02439,0.384186
762,-0.02438,0.467704
763,-0.02437,0.417593
764,-0.02436,0.367482
765,-0.02435,0.317371
766,-0.02434,0.367482
767,-0.02433,0.417593
768,-0.02432,0.384186
769,-0.02431,0.350778
770,-0.0243,0.26726
771,-0.02429,0.26726
772,-0.02428,0.250556
773,-0.02427,0.183741
774,-0.02426,0.417593
775,-0.02425,0.334074
776,-0.02424,0.300667
777,-0.02423,0.26726
778,-0.02422,0.300667
779,-0.02421,0.467704
780,-0.0242,0.400889
781,-0.02419,0.367482
782,-0.02418,0.300667
783,-0.02417,0.26726
784,-0.02416,0.283963
785,-0.02415,0.250556
786,-0.02414,0.250556
787,-0.02413,0.350778
788,-0.02412,0.300667
789,-0.02411,0.26726
790,-0.0241,0.200445
791,-0.02409,0.467704
792,-0.02408,0.384186
793,-0.02407,0.334074
794,-0.02406,0.300667
795,-0.02405,0.26726
796,-0.02404,0.26726
797,-0.02403,0.283963
798,-0.02402,0.250556
799,-0.02401,0.250556
800,-0.024,0.300667
801,-0.02399,0.217148
802,-0.02398,0.167037
803,-0.02397,0.334074
804,-0.02396,0.317371
805,-0.02395,0.283963
806,-0.02394,0.250556
807,-0.02393,0.417593
808,-0.02392,0.334074
809,-0.02391,0.300667
810,-0.0239,0.26726
811,-0.02389,0.250556
812,-0.02388,0.250556
813,-0.02387,0.317371
814,-0.02386,0.250556
815,-0.02385,0.200445
816,-0.02384,0.334074
817,-0.02383,0.300667
818,-0.02382,0.26726
819,-0.02381,0.384186
820,-0.0238,0.384186
821,-0.02379,0.350778
822,-0.02378,0.300667
823,-0.02377,0.26726
824,-0.02376,0.217148
825,-0.02375,0.200445
826,-0.02374,0.367482
827,-0.02373,0.300667
828,-0.02372,0.26726
829,-0.02371,0.217148
830,-0.0237,0.334074
831,-0.02369,0.300667
832,-0.02368,0.26726
833,-0.02367,0.26726
834,-0.02366,0.334074
835,-0.02365,0.26726
836,-0.02364,0.217148
837,-0.02363,0.200445
838,-0.02362,0.334074
839,-0.02361,0.283963
840,-0.0236,0.26726
841,-0.02359,0.283963
842,-0.02358,0.300667
843,-0.02357,0.26726
844,-0.02356,0.217148
845,-0.02355,0.350778
846,-0.02354,0.283963
847,-0.02353,0.26726
848,-0.02352,0.217148
849,-0.02351,0.26726
850,-0.0235,0.334074
851,-0.02349,0.26726
852,-0.02348,0.250556
853,-0.02347,0.384186
854,-0.02346,0.334074
855,-0.02345,0.300667
856,-0.02344,0.26726
857,-0.02343,0.217148
858,-0.02342,0.217148
859,-0.02341,0.367482
860,-0.0234,0.283963
861,-0.02339,0.250556
862,-0.02338,0.334074
863,-0.02337,0.334074
864,-0.02336,0.283963
865,-0.02335,0.250556
866,-0.02334,0.217148
867,-0.02333,0.367482
868,-0.02332,0.300667
869,-0.02331,0.26726
870,-0.0233,0.217148
871,-0.02329,0.400889
872,-0.02328,0.334074
873,-0.02327,0.317371
874,-0.02326,0.26726
875,-0.02325,0.250556
876,-0.02324,0.217148
877,-0.02323,0.367482
878,-0.02322,0.317371
879,-0.02321,0.26726
880,-0.0232,0.217148
881,-0.02319,0.350778
882,-0.02318,0.317371
883,-0.02317,0.283963
884,-0.02316,0.384186
885,-0.02315,0.317371
886,-0.02314,0.283963
887,-0.02313,0.250556
888,-0.02312,0.317371
889,-0.02311,0.317371
890,-0.0231,0.283963
891,-0.02309,0.250556
892,-0.02308,0.200445
893,-0.02307,0.367482
894,-0.02306,0.283963
895,-0.02305,0.26726
896,-0.02304,0.250556
897,-0.02303,0.250556
898,-0.02302,0.26726
899,-0.02301,0.200445
900,-0.023,0.183741
901,-0.02299,0.367482
902,-0.02298,0.283963
903,-0.02297,0.26726
904,-0.02296,0.217148
905,-0.02295,0.350778
906,-0.02294,0.300667
907,-0.02293,0.26726
908,-0.02292,0.200445
909,-0.02291,0.300667
910,-0.0229,0.300667
911,-0.02289,0.26726
912,-0.02288,0.26726
913,-0.02287,0.317371
914,-0.02286,0.217148
915,-0.02285,0.283963
916,-0.02284,0.367482
917,-0.02283,0.283963
918,-0.02282,0.250556
919,-0.02281,0.217148
920,-0.0228,0.367482
921,-0.02279,0.300667
922,-0.02278,0.26726
