Mesures/Data/I&NE_4ms_5v_1m5.csv

;Scopy version,f4beeb1
;Exported on,Wednesday May 15/05/2024
;Device,M2K
;Nr of samples,6400
;Sample rate,100000
;Tool,Oscilloscope
;Additional Information,
Sample,Time(S),CH1(V),CH2(V)
0,-0.032,12.1603,0.0334074
1,-0.03199,12.1937,0.0334074
2,-0.03198,12.1937,0.0334074
3,-0.03197,12.2104,0.0334074
4,-0.03196,12.2104,0.0334074
5,-0.03195,12.2271,0.0334074
6,-0.03194,12.2104,0.0334074
7,-0.03193,12.2438,0.0334074
8,-0.03192,12.2271,0.0334074
9,-0.03191,12.2605,0.0334074
10,-0.0319,12.2605,0.0334074
11,-0.03189,12.2438,0.0334074
12,-0.03188,12.2772,0.0334074
13,-0.03187,12.2772,0.0334074
14,-0.03186,12.2772,0.0334074
15,-0.03185,12.3106,0
16,-0.03184,12.3106,0
17,-0.03183,12.3273,0.0334074
18,-0.03182,12.3273,0.0334074
19,-0.03181,12.3441,0.0334074
20,-0.0318,12.1937,0.0835186
21,-0.03179,12.5946,-0.751667
22,-0.03178,1.77059,10.206
23,-0.03177,-0.534519,5.31178
24,-0.03176,-0.701556,0
25,-0.03175,-0.668149,0.0334074
26,-0.03174,-0.601334,-0.0334074
27,-0.03173,-0.534519,0
28,-0.03172,-0.517815,0
29,-0.03171,-0.434297,0
30,-0.0317,-0.400889,0
31,-0.03169,-0.384186,0
32,-0.03168,-0.350778,0
33,-0.03167,-0.334074,0.0334074
34,-0.03166,-0.300667,0.0334074
35,-0.03165,-0.283963,0.0334074
36,-0.03164,-0.0668149,0.0167037
37,-0.03163,-0.0501112,0.0334074
38,-0.03162,-0.0334074,0.0334074
39,-0.03161,-0.0668149,0.0167037
40,-0.0316,-0.0668149,0.0167037
41,-0.03159,-0.0668149,0.0167037
42,-0.03158,-0.0668149,0.0167037
43,-0.03157,-0.0668149,0.0167037
44,-0.03156,-0.0668149,0.0167037
45,-0.03155,-0.0668149,0.0167037
46,-0.03154,-0.0668149,0.0167037
47,-0.03153,-0.0668149,0.0167037
48,-0.03152,-0.0668149,0.0167037
49,-0.03151,-0.0668149,0.0334074
50,-0.0315,-0.0334074,0.0334074
51,-0.03149,-0.0668149,0.0334074
52,-0.03148,-0.0668149,0.0334074
53,-0.03147,-0.0668149,0.0334074
54,-0.03146,-0.0668149,0.0334074
55,-0.03145,-0.0668149,0.0334074
56,-0.03144,-0.0668149,0
57,-0.03143,-0.0668149,0.0167037
58,-0.03142,-0.0668149,0
59,-0.03141,-0.0668149,0.0334074
60,-0.0314,-0.0668149,0.0334074
61,-0.03139,-0.0668149,0.0334074
62,-0.03138,-0.0668149,0.0334074
63,-0.03137,-0.0668149,0.0334074
64,-0.03136,-0.0668149,0.0334074
65,-0.03135,-0.0668149,0.0334074
66,-0.03134,-0.0668149,0.0334074
67,-0.03133,-0.0668149,0.0334074
68,-0.03132,-0.0668149,0.0334074
69,-0.03131,-0.0668149,0.0334074
70,-0.0313,-0.0668149,0.0334074
71,-0.03129,-0.0668149,0.0334074
72,-0.03128,-0.0668149,0.0334074
73,-0.03127,-0.0668149,0.0334074
74,-0.03126,-0.0668149,0.0334074
75,-0.03125,-0.0668149,0.0334074
76,-0.03124,-0.0668149,0.0334074
77,-0.03123,-0.0668149,0.0334074
78,-0.03122,-0.0668149,0.0334074
79,-0.03121,-0.0668149,0.0167037
80,-0.0312,-0.0668149,0.0167037
81,-0.03119,-0.0668149,0.0334074
82,-0.03118,-0.0668149,0.0334074
83,-0.03117,-0.0668149,0.0334074
84,-0.03116,-0.0668149,0.0334074
85,-0.03115,-0.0668149,0.0334074
86,-0.03114,-0.0668149,0.0334074
87,-0.03113,-0.0668149,0.0334074
88,-0.03112,-0.0668149,0.0167037
89,-0.03111,-0.0668149,0.0167037
90,-0.0311,-0.0668149,0.0167037
91,-0.03109,-0.0668149,0.0334074
92,-0.03108,-0.0668149,0.0334074
93,-0.03107,-0.0668149,0.0334074
94,-0.03106,-0.0668149,0.0334074
95,-0.03105,-0.0668149,0.0334074
96,-0.03104,-0.0668149,0
97,-0.03103,-0.0668149,0.0334074
98,-0.03102,-0.0668149,0.0334074
99,-0.03101,-0.0668149,0.0167037
100,-0.031,-0.0668149,0.0167037
101,-0.03099,-0.0668149,0.0334074
102,-0.03098,-0.0668149,0.0334074
103,-0.03097,-0.0668149,0.0334074
104,-0.03096,-0.0668149,0.0167037
105,-0.03095,-0.0668149,0.0167037
106,-0.03094,-0.0668149,0.0167037
107,-0.03093,-0.0668149,0
108,-0.03092,-0.0668149,0.0167037
109,-0.03091,-0.0668149,0.0167037
110,-0.0309,-0.0668149,0.0167037
111,-0.03089,-0.0668149,0.0167037
112,-0.03088,-0.0668149,0.0334074
113,-0.03087,-0.0668149,0.0334074
114,-0.03086,-0.0668149,0
115,-0.03085,-0.0668149,0.0167037
116,-0.03084,-0.0668149,0
117,-0.03083,-0.0668149,0.0167037
118,-0.03082,-0.0668149,0.0334074
119,-0.03081,-0.0668149,0.0167037
120,-0.0308,-0.0668149,0.0334074
121,-0.03079,-0.0668149,0.0334074
122,-0.03078,-0.0668149,0.0334074
123,-0.03077,-0.0668149,0
124,-0.03076,-0.0668149,0.0167037
125,-0.03075,-0.0668149,0.0167037
126,-0.03074,-0.0668149,0.0334074
127,-0.03073,-0.0668149,0.0334074
128,-0.03072,-0.0668149,0.0334074
129,-0.03071,-0.0668149,0.0334074
130,-0.0307,-0.0668149,0.0334074
131,-0.03069,-0.0668149,0.0334074
132,-0.03068,-0.0668149,0.0167037
133,-0.03067,-0.0668149,0.0167037
134,-0.03066,-0.0668149,0.0167037
135,-0.03065,-0.0668149,0.0167037
136,-0.03064,-0.0668149,0.0334074
137,-0.03063,-0.0668149,0.0334074
138,-0.03062,-0.0668149,0.0334074
139,-0.03061,-0.0668149,0.0334074
140,-0.0306,-0.0668149,0.0334074
141,-0.03059,-0.0668149,0.0167037
142,-0.03058,-0.0668149,0.0167037
143,-0.03057,-0.0668149,0
144,-0.03056,-0.0668149,0.0334074
145,-0.03055,-0.0501112,0.0334074
146,-0.03054,-0.0501112,0.0334074
147,-0.03053,-0.0334074,0.0334074
148,-0.03052,-0.0334074,0.0334074
149,-0.03051,0.0167037,0.0501112
150,-0.0305,0,0.0501112
151,-0.03049,0.0334074,0.0501112
152,-0.03048,0.0334074,0.0501112
153,-0.03047,0.0334074,0.0167037
154,-0.03046,0.0334074,0.0334074
155,-0.03045,0.0334074,0.0334074
156,-0.03044,0.0501112,0
157,-0.03043,0.0501112,0.0167037
158,-0.03042,0.0501112,0.0167037
159,-0.03041,0.0668149,0.0167037
160,-0.0304,0.0668149,0
161,-0.03039,0.0835186,0.0334074
162,-0.03038,0.116926,0.0334074
163,-0.03037,0.100222,0.0334074
164,-0.03036,0.13363,0.0334074
165,-0.03035,0.116926,0.0334074
166,-0.03034,0.150333,0.0334074
167,-0.03033,0.150333,0.0334074
168,-0.03032,0.167037,0.0334074
169,-0.03031,0.167037,0.0334074
170,-0.0303,0.167037,0.0334074
171,-0.03029,0.200445,0.0334074
172,-0.03028,0.183741,0.0334074
173,-0.03027,0.217148,0.0334074
174,-0.03026,0.200445,0.0334074
175,-0.03025,0.250556,0.0334074
176,-0.03024,0.250556,0.0334074
177,-0.03023,0.250556,0.0334074
178,-0.03022,0.26726,0.0334074
179,-0.03021,0.26726,0.0334074
180,-0.0302,0.283963,0.0334074
181,-0.03019,0.283963,0.0334074
182,-0.03018,0.300667,0.0334074
183,-0.03017,0.300667,0.0334074
184,-0.03016,0.317371,0.0334074
185,-0.03015,0.317371,0.0334074
186,-0.03014,0.317371,0.0334074
187,-0.03013,0.350778,0.0334074
188,-0.03012,0.334074,0.0334074
189,-0.03011,0.367482,0.0334074
190,-0.0301,0.367482,0.0334074
191,-0.03009,0.384186,0.0334074
192,-0.03008,0.384186,0.0334074
193,-0.03007,0.400889,0.0334074
194,-0.03006,0.400889,0.0334074
195,-0.03005,0.400889,0.0334074
196,-0.03004,0.434297,0.0334074
197,-0.03003,0.417593,0.0334074
198,-0.03002,0.451,0.0334074
199,-0.03001,0.451,0.0334074
200,-0.03,0.467704,0.0334074
201,-0.02999,0.451,0.0334074
202,-0.02998,0.501112,0.0334074
203,-0.02997,0.501112,0.0334074
204,-0.02996,0.501112,0.0334074
205,-0.02995,0.501112,0.0334074
206,-0.02994,0.534519,0.0334074
207,-0.02993,0.534519,0.0334074
208,-0.02992,0.534519,0.0334074
209,-0.02991,0.551223,0.0334074
210,-0.0299,0.551223,0.0334074
211,-0.02989,0.567927,0.0334074
212,-0.02988,0.567927,0.0334074
213,-0.02987,0.567927,0.0334074
214,-0.02986,0.601334,0.0334074
215,-0.02985,0.601334,0.0334074
216,-0.02984,0.601334,0.0334074
217,-0.02983,0.601334,0.0334074
218,-0.02982,0.634741,0.0334074
219,-0.02981,0.618038,0.0334074
220,-0.0298,0.651445,0.0334074
221,-0.02979,0.634741,0.0334074
222,-0.02978,0.668149,0.0334074
223,-0.02977,0.651445,0.0334074
224,-0.02976,0.684853,0.0334074
225,-0.02975,0.701556,0.0334074
226,-0.02974,0.684853,0.0334074
227,-0.02973,0.71826,0.0334074
228,-0.02972,0.701556,0.0334074
229,-0.02971,0.751667,0.0334074
230,-0.0297,0.751667,0.0334074
231,-0.02969,0.751667,0.0334074
232,-0.02968,0.768371,0.0334074
233,-0.02967,0.768371,0.0334074
234,-0.02966,0.785075,0.0334074
235,-0.02965,0.785075,0.0334074
236,-0.02964,0.801779,0.0334074
237,-0.02963,0.801779,0.0334074
238,-0.02962,0.801779,0.0334074
239,-0.02961,0.835186,0.0334074
240,-0.0296,0.818482,0.0334074
241,-0.02959,0.85189,0.0334074
242,-0.02958,0.85189,0.0334074
243,-0.02957,0.868594,0.0334074
244,-0.02956,0.868594,0.0334074
245,-0.02955,0.868594,0.0334074
246,-0.02954,0.902001,0.0334074
247,-0.02953,0.902001,0.0334074
248,-0.02952,0.902001,0.0334074
249,-0.02951,0.918705,0.0334074
250,-0.0295,0.918705,0.0334074
251,-0.02949,0.935408,0.0334074
252,-0.02948,0.935408,0.0334074
253,-0.02947,0.952112,0.0334074
254,-0.02946,0.952112,0.0334074
255,-0.02945,0.952112,0.0334074
256,-0.02944,1.00222,0.0334074
257,-0.02943,0.98552,0.0334074
258,-0.02942,1.01893,0.0334074
259,-0.02941,1.01893,0.0334074
260,-0.0294,1.01893,0.0334074
261,-0.02939,1.03563,0.0334074
262,-0.02938,1.03563,0.0334074
263,-0.02937,1.05233,0.0334074
264,-0.02936,1.05233,0.0334074
265,-0.02935,1.06904,0.0334074
266,-0.02934,1.06904,0.0334074
267,-0.02933,1.06904,0.0334074
268,-0.02932,1.10245,0.0334074
269,-0.02931,1.08574,0.0334074
270,-0.0293,1.11915,0.0334074
271,-0.02929,1.10245,0.0334074
272,-0.02928,1.13585,0.0334074
273,-0.02927,1.13585,0.0334074
274,-0.02926,1.13585,0.0334074
275,-0.02925,1.15256,0.0334074
276,-0.02924,1.16926,0.0334074
277,-0.02923,1.16926,0.0334074
278,-0.02922,1.18596,0.0334074
279,-0.02921,1.18596,0.0334074
280,-0.0292,1.18596,0.0334074
281,-0.02919,1.23608,0.0334074
282,-0.02918,1.23608,0.0334074
283,-0.02917,1.23608,0.0334074
284,-0.02916,1.25278,0.0334074
285,-0.02915,1.25278,0.0334074
286,-0.02914,1.26948,0.0334074
287,-0.02913,1.26948,0.0334074
288,-0.02912,1.28619,0.0334074
289,-0.02911,1.28619,0.0334074
290,-0.0291,1.30289,0.0334074
291,-0.02909,1.30289,0.0334074
292,-0.02908,1.31959,0.0334074
293,-0.02907,1.31959,0.0334074
294,-0.02906,1.31959,0.0334074
295,-0.02905,1.353,0.0334074
296,-0.02904,1.353,0.0334074
297,-0.02903,1.36971,0.0334074
298,-0.02902,1.36971,0.0334074
299,-0.02901,1.38641,0.0334074
300,-0.029,1.38641,0.0334074
301,-0.02899,1.40311,0.0334074
302,-0.02898,1.40311,0.0334074
303,-0.02897,1.41982,0.0334074
304,-0.02896,1.41982,0.0334074
305,-0.02895,1.41982,0.0334074
306,-0.02894,1.43652,0.0334074
307,-0.02893,1.43652,0.0334074
308,-0.02892,1.43652,0.0334074
309,-0.02891,1.48663,0.0334074
310,-0.0289,1.48663,0.0334074
311,-0.02889,1.50333,0.0334074
312,-0.02888,1.50333,0.0334074
313,-0.02887,1.52004,0.0334074
314,-0.02886,1.52004,0.0334074
315,-0.02885,1.52004,0.0334074
316,-0.02884,1.53674,0.0334074
317,-0.02883,1.53674,0.0334074
318,-0.02882,1.53674,0.0334074
319,-0.02881,1.57015,0.0334074
320,-0.0288,1.57015,0.0334074
321,-0.02879,1.58685,0.0334074
322,-0.02878,1.58685,0.0334074
323,-0.02877,1.60356,0.0334074
324,-0.02876,1.60356,0.0334074
325,-0.02875,1.62026,0.0334074
326,-0.02874,1.62026,0.0334074
327,-0.02873,1.63696,0.0334074
328,-0.02872,1.63696,0.0334074
329,-0.02871,1.65367,0.0334074
330,-0.0287,1.65367,0.0334074
331,-0.02869,1.67037,0.0334074
332,-0.02868,1.67037,0.0334074
333,-0.02867,1.68708,0.0334074
334,-0.02866,1.68708,0.0334074
335,-0.02865,1.68708,0.0334074
336,-0.02864,1.73719,0.0334074
337,-0.02863,1.73719,0.0334074
338,-0.02862,1.73719,0.0334074
339,-0.02861,1.75389,0.0334074
340,-0.0286,1.75389,0.0334074
341,-0.02859,1.77059,0.0334074
342,-0.02858,1.77059,0.0334074
343,-0.02857,1.7873,0.0334074
344,-0.02856,1.7873,0.0334074
345,-0.02855,1.804,0.0334074
346,-0.02854,1.804,0.0334074
347,-0.02853,1.82071,0.0334074
348,-0.02852,1.83741,0.0334074
349,-0.02851,1.83741,0.0334074
350,-0.0285,1.85411,0.0334074
351,-0.02849,1.85411,0.0334074
352,-0.02848,1.87082,0.0334074
353,-0.02847,1.87082,0.0334074
354,-0.02846,1.88752,0.0334074
355,-0.02845,1.88752,0.0334074
356,-0.02844,1.90422,0.0334074
357,-0.02843,1.90422,0.0334074
358,-0.02842,1.92093,0.0334074
359,-0.02841,1.92093,0.0334074
360,-0.0284,1.93763,0.0334074
361,-0.02839,1.93763,0.0334074
362,-0.02838,1.98774,0.0334074
363,-0.02837,1.98774,0.0334074
364,-0.02836,1.98774,0.0334074
365,-0.02835,2.00445,0.0334074
366,-0.02834,2.00445,0.0334074
367,-0.02833,2.00445,0.0334074
368,-0.02832,2.02115,0.0334074
369,-0.02831,2.02115,0.0334074
370,-0.0283,2.03785,0.0334074
371,-0.02829,2.03785,0.0334074
372,-0.02828,2.05456,0.0334074
373,-0.02827,2.05456,0.0334074
374,-0.02826,2.07126,0.0334074
375,-0.02825,2.07126,0.0334074
376,-0.02824,2.08797,0.0334074
377,-0.02823,2.08797,0.0334074
378,-0.02822,2.12137,0.0334074
379,-0.02821,2.12137,0.0334074
380,-0.0282,2.12137,0.0334074
381,-0.02819,2.13808,0.0334074
382,-0.02818,2.13808,0.0334074
383,-0.02817,2.15478,0.0334074
384,-0.02816,2.15478,0.0334074
385,-0.02815,2.17148,0.0334074
386,-0.02814,2.17148,0.0334074
387,-0.02813,2.18819,0.0334074
388,-0.02812,2.18819,0.0334074
389,-0.02811,2.2383,0.0334074
390,-0.0281,2.2383,0.0334074
391,-0.02809,2.2383,0.0334074
392,-0.02808,2.2383,0.0334074
393,-0.02807,2.255,0.0334074
394,-0.02806,2.255,0.0334074
395,-0.02805,2.27171,0.0334074
396,-0.02804,2.27171,0.0334074
397,-0.02803,2.28841,0.0334074
398,-0.02802,2.28841,0.0334074
399,-0.02801,2.28841,0.0334074
400,-0.028,2.30511,0.0334074
401,-0.02799,2.30511,0.0334074
402,-0.02798,2.33852,0.0334074
403,-0.02797,2.32182,0.0334074
404,-0.02796,2.35522,0.0334074
405,-0.02795,2.35522,0.0334074
406,-0.02794,2.35522,0.0334074
407,-0.02793,2.38863,0.0334074
408,-0.02792,2.37193,0.0334074
409,-0.02791,2.40534,0.0334074
410,-0.0279,2.38863,0.0334074
411,-0.02789,2.42204,0.0334074
412,-0.02788,2.40534,0.0334074
413,-0.02787,2.43874,0.0334074
414,-0.02786,2.42204,0.0334074
415,-0.02785,2.47215,0.0334074
416,-0.02784,2.43874,0.0334074
417,-0.02783,2.48885,0.0334074
418,-0.02782,2.47215,0.0334074
419,-0.02781,2.50556,0.0334074
420,-0.0278,2.48885,0.0334074
421,-0.02779,2.52226,0.0334074
422,-0.02778,2.50556,0.0334074
423,-0.02777,2.52226,0.0334074
424,-0.02776,2.52226,0.0334074
425,-0.02775,2.52226,0.0334074
426,-0.02774,2.55567,0.0334074
427,-0.02773,2.53897,0.0334074
428,-0.02772,2.57237,0.0334074
429,-0.02771,2.55567,0.0334074
430,-0.0277,2.58908,0.0334074
431,-0.02769,2.57237,0.0334074
432,-0.02768,2.60578,0.0334074
433,-0.02767,2.60578,0.0334074
434,-0.02766,2.60578,0.0334074
435,-0.02765,2.62248,0.0334074
436,-0.02764,2.62248,0.0334074
437,-0.02763,2.63919,0.0334074
438,-0.02762,2.63919,0.0334074
439,-0.02761,2.6726,0.0334074
440,-0.0276,2.65589,0.0334074
441,-0.02759,2.6726,0.0334074
442,-0.02758,2.6726,0.0334074
443,-0.02757,2.72271,0.0334074
444,-0.02756,2.6893,0.0334074
445,-0.02755,2.73941,0.0334074
446,-0.02754,2.72271,0.0334074
447,-0.02753,2.75611,0.0334074
448,-0.02752,2.73941,0.0334074
449,-0.02751,2.75611,0.0334074
450,-0.0275,2.75611,0.0334074
451,-0.02749,2.77282,0.0334074
452,-0.02748,2.77282,0.0334074
453,-0.02747,2.78952,0.0334074
454,-0.02746,2.78952,0.0334074
455,-0.02745,2.80623,0.0334074
456,-0.02744,2.80623,0.0334074
457,-0.02743,2.82293,0.0334074
458,-0.02742,2.82293,0.0334074
459,-0.02741,2.83963,0.0334074
460,-0.0274,2.83963,0.0334074
461,-0.02739,2.87304,0.0334074
462,-0.02738,2.85634,0.0334074
463,-0.02737,2.88974,0.0334074
464,-0.02736,2.87304,0.0334074
465,-0.02735,2.90645,0.0334074
466,-0.02734,2.88974,0.0334074
467,-0.02733,2.92315,0.0334074
468,-0.02732,2.90645,0.0334074
469,-0.02731,2.95656,0.0334074
470,-0.0273,2.92315,0.0334074
471,-0.02729,2.97326,0.0334074
472,-0.02728,2.95656,0.0334074
473,-0.02727,2.98997,0.0334074
474,-0.02726,2.98997,0.0334074
475,-0.02725,2.98997,0.0334074
476,-0.02724,2.98997,0.0334074
477,-0.02723,3.02337,0.0334074
478,-0.02722,3.00667,0.0334074
479,-0.02721,3.02337,0.0334074
480,-0.0272,3.02337,0.0334074
481,-0.02719,3.04008,0.0334074
482,-0.02718,3.04008,0.0334074
483,-0.02717,3.05678,0.0334074
484,-0.02716,3.05678,0.0334074
485,-0.02715,3.07348,0.0334074
486,-0.02714,3.07348,0.0334074
487,-0.02713,3.10689,0.0334074
488,-0.02712,3.09019,0.0334074
489,-0.02711,3.1236,0.0334074
490,-0.0271,3.10689,0.0334074
491,-0.02709,3.1403,0.0334074
492,-0.02708,3.1403,0.0334074
493,-0.02707,3.1403,0.0334074
494,-0.02706,3.157,0.0334074
495,-0.02705,3.157,0.0334074
496,-0.02704,3.17371,0.0334074
497,-0.02703,3.17371,0.0334074
498,-0.02702,3.20711,0.0334074
499,-0.02701,3.20711,0.0334074
500,-0.027,3.22382,0.0334074
501,-0.02699,3.22382,0.0334074
502,-0.02698,3.22382,0.0334074
503,-0.02697,3.25723,0.0334074
504,-0.02696,3.24052,0.0334074
505,-0.02695,3.27393,0.0334074
506,-0.02694,3.27393,0.0334074
507,-0.02693,3.27393,0.0334074
508,-0.02692,3.27393,0.0334074
509,-0.02691,3.30734,0.0334074
510,-0.0269,3.29063,0.0334074
511,-0.02689,3.32404,0.0334074
512,-0.02688,3.30734,0.0334074
513,-0.02687,3.34074,0.0334074
514,-0.02686,3.34074,0.0334074
515,-0.02685,3.34074,0.0334074
516,-0.02684,3.34074,0.0334074
517,-0.02683,3.37415,0.0334074
518,-0.02682,3.37415,0.0334074
519,-0.02681,3.37415,0.0334074
520,-0.0268,3.39086,0.0334074
521,-0.02679,3.39086,0.0334074
522,-0.02678,3.39086,0.0334074
523,-0.02677,3.42426,0.0334074
524,-0.02676,3.42426,0.0334074
525,-0.02675,3.42426,0.0334074
526,-0.02674,3.45767,0.0334074
527,-0.02673,3.45767,0.0334074
528,-0.02672,3.47437,0.0334074
529,-0.02671,3.47437,0.0334074
530,-0.0267,3.49108,0.0334074
531,-0.02669,3.49108,0.0334074
532,-0.02668,3.50778,0.0334074
533,-0.02667,3.50778,0.0334074
534,-0.02666,3.50778,0.0334074
535,-0.02665,3.54119,0.0334074
536,-0.02664,3.54119,0.0334074
537,-0.02663,3.54119,0.0334074
538,-0.02662,3.54119,0.0334074
539,-0.02661,3.55789,0.0334074
540,-0.0266,3.55789,0.0334074
541,-0.02659,3.5913,0.0334074
542,-0.02658,3.5746,0.0334074
543,-0.02657,3.608,0.0334074
544,-0.02656,3.5913,0.0334074
545,-0.02655,3.62471,0.0334074
546,-0.02654,3.608,0.0334074
547,-0.02653,3.64141,0.0334074
548,-0.02652,3.62471,0.0334074
549,-0.02651,3.65811,0.0334074
550,-0.0265,3.64141,0.0334074
551,-0.02649,3.67482,0.0334074
552,-0.02648,3.65811,0.0334074
553,-0.02647,3.70823,0.0334074
554,-0.02646,3.67482,0.0334074
555,-0.02645,3.72493,0.0334074
556,-0.02644,3.70823,0.0334074
557,-0.02643,3.74163,0.0334074
558,-0.02642,3.72493,0.0334074
559,-0.02641,3.75834,0.0334074
560,-0.0264,3.74163,0.0334074
561,-0.02639,3.77504,0.0334074
562,-0.02638,3.77504,0.0334074
563,-0.02637,3.77504,0.0334074
564,-0.02636,3.79174,0.0334074
565,-0.02635,3.79174,0.0334074
566,-0.02634,3.79174,0.0334074
567,-0.02633,3.82515,0.0334074
568,-0.02632,3.80845,0.0334074
569,-0.02631,3.84186,0.0334074
570,-0.0263,3.84186,0.0334074
571,-0.02629,3.84186,0.0334074
572,-0.02628,3.84186,0.0334074
573,-0.02627,3.87526,0.0334074
574,-0.02626,3.85856,0.0334074
575,-0.02625,3.89197,0.0334074
576,-0.02624,3.87526,0.0334074
577,-0.02623,3.90867,0.0334074
578,-0.02622,3.89197,0.0334074
579,-0.02621,3.94208,0.0334074
580,-0.0262,3.90867,0.0334074
581,-0.02619,3.95878,0.0334074
582,-0.02618,3.95878,0.0334074
583,-0.02617,3.97549,0.0334074
584,-0.02616,3.97549,0.0334074
585,-0.02615,3.99219,0.0334074
586,-0.02614,3.99219,0.0334074
587,-0.02613,3.99219,0.0334074
588,-0.02612,3.99219,0.0334074
589,-0.02611,4.0256,0.0334074
590,-0.0261,4.00889,0.0334074
591,-0.02609,4.0423,0.0334074
592,-0.02608,4.0256,0.0334074
593,-0.02607,4.059,0.0334074
594,-0.02606,4.059,0.0334074
595,-0.02605,4.059,0.0334074
596,-0.02604,4.07571,0.0334074
597,-0.02603,4.07571,0.0334074
598,-0.02602,4.09241,0.0334074
599,-0.02601,4.09241,0.0334074
600,-0.026,4.09241,0.0334074
601,-0.02599,4.12582,0.0334074
602,-0.02598,4.10912,0.0334074
603,-0.02597,4.14252,0.0334074
604,-0.02596,4.12582,0.0334074
605,-0.02595,4.15923,0.0334074
606,-0.02594,4.15923,0.0334074
607,-0.02593,4.15923,0.0334074
608,-0.02592,4.15923,0.0334074
609,-0.02591,4.20934,0.0334074
610,-0.0259,4.20934,0.0334074
611,-0.02589,4.20934,0.0334074
612,-0.02588,4.24275,0.0334074
613,-0.02587,4.24275,0.0334074
614,-0.02586,4.24275,0.0334074
615,-0.02585,4.25945,0.0334074
616,-0.02584,4.25945,0.0334074
617,-0.02583,4.27615,0.0334074
618,-0.02582,4.25945,0.0334074
619,-0.02581,4.29286,0.0334074
620,-0.0258,4.29286,0.0334074
621,-0.02579,4.29286,0.0334074
622,-0.02578,4.30956,0.0334074
623,-0.02577,4.30956,0.0334074
624,-0.02576,4.32626,0.0334074
625,-0.02575,4.32626,0.0334074
626,-0.02574,4.34297,0.0334074
627,-0.02573,4.34297,0.0334074
628,-0.02572,4.34297,0.0334074
629,-0.02571,4.37638,0.0334074
630,-0.0257,4.35967,0.0334074
631,-0.02569,4.39308,0.0334074
632,-0.02568,4.37638,0.0334074
633,-0.02567,4.40978,0.0334074
634,-0.02566,4.39308,0.0334074
635,-0.02565,4.44319,0.0334074
