Mesures/Data/I&NE_4ms_5v_m4.csv

;Scopy version,f4beeb1
;Exported on,Wednesday May 15/05/2024
;Device,M2K
;Nr of samples,6400
;Sample rate,100000
;Tool,Oscilloscope
;Additional Information,
Sample,Time(S),CH1(V),CH2(V)
0,-0.032,11.1915,0.0334074
1,-0.03199,11.1915,0.0334074
2,-0.03198,11.1915,0.0334074
3,-0.03197,11.2249,0.0334074
4,-0.03196,11.2082,0.0334074
5,-0.03195,11.2416,0.0334074
6,-0.03194,11.2249,0.0334074
7,-0.03193,11.2583,0.0334074
8,-0.03192,11.2583,0.0334074
9,-0.03191,11.2583,0.0334074
10,-0.0319,11.2583,0.0334074
11,-0.03189,11.2917,0.0334074
12,-0.03188,11.2917,0.0334074
13,-0.03187,11.2917,0.0334074
14,-0.03186,11.2917,0.0334074
15,-0.03185,11.3418,0.0334074
16,-0.03184,11.3251,0.0334074
17,-0.03183,11.3585,0.0334074
18,-0.03182,11.3585,0.0334074
19,-0.03181,11.3585,0.0334074
20,-0.0318,11.3752,0.0334074
21,-0.03179,11.3752,0.0334074
22,-0.03178,11.3919,0.0334074
23,-0.03177,11.3919,0.0334074
24,-0.03176,11.4086,0.0334074
25,-0.03175,11.4086,0.0334074
26,-0.03174,11.4086,0.0334074
27,-0.03173,11.4086,0.0334074
28,-0.03172,11.442,0.0334074
29,-0.03171,11.4253,0.0334074
30,-0.0317,11.4588,0.0334074
31,-0.03169,11.442,0.0334074
32,-0.03168,11.4755,0.0334074
33,-0.03167,11.4588,0.0334074
34,-0.03166,11.4922,0.0334074
35,-0.03165,11.4755,0.0334074
36,-0.03164,11.5089,0.0334074
37,-0.03163,11.5089,0.0334074
38,-0.03162,11.5089,0.0334074
39,-0.03161,11.5256,0.0334074
40,-0.0316,11.5256,0.0334074
41,-0.03159,11.5256,0.0334074
42,-0.03158,11.5256,0.0334074
43,-0.03157,11.5757,0.0334074
44,-0.03156,11.5423,0.0334074
45,-0.03155,11.5924,0.0334074
46,-0.03154,11.5924,0.0334074
47,-0.03153,11.5924,0.0334074
48,-0.03152,11.5924,0.0334074
49,-0.03151,11.6258,0.0334074
50,-0.0315,11.6091,0.0334074
51,-0.03149,11.6425,0.0334074
52,-0.03148,11.6258,0.0334074
53,-0.03147,11.6592,0.0334074
54,-0.03146,11.6425,0.0334074
55,-0.03145,11.6759,0.0334074
56,-0.03144,11.6592,0.0334074
57,-0.03143,11.6926,0.0334074
58,-0.03142,11.6759,0.0334074
59,-0.03141,11.7093,0.0334074
60,-0.0314,11.7093,0.0334074
61,-0.03139,11.7093,0.0334074
62,-0.03138,11.726,0.0334074
63,-0.03137,11.726,0.0334074
64,-0.03136,11.7427,0.0334074
65,-0.03135,11.7427,0.0334074
66,-0.03134,11.7594,0.0334074
67,-0.03133,11.7427,0.0334074
68,-0.03132,11.7761,0.0334074
69,-0.03131,11.7594,0.0334074
70,-0.0313,11.7928,0.0334074
71,-0.03129,11.7761,0.0334074
72,-0.03128,11.8262,0.0334074
73,-0.03127,11.7928,0.0334074
74,-0.03126,11.8429,0.0334074
75,-0.03125,11.8429,0.0334074
76,-0.03124,11.8429,0.0334074
77,-0.03123,11.8596,0.0334074
78,-0.03122,11.8596,0.0334074
79,-0.03121,11.8596,0.0334074
80,-0.0312,11.893,0.0334074
81,-0.03119,11.893,0.0334074
82,-0.03118,11.893,0.0334074
83,-0.03117,11.9098,0.0334074
84,-0.03116,11.9098,0.0334074
85,-0.03115,11.9265,0.0334074
86,-0.03114,11.9265,0.0334074
87,-0.03113,11.9432,0.0334074
88,-0.03112,11.9432,0.0334074
89,-0.03111,11.9432,0.0334074
90,-0.0311,11.9766,0.0334074
91,-0.03109,11.9599,0.0334074
92,-0.03108,11.9933,0.0334074
93,-0.03107,11.9766,0.0334074
94,-0.03106,12.01,0.0334074
95,-0.03105,11.9933,0.0334074
96,-0.03104,12.0267,0.0334074
97,-0.03103,12.0267,0.0334074
98,-0.03102,12.0267,0.0334074
99,-0.03101,12.01,0.0167037
100,-0.031,12.0601,0.0167037
101,-0.03099,12.0267,0.0334074
102,-0.03098,12.0768,0.0334074
103,-0.03097,12.0601,0.0334074
104,-0.03096,12.0935,0.0334074
105,-0.03095,12.0768,0.0334074
106,-0.03094,12.1102,0
107,-0.03093,12.0935,0.0334074
108,-0.03092,12.1269,0.0334074
109,-0.03091,12.1102,0.0167037
110,-0.0309,12.1436,0.0167037
111,-0.03089,12.1436,0.0334074
112,-0.03088,12.1436,0.0167037
113,-0.03087,12.1603,0.0334074
114,-0.03086,12.1603,0.0334074
115,-0.03085,12.1603,0.0334074
116,-0.03084,12.1937,0.0334074
117,-0.03083,12.1937,0.0334074
118,-0.03082,12.1937,0.0334074
119,-0.03081,12.2271,0.0334074
120,-0.0308,12.2271,0.0334074
121,-0.03079,12.2271,0.0334074
122,-0.03078,12.2438,0.0334074
123,-0.03077,12.2438,0.0334074
124,-0.03076,12.2605,0.0334074
125,-0.03075,12.2605,0.0334074
126,-0.03074,12.2605,0.0334074
127,-0.03073,12.2772,0.0334074
128,-0.03072,12.2605,0.0334074
129,-0.03071,12.3106,0.0167037
130,-0.0307,12.3106,0.0167037
131,-0.03069,12.3106,0.0334074
132,-0.03068,12.3273,0.0334074
133,-0.03067,12.3273,0.0334074
134,-0.03066,12.2104,0.233852
135,-0.03065,10.7238,-0.968816
136,-0.03064,0.0167037,14.6993
137,-0.03063,-0.618038,0.634741
138,-0.03062,-0.701556,0.317371
139,-0.03061,-0.651445,0
140,-0.0306,-0.58463,0
141,-0.03059,-0.534519,0
142,-0.03058,-0.467704,0
143,-0.03057,-0.434297,-0.0334074
144,-0.03056,-0.400889,0.0167037
145,-0.03055,-0.367482,0.0167037
146,-0.03054,-0.350778,0.0167037
147,-0.03053,-0.334074,0.0167037
148,-0.03052,-0.300667,0.0334074
149,-0.03051,-0.233852,0.0334074
150,-0.0305,-0.0334074,0.0167037
151,-0.03049,0,0.0501112
152,-0.03048,-0.0501112,0.0167037
153,-0.03047,-0.0668149,0.0167037
154,-0.03046,-0.0668149,0.0167037
155,-0.03045,-0.0668149,0.0167037
156,-0.03044,-0.0668149,0.0167037
157,-0.03043,-0.0668149,0.0167037
158,-0.03042,-0.0668149,0.0167037
159,-0.03041,-0.0668149,0.0167037
160,-0.0304,-0.0668149,0.0167037
161,-0.03039,-0.0668149,0.0167037
162,-0.03038,-0.0668149,0.0167037
163,-0.03037,-0.0334074,0.0334074
164,-0.03036,-0.0334074,0.0334074
165,-0.03035,-0.0668149,0.0334074
166,-0.03034,-0.0668149,0.0334074
167,-0.03033,-0.0668149,0.0167037
168,-0.03032,-0.0668149,0.0167037
169,-0.03031,-0.0668149,0.0167037
170,-0.0303,-0.0668149,0.0167037
171,-0.03029,-0.0668149,0.0167037
172,-0.03028,-0.0668149,0.0167037
173,-0.03027,-0.0668149,0.0334074
174,-0.03026,-0.0668149,0.0334074
175,-0.03025,-0.0668149,0.0334074
176,-0.03024,-0.0668149,0.0334074
177,-0.03023,-0.0668149,0.0334074
178,-0.03022,-0.0668149,0.0167037
179,-0.03021,-0.0668149,0.0167037
180,-0.0302,-0.0668149,0
181,-0.03019,-0.0668149,0.0334074
182,-0.03018,-0.0668149,0.0334074
183,-0.03017,-0.0668149,0.0167037
184,-0.03016,-0.0668149,0.0167037
185,-0.03015,-0.0668149,0.0334074
186,-0.03014,-0.0668149,0
187,-0.03013,-0.0668149,0.0167037
188,-0.03012,-0.0668149,0.0167037
189,-0.03011,-0.0668149,0.0334074
190,-0.0301,-0.0668149,0.0167037
191,-0.03009,-0.0668149,0.0334074
192,-0.03008,-0.0668149,0
193,-0.03007,-0.0668149,0.0167037
194,-0.03006,-0.0668149,0.0167037
195,-0.03005,-0.0668149,0.0334074
196,-0.03004,-0.0668149,0.0167037
197,-0.03003,-0.0668149,0.0167037
198,-0.03002,-0.0668149,0.0334074
199,-0.03001,-0.0668149,0.0334074
200,-0.03,-0.0668149,0.0334074
201,-0.02999,-0.0668149,0
202,-0.02998,-0.0668149,0.0167037
203,-0.02997,-0.0668149,0.0167037
204,-0.02996,-0.0668149,0.0167037
205,-0.02995,-0.0668149,0.0167037
206,-0.02994,-0.0668149,0.0167037
207,-0.02993,-0.0668149,0.0167037
208,-0.02992,-0.0668149,0.0167037
209,-0.02991,-0.0668149,0.0167037
210,-0.0299,-0.0668149,0
211,-0.02989,-0.0668149,0.0334074
212,-0.02988,-0.0668149,0.0334074
213,-0.02987,-0.0668149,0.0334074
214,-0.02986,-0.0668149,0.0334074
215,-0.02985,-0.0668149,0
216,-0.02984,-0.0668149,0.0334074
217,-0.02983,-0.0668149,0.0334074
218,-0.02982,-0.0668149,0.0334074
219,-0.02981,-0.0668149,0.0334074
220,-0.0298,-0.0668149,0.0334074
221,-0.02979,-0.0668149,0.0334074
222,-0.02978,-0.0668149,0.0334074
223,-0.02977,-0.0668149,0.0334074
224,-0.02976,-0.0668149,0.0334074
225,-0.02975,-0.0668149,0.0334074
226,-0.02974,-0.0668149,0.0334074
227,-0.02973,-0.0668149,0.0334074
228,-0.02972,-0.0668149,0
229,-0.02971,-0.0668149,0.0334074
230,-0.0297,-0.0668149,0.0334074
231,-0.02969,-0.0668149,0.0334074
232,-0.02968,-0.0668149,0.0334074
233,-0.02967,-0.0668149,0.0334074
234,-0.02966,-0.0668149,0
235,-0.02965,-0.0668149,0.0167037
236,-0.02964,-0.0668149,0.0167037
237,-0.02963,-0.0668149,0.0167037
238,-0.02962,-0.0668149,0.0334074
239,-0.02961,-0.0668149,0.0167037
240,-0.0296,-0.0668149,0.0167037
241,-0.02959,-0.0668149,0.0167037
242,-0.02958,-0.0668149,0.0167037
243,-0.02957,-0.0668149,0.0334074
244,-0.02956,-0.0668149,0.0334074
245,-0.02955,-0.0668149,0
246,-0.02954,-0.0668149,0
247,-0.02953,-0.0668149,0.0334074
248,-0.02952,-0.0668149,0.0167037
249,-0.02951,-0.0668149,0.0167037
250,-0.0295,-0.0668149,0.0334074
251,-0.02949,-0.0668149,0.0167037
252,-0.02948,-0.0668149,0.0167037
253,-0.02947,-0.0668149,0.0334074
254,-0.02946,-0.0668149,0.0334074
255,-0.02945,-0.0668149,0
256,-0.02944,-0.0668149,0.0334074
257,-0.02943,-0.0668149,0
258,-0.02942,-0.0501112,0.0334074
259,-0.02941,-0.0501112,0.0334074
260,-0.0294,-0.0334074,0.0334074
261,-0.02939,-0.0334074,0.0334074
262,-0.02938,0.0167037,0.0501112
263,-0.02937,0.0167037,0.0501112
264,-0.02936,0.0167037,0.0334074
265,-0.02935,0.0167037,0.0334074
266,-0.02934,0.0334074,0.0334074
267,-0.02933,0.0334074,0.0334074
268,-0.02932,0.0334074,0.0167037
269,-0.02931,0.0501112,0.0167037
270,-0.0293,0.0501112,0.0167037
271,-0.02929,0.0501112,0.0167037
272,-0.02928,0.0668149,0.0167037
273,-0.02927,0.0668149,0
274,-0.02926,0.0835186,0.0334074
275,-0.02925,0.116926,0.0334074
276,-0.02924,0.100222,0.0334074
277,-0.02923,0.13363,0.0334074
278,-0.02922,0.116926,0.0334074
279,-0.02921,0.150333,0.0334074
280,-0.0292,0.150333,0.0334074
281,-0.02919,0.167037,0.0334074
282,-0.02918,0.167037,0.0334074
283,-0.02917,0.167037,0.0334074
284,-0.02916,0.200445,0.0334074
285,-0.02915,0.183741,0.0334074
286,-0.02914,0.217148,0.0334074
287,-0.02913,0.217148,0.0334074
288,-0.02912,0.217148,0.0334074
289,-0.02911,0.250556,0.0334074
290,-0.0291,0.250556,0.0334074
291,-0.02909,0.26726,0.0334074
292,-0.02908,0.26726,0.0334074
293,-0.02907,0.283963,0.0334074
294,-0.02906,0.283963,0.0334074
295,-0.02905,0.300667,0.0334074
296,-0.02904,0.300667,0.0334074
297,-0.02903,0.317371,0.0334074
298,-0.02902,0.317371,0.0334074
299,-0.02901,0.317371,0.0334074
300,-0.029,0.350778,0.0334074
301,-0.02899,0.350778,0.0334074
302,-0.02898,0.350778,0.0334074
303,-0.02897,0.350778,0.0334074
304,-0.02896,0.384186,0.0334074
305,-0.02895,0.384186,0.0334074
306,-0.02894,0.400889,0.0334074
307,-0.02893,0.400889,0.0334074
308,-0.02892,0.400889,0.0334074
309,-0.02891,0.434297,0.0334074
310,-0.0289,0.417593,0.0334074
311,-0.02889,0.451,0.0334074
312,-0.02888,0.451,0.0334074
313,-0.02887,0.467704,0.0334074
314,-0.02886,0.451,0.0334074
315,-0.02885,0.501112,0.0334074
316,-0.02884,0.501112,0.0334074
317,-0.02883,0.501112,0.0334074
318,-0.02882,0.517815,0.0334074
319,-0.02881,0.517815,0.0334074
320,-0.0288,0.534519,0.0334074
321,-0.02879,0.534519,0.0334074
322,-0.02878,0.551223,0.0334074
323,-0.02877,0.551223,0.0334074
324,-0.02876,0.567927,0.0334074
325,-0.02875,0.567927,0.0334074
326,-0.02874,0.58463,0.0334074
327,-0.02873,0.58463,0.0334074
328,-0.02872,0.601334,0.0334074
329,-0.02871,0.601334,0.0334074
330,-0.0287,0.601334,0.0334074
331,-0.02869,0.634741,0.0334074
332,-0.02868,0.618038,0.0334074
333,-0.02867,0.651445,0.0334074
334,-0.02866,0.634741,0.0334074
335,-0.02865,0.668149,0.0334074
336,-0.02864,0.651445,0.0334074
337,-0.02863,0.684853,0.0334074
338,-0.02862,0.701556,0.0334074
339,-0.02861,0.684853,0.0334074
340,-0.0286,0.71826,0.0334074
341,-0.02859,0.71826,0.0334074
342,-0.02858,0.71826,0.0334074
343,-0.02857,0.751667,0.0334074
344,-0.02856,0.751667,0.0334074
345,-0.02855,0.768371,0.0334074
346,-0.02854,0.768371,0.0334074
347,-0.02853,0.785075,0.0334074
348,-0.02852,0.785075,0.0334074
349,-0.02851,0.801779,0.0334074
350,-0.0285,0.785075,0.0334074
351,-0.02849,0.818482,0.0334074
352,-0.02848,0.835186,0.0334074
353,-0.02847,0.818482,0.0334074
354,-0.02846,0.85189,0.0334074
355,-0.02845,0.835186,0.0334074
356,-0.02844,0.868594,0.0334074
357,-0.02843,0.85189,0.0334074
358,-0.02842,0.885297,0.0334074
359,-0.02841,0.885297,0.0334074
360,-0.0284,0.902001,0.0334074
361,-0.02839,0.902001,0.0334074
362,-0.02838,0.918705,0.0334074
363,-0.02837,0.918705,0.0334074
364,-0.02836,0.935408,0.0334074
365,-0.02835,0.935408,0.0334074
366,-0.02834,0.935408,0.0334074
367,-0.02833,0.98552,0.0334074
368,-0.02832,0.952112,0.0334074
369,-0.02831,1.00222,0.0334074
370,-0.0283,0.98552,0.0334074
371,-0.02829,1.01893,0.0334074
372,-0.02828,1.01893,0.0334074
373,-0.02827,1.01893,0.0334074
374,-0.02826,1.03563,0.0334074
375,-0.02825,1.03563,0.0334074
376,-0.02824,1.03563,0.0334074
377,-0.02823,1.06904,0.0334074
378,-0.02822,1.06904,0.0334074
379,-0.02821,1.06904,0.0334074
380,-0.0282,1.06904,0.0334074
381,-0.02819,1.10245,0.0334074
382,-0.02818,1.08574,0.0334074
383,-0.02817,1.11915,0.0334074
384,-0.02816,1.10245,0.0334074
385,-0.02815,1.13585,0.0334074
386,-0.02814,1.13585,0.0334074
387,-0.02813,1.15256,0.0334074
388,-0.02812,1.15256,0.0334074
389,-0.02811,1.16926,0.0334074
390,-0.0281,1.16926,0.0334074
391,-0.02809,1.16926,0.0334074
392,-0.02808,1.20267,0.0334074
393,-0.02807,1.18596,0.0334074
394,-0.02806,1.23608,0.0334074
395,-0.02805,1.20267,0.0334074
396,-0.02804,1.25278,0.0334074
397,-0.02803,1.25278,0.0334074
398,-0.02802,1.25278,0.0334074
399,-0.02801,1.25278,0.0334074
400,-0.028,1.28619,0.0334074
401,-0.02799,1.28619,0.0334074
402,-0.02798,1.28619,0.0334074
403,-0.02797,1.30289,0.0334074
404,-0.02796,1.30289,0.0334074
405,-0.02795,1.30289,0.0334074
406,-0.02794,1.3363,0.0334074
407,-0.02793,1.3363,0.0334074
408,-0.02792,1.353,0.0334074
409,-0.02791,1.353,0.0334074
410,-0.0279,1.36971,0.0334074
411,-0.02789,1.36971,0.0334074
412,-0.02788,1.38641,0.0334074
413,-0.02787,1.38641,0.0334074
414,-0.02786,1.40311,0.0334074
415,-0.02785,1.40311,0.0334074
416,-0.02784,1.41982,0.0334074
417,-0.02783,1.41982,0.0334074
418,-0.02782,1.43652,0.0334074
419,-0.02781,1.43652,0.0334074
420,-0.0278,1.43652,0.0334074
421,-0.02779,1.43652,0.0334074
422,-0.02778,1.48663,0.0334074
423,-0.02777,1.48663,0.0334074
424,-0.02776,1.50333,0.0334074
425,-0.02775,1.50333,0.0334074
426,-0.02774,1.52004,0.0334074
427,-0.02773,1.52004,0.0334074
428,-0.02772,1.53674,0.0334074
429,-0.02771,1.53674,0.0334074
430,-0.0277,1.53674,0.0334074
431,-0.02769,1.55345,0.0334074
432,-0.02768,1.55345,0.0334074
433,-0.02767,1.55345,0.0334074
434,-0.02766,1.58685,0.0334074
435,-0.02765,1.58685,0.0334074
436,-0.02764,1.60356,0.0334074
437,-0.02763,1.60356,0.0334074
438,-0.02762,1.62026,0.0334074
439,-0.02761,1.62026,0.0334074
440,-0.0276,1.63696,0.0334074
441,-0.02759,1.63696,0.0334074
442,-0.02758,1.65367,0.0334074
443,-0.02757,1.65367,0.0334074
444,-0.02756,1.67037,0.0334074
445,-0.02755,1.67037,0.0334074
446,-0.02754,1.68708,0.0334074
447,-0.02753,1.68708,0.0334074
448,-0.02752,1.70378,0.0334074
449,-0.02751,1.70378,0.0334074
450,-0.0275,1.73719,0.0334074
451,-0.02749,1.75389,0.0334074
452,-0.02748,1.75389,0.0334074
453,-0.02747,1.75389,0.0334074
454,-0.02746,1.77059,0.0334074
455,-0.02745,1.7873,0.0334074
456,-0.02744,1.7873,0.0334074
457,-0.02743,1.7873,0.0334074
458,-0.02742,1.804,0.0334074
459,-0.02741,1.804,0.0334074
460,-0.0274,1.82071,0.0334074
461,-0.02739,1.83741,0.0334074
462,-0.02738,1.83741,0.0334074
463,-0.02737,1.85411,0.0334074
464,-0.02736,1.85411,0.0334074
465,-0.02735,1.87082,0.0334074
466,-0.02734,1.87082,0.0334074
467,-0.02733,1.88752,0.0334074
468,-0.02732,1.88752,0.0334074
469,-0.02731,1.90422,0.0334074
470,-0.0273,1.90422,0.0334074
471,-0.02729,1.92093,0.0334074
472,-0.02728,1.93763,0.0334074
473,-0.02727,1.93763,0.0334074
474,-0.02726,1.97104,0.0334074
475,-0.02725,1.97104,0.0334074
476,-0.02724,1.98774,0.0334074
477,-0.02723,1.98774,0.0334074
478,-0.02722,2.00445,0.0334074
479,-0.02721,2.00445,0.0334074
480,-0.0272,2.02115,0.0334074
481,-0.02719,2.02115,0.0334074
482,-0.02718,2.02115,0.0334074
483,-0.02717,2.03785,0.0334074
484,-0.02716,2.03785,0.0334074
485,-0.02715,2.05456,0.0334074
486,-0.02714,2.05456,0.0334074
487,-0.02713,2.07126,0.0334074
488,-0.02712,2.07126,0.0334074
489,-0.02711,2.10467,0.0334074
490,-0.0271,2.10467,0.0334074
491,-0.02709,2.10467,0.0334074
492,-0.02708,2.12137,0.0334074
493,-0.02707,2.12137,0.0334074
494,-0.02706,2.13808,0.0334074
495,-0.02705,2.13808,0.0334074
496,-0.02704,2.15478,-0.150333
497,-0.02703,2.15478,6.08015
498,-0.02702,2.15478,14.8162
499,-0.02701,2.18819,14.3652
500,-0.027,2.18819,14.4153
501,-0.02699,2.18819,14.3819
502,-0.02698,2.2216,14.3485
503,-0.02697,2.2383,14.3151
504,-0.02696,2.2383,14.2817
505,-0.02695,2.2383,14.265
506,-0.02694,2.255,14.2483
507,-0.02693,2.255,14.2316
508,-0.02692,2.27171,14.2483
509,-0.02691,2.27171,14.2149
510,-0.0269,2.28841,14.2149
511,-0.02689,2.28841,14.2149
512,-0.02688,2.28841,14.2149
513,-0.02687,2.32182,14.2149
514,-0.02686,2.32182,14.2149
515,-0.02685,2.32182,14.2149
516,-0.02684,2.33852,14.2149
517,-0.02683,2.33852,14.2149
518,-0.02682,2.35522,14.2149
519,-0.02681,2.35522,14.2149
520,-0.0268,2.38863,14.2149
521,-0.02679,2.37193,14.2149
522,-0.02678,2.38863,14.2149
523,-0.02677,2.38863,14.2483
524,-0.02676,2.40534,9.03671
525,-0.02675,2.40534,-0.768371
526,-0.02674,2.40534,-0.167037
527,-0.02673,2.43874,-0.200445
528,-0.02672,2.43874,-0.167037
529,-0.02671,2.43874,-0.13363
530,-0.0267,2.47215,-0.100222
531,-0.02669,2.47215,-0.0835186
532,-0.02668,2.48885,-0.0501112
533,-0.02667,2.50556,-0.0334074
534,-0.02666,2.50556,0
535,-0.02665,2.52226,0.0167037
536,-0.02664,2.52226,0.0167037
537,-0.02663,2.52226,0.0167037
538,-0.02662,2.55567,0.0334074
539,-0.02661,2.53897,0.0334074
540,-0.0266,2.57237,0.0334074
541,-0.02659,2.55567,0.0334074
542,-0.02658,2.57237,0.0167037
543,-0.02657,2.57237,0.0167037
544,-0.02656,2.57237,0
545,-0.02655,2.60578,0.0334074
546,-0.02654,2.58908,0.0167037
547,-0.02653,2.62248,0.0167037
548,-0.02652,2.60578,0.0334074
549,-0.02651,2.62248,0.0334074
550,-0.0265,2.62248,0.0334074
551,-0.02649,2.65589,0.0334074
552,-0.02648,2.63919,0.0334074
553,-0.02647,2.65589,0
554,-0.02646,2.65589,0.0167037
555,-0.02645,2.6893,0.0167037
556,-0.02644,2.6726,0.0167037
557,-0.02643,2.72271,0.0167037
558,-0.02642,2.72271,0.0334074
559,-0.02641,2.72271,0.0334074
560,-0.0264,2.75611,0.0334074
561,-0.02639,2.73941,0.0334074
562,-0.02638,2.77282,0.0334074
563,-0.02637,2.75611,0.0334074
564,-0.02636,2.78952,0.0334074
565,-0.02635,2.77282,0.0334074
566,-0.02634,2.80623,0.0334074
567,-0.02633,2.78952,0.0334074
568,-0.02632,2.82293,0.0334074
569,-0.02631,2.80623,0.0334074
570,-0.0263,2.80623,0.0334074
571,-0.02629,2.83963,0.0167037
572,-0.02628,2.82293,0.0167037
573,-0.02627,2.85634,0.0167037
574,-0.02626,2.83963,0
575,-0.02625,2.87304,0.0334074
576,-0.02624,2.87304,0.0334074
577,-0.02623,2.87304,0.0334074
578,-0.02622,2.90645,0.0334074
579,-0.02621,2.88974,0.0334074
580,-0.0262,2.92315,0.0334074
581,-0.02619,2.92315,0.0334074
582,-0.02618,2.92315,0.0334074
583,-0.02617,2.95656,0.0334074
584,-0.02616,2.95656,0.0334074
585,-0.02615,2.95656,0.0334074
586,-0.02614,2.98997,0.0334074
587,-0.02613,2.97326,0.0334074
588,-0.02612,3.00667,0.0334074
589,-0.02611,2.98997,0.0334074
590,-0.0261,3.02337,0.0334074
591,-0.02609,3.00667,0.0334074
592,-0.02608,3.04008,0.0334074
593,-0.02607,3.02337,0.0334074
594,-0.02606,3.04008,0.0334074
595,-0.02605,3.04008,0.0334074
596,-0.02604,3.05678,0.0334074
597,-0.02603,3.05678,0.0334074
598,-0.02602,3.07348,0.0334074
599,-0.02601,3.07348,0.0334074
600,-0.026,3.09019,0.0334074
601,-0.02599,3.09019,0.0334074
602,-0.02598,3.1236,0.0334074
603,-0.02597,3.1236,0.0334074
604,-0.02596,3.1236,0.0334074
605,-0.02595,3.1403,0.0334074
606,-0.02594,3.1403,0.0334074
607,-0.02593,3.157,0.0334074
608,-0.02592,3.157,0.0334074
609,-0.02591,3.157,0.0334074
610,-0.0259,3.20711,0.0334074
611,-0.02589,3.17371,0.0334074
612,-0.02588,3.22382,0.0334074
613,-0.02587,3.20711,0.0334074
614,-0.02586,3.24052,0.0334074
615,-0.02585,3.22382,0.0334074
616,-0.02584,3.25723,0.0334074
617,-0.02583,3.24052,0.0334074
618,-0.02582,3.27393,0.0334074
619,-0.02581,3.25723,0.0334074
620,-0.0258,3.29063,0.0334074
621,-0.02579,3.27393,0.0334074
622,-0.02578,3.30734,0.0334074
623,-0.02577,3.29063,0.0334074
624,-0.02576,3.32404,0.0334074
625,-0.02575,3.32404,0.0334074
626,-0.02574,3.32404,0.0334074
627,-0.02573,3.34074,0.0334074
628,-0.02572,3.34074,0.0334074
629,-0.02571,3.35745,0.0334074
630,-0.0257,3.35745,0.0334074
631,-0.02569,3.37415,0.0334074
632,-0.02568,3.37415,0.0334074
633,-0.02567,3.37415,0.0334074
634,-0.02566,3.40756,0.0334074
635,-0.02565,3.39086,0.0334074
636,-0.02564,3.42426,0.0334074
637,-0.02563,3.40756,0.0334074
638,-0.02562,3.45767,0.0334074
