Mesures/Data/inNE_4ms_5v_m4.csv

;Scopy version,f4beeb1
;Exported on,Wednesday May 15/05/2024
;Device,M2K
;Nr of samples,6400
;Sample rate,100000
;Tool,Oscilloscope
;Additional Information,
Sample,Time(S),CH1(V)
0,-0.032,9.23716
1,-0.03199,9.23716
2,-0.03198,9.23716
3,-0.03197,9.23716
4,-0.03196,9.23716
5,-0.03195,9.23716
6,-0.03194,9.23716
7,-0.03193,9.23716
8,-0.03192,9.23716
9,-0.03191,9.23716
10,-0.0319,9.23716
11,-0.03189,9.23716
12,-0.03188,9.23716
13,-0.03187,9.23716
14,-0.03186,9.23716
15,-0.03185,9.23716
16,-0.03184,9.23716
17,-0.03183,9.23716
18,-0.03182,9.23716
19,-0.03181,9.23716
20,-0.0318,9.23716
21,-0.03179,9.23716
22,-0.03178,9.23716
23,-0.03177,9.23716
24,-0.03176,9.23716
25,-0.03175,9.23716
26,-0.03174,9.23716
27,-0.03173,9.23716
28,-0.03172,9.23716
29,-0.03171,9.23716
30,-0.0317,9.23716
31,-0.03169,9.23716
32,-0.03168,9.23716
33,-0.03167,9.23716
34,-0.03166,9.23716
35,-0.03165,9.23716
36,-0.03164,9.23716
37,-0.03163,9.23716
38,-0.03162,9.23716
39,-0.03161,9.23716
40,-0.0316,9.23716
41,-0.03159,9.23716
42,-0.03158,9.23716
43,-0.03157,9.23716
44,-0.03156,9.23716
45,-0.03155,9.23716
46,-0.03154,9.23716
47,-0.03153,9.23716
48,-0.03152,9.23716
49,-0.03151,9.23716
50,-0.0315,9.23716
51,-0.03149,9.22045
52,-0.03148,9.23716
53,-0.03147,9.22045
54,-0.03146,9.23716
55,-0.03145,9.22045
56,-0.03144,9.22045
57,-0.03143,9.22045
58,-0.03142,9.25386
59,-0.03141,9.20375
60,-0.0314,9.25386
61,-0.03139,9.20375
62,-0.03138,9.25386
63,-0.03137,9.22045
64,-0.03136,9.23716
65,-0.03135,9.23716
66,-0.03134,9.23716
67,-0.03133,9.20375
68,-0.03132,9.23716
69,-0.03131,9.22045
70,-0.0313,9.22045
71,-0.03129,9.23716
72,-0.03128,9.23716
73,-0.03127,9.22045
74,-0.03126,9.25386
75,-0.03125,9.22045
76,-0.03124,9.22045
77,-0.03123,9.23716
78,-0.03122,9.23716
79,-0.03121,9.23716
80,-0.0312,9.23716
81,-0.03119,9.22045
82,-0.03118,9.22045
83,-0.03117,9.22045
84,-0.03116,9.22045
85,-0.03115,9.22045
86,-0.03114,9.22045
87,-0.03113,9.22045
88,-0.03112,9.23716
89,-0.03111,9.23716
90,-0.0311,9.23716
91,-0.03109,9.22045
92,-0.03108,9.22045
93,-0.03107,9.25386
94,-0.03106,9.22045
95,-0.03105,9.22045
96,-0.03104,9.22045
97,-0.03103,9.22045
98,-0.03102,9.22045
99,-0.03101,9.22045
100,-0.031,9.22045
101,-0.03099,9.23716
102,-0.03098,9.23716
103,-0.03097,9.22045
104,-0.03096,9.22045
105,-0.03095,9.22045
106,-0.03094,9.22045
107,-0.03093,9.22045
108,-0.03092,9.22045
109,-0.03091,9.22045
110,-0.0309,9.22045
111,-0.03089,9.25386
112,-0.03088,9.22045
113,-0.03087,9.22045
114,-0.03086,9.22045
115,-0.03085,9.22045
116,-0.03084,9.22045
117,-0.03083,9.23716
118,-0.03082,9.22045
119,-0.03081,9.22045
120,-0.0308,9.22045
121,-0.03079,9.22045
122,-0.03078,9.22045
123,-0.03077,9.22045
124,-0.03076,9.22045
125,-0.03075,9.22045
126,-0.03074,9.22045
127,-0.03073,9.22045
128,-0.03072,9.22045
129,-0.03071,9.22045
130,-0.0307,9.22045
131,-0.03069,9.22045
132,-0.03068,9.22045
133,-0.03067,9.22045
134,-0.03066,9.22045
135,-0.03065,9.22045
136,-0.03064,9.22045
137,-0.03063,9.22045
138,-0.03062,9.22045
139,-0.03061,9.22045
140,-0.0306,9.22045
141,-0.03059,9.22045
142,-0.03058,9.22045
143,-0.03057,9.22045
144,-0.03056,9.22045
145,-0.03055,9.22045
146,-0.03054,9.13694
147,-0.03053,9.38749
148,-0.03052,2.82293
149,-0.03051,0.217148
150,-0.0305,-0.0334074
151,-0.03049,-0.0501112
152,-0.03048,0
153,-0.03047,0.0167037
154,-0.03046,0.0334074
155,-0.03045,0.0668149
156,-0.03044,0.0835186
157,-0.03043,0.0668149
158,-0.03042,0.100222
159,-0.03041,0.100222
160,-0.0304,0.100222
161,-0.03039,0.100222
162,-0.03038,0.0668149
163,-0.03037,-0.0501112
164,-0.03036,-0.0668149
165,-0.03035,-0.0668149
166,-0.03034,-0.0668149
167,-0.03033,-0.0668149
168,-0.03032,-0.0668149
169,-0.03031,-0.0668149
170,-0.0303,-0.0668149
171,-0.03029,-0.0668149
172,-0.03028,-0.0668149
173,-0.03027,-0.0668149
174,-0.03026,-0.0835186
175,-0.03025,-0.0835186
176,-0.03024,-0.0668149
177,-0.03023,-0.0668149
178,-0.03022,-0.0668149
179,-0.03021,-0.0668149
180,-0.0302,-0.0668149
181,-0.03019,-0.0668149
182,-0.03018,-0.0668149
183,-0.03017,-0.0668149
184,-0.03016,-0.0668149
185,-0.03015,-0.0668149
186,-0.03014,-0.0668149
187,-0.03013,-0.0668149
188,-0.03012,-0.0668149
189,-0.03011,-0.0668149
190,-0.0301,-0.0668149
191,-0.03009,-0.0668149
192,-0.03008,-0.0668149
193,-0.03007,-0.0668149
194,-0.03006,-0.0668149
195,-0.03005,-0.0668149
196,-0.03004,-0.0668149
197,-0.03003,-0.0668149
198,-0.03002,-0.0668149
199,-0.03001,-0.0668149
200,-0.03,-0.0668149
201,-0.02999,-0.0668149
202,-0.02998,-0.0668149
203,-0.02997,-0.0668149
204,-0.02996,-0.0668149
205,-0.02995,-0.0668149
206,-0.02994,-0.0668149
207,-0.02993,-0.0668149
208,-0.02992,-0.0668149
209,-0.02991,-0.0668149
210,-0.0299,-0.0668149
211,-0.02989,-0.0668149
212,-0.02988,-0.0668149
213,-0.02987,-0.0668149
214,-0.02986,-0.0668149
215,-0.02985,-0.0668149
216,-0.02984,-0.0668149
217,-0.02983,-0.0668149
218,-0.02982,-0.0668149
219,-0.02981,-0.0668149
220,-0.0298,-0.0668149
221,-0.02979,-0.0668149
222,-0.02978,-0.0668149
223,-0.02977,-0.0668149
224,-0.02976,-0.0668149
225,-0.02975,-0.0668149
226,-0.02974,-0.0668149
227,-0.02973,-0.0668149
228,-0.02972,-0.0668149
229,-0.02971,-0.0668149
230,-0.0297,-0.0668149
231,-0.02969,-0.0668149
232,-0.02968,-0.0668149
233,-0.02967,-0.0668149
234,-0.02966,-0.0668149
235,-0.02965,-0.0668149
236,-0.02964,-0.0668149
237,-0.02963,-0.0668149
238,-0.02962,-0.0668149
239,-0.02961,-0.0668149
240,-0.0296,-0.0668149
241,-0.02959,-0.0668149
242,-0.02958,-0.0668149
243,-0.02957,-0.0668149
244,-0.02956,-0.0668149
245,-0.02955,-0.0668149
246,-0.02954,-0.0668149
247,-0.02953,-0.0668149
248,-0.02952,-0.0668149
249,-0.02951,-0.0668149
250,-0.0295,-0.0668149
251,-0.02949,-0.0668149
252,-0.02948,-0.0668149
253,-0.02947,-0.0668149
254,-0.02946,-0.0501112
255,-0.02945,-0.0668149
256,-0.02944,-0.0668149
257,-0.02943,-0.0668149
258,-0.02942,-0.0668149
259,-0.02941,-0.0668149
260,-0.0294,-0.0668149
261,-0.02939,-0.0668149
262,-0.02938,-0.0668149
263,-0.02937,-0.0668149
264,-0.02936,-0.0668149
265,-0.02935,-0.0668149
266,-0.02934,-0.0668149
267,-0.02933,-0.0668149
268,-0.02932,-0.0668149
269,-0.02931,-0.0668149
270,-0.0293,-0.0668149
271,-0.02929,-0.0668149
272,-0.02928,-0.0668149
273,-0.02927,-0.0668149
274,-0.02926,-0.0668149
275,-0.02925,-0.0668149
276,-0.02924,-0.0668149
277,-0.02923,-0.0668149
278,-0.02922,-0.0668149
279,-0.02921,-0.0668149
280,-0.0292,-0.0668149
281,-0.02919,-0.0668149
282,-0.02918,-0.0668149
283,-0.02917,-0.0668149
284,-0.02916,-0.0668149
285,-0.02915,-0.0501112
286,-0.02914,-0.0501112
287,-0.02913,-0.0334074
288,-0.02912,-0.0501112
289,-0.02911,-0.0501112
290,-0.0291,-0.0501112
291,-0.02909,-0.0501112
292,-0.02908,-0.0501112
293,-0.02907,-0.0334074
294,-0.02906,-0.0668149
295,-0.02905,-0.0668149
296,-0.02904,-0.0668149
297,-0.02903,-0.0668149
298,-0.02902,-0.0668149
299,-0.02901,-0.0668149
300,-0.029,-0.0668149
301,-0.02899,-0.0668149
302,-0.02898,-0.0668149
303,-0.02897,-0.0668149
304,-0.02896,-0.0668149
305,-0.02895,-0.0668149
306,-0.02894,-0.0668149
307,-0.02893,-0.0668149
308,-0.02892,-0.0668149
309,-0.02891,-0.0668149
310,-0.0289,-0.0668149
311,-0.02889,-0.0668149
312,-0.02888,-0.0668149
313,-0.02887,-0.0668149
314,-0.02886,-0.0668149
315,-0.02885,-0.0668149
316,-0.02884,-0.0668149
317,-0.02883,-0.0668149
318,-0.02882,-0.0668149
319,-0.02881,-0.0668149
320,-0.0288,-0.0668149
321,-0.02879,-0.0668149
322,-0.02878,-0.0668149
323,-0.02877,-0.0668149
324,-0.02876,-0.0668149
325,-0.02875,-0.0668149
326,-0.02874,-0.0668149
327,-0.02873,-0.0668149
328,-0.02872,-0.0668149
329,-0.02871,-0.0668149
330,-0.0287,-0.0668149
331,-0.02869,-0.0668149
332,-0.02868,-0.0668149
333,-0.02867,-0.0668149
334,-0.02866,-0.0668149
335,-0.02865,-0.0668149
336,-0.02864,-0.0668149
337,-0.02863,-0.0668149
338,-0.02862,-0.0668149
339,-0.02861,-0.0668149
340,-0.0286,-0.0668149
341,-0.02859,-0.0668149
342,-0.02858,-0.0668149
343,-0.02857,-0.0668149
344,-0.02856,-0.0668149
345,-0.02855,-0.0668149
346,-0.02854,-0.0668149
347,-0.02853,-0.0668149
348,-0.02852,-0.0668149
349,-0.02851,-0.0668149
350,-0.0285,-0.0668149
351,-0.02849,-0.0668149
352,-0.02848,-0.0668149
353,-0.02847,-0.0668149
354,-0.02846,-0.0668149
355,-0.02845,-0.0668149
356,-0.02844,-0.0668149
357,-0.02843,-0.0668149
358,-0.02842,-0.0668149
359,-0.02841,-0.0668149
360,-0.0284,-0.0668149
361,-0.02839,-0.0668149
362,-0.02838,-0.0668149
363,-0.02837,-0.0668149
364,-0.02836,-0.0668149
365,-0.02835,-0.0668149
366,-0.02834,-0.0668149
367,-0.02833,-0.0668149
368,-0.02832,-0.0668149
369,-0.02831,-0.0668149
370,-0.0283,-0.0668149
371,-0.02829,-0.0668149
372,-0.02828,-0.0668149
373,-0.02827,-0.0668149
374,-0.02826,-0.0668149
375,-0.02825,-0.0668149
376,-0.02824,-0.0668149
377,-0.02823,-0.0668149
378,-0.02822,-0.0668149
379,-0.02821,-0.0668149
380,-0.0282,-0.0668149
381,-0.02819,-0.0668149
382,-0.02818,-0.0668149
383,-0.02817,-0.0668149
384,-0.02816,-0.0668149
385,-0.02815,-0.0668149
386,-0.02814,-0.0668149
387,-0.02813,-0.0668149
388,-0.02812,-0.0668149
389,-0.02811,-0.0668149
390,-0.0281,-0.0668149
391,-0.02809,-0.0668149
392,-0.02808,-0.0668149
393,-0.02807,-0.0668149
394,-0.02806,-0.0668149
395,-0.02805,-0.0668149
396,-0.02804,-0.0668149
397,-0.02803,-0.0668149
398,-0.02802,-0.0668149
399,-0.02801,-0.0668149
400,-0.028,-0.0668149
401,-0.02799,-0.0668149
402,-0.02798,-0.0668149
403,-0.02797,-0.0668149
404,-0.02796,-0.0668149
405,-0.02795,-0.0668149
406,-0.02794,-0.0668149
407,-0.02793,-0.0668149
408,-0.02792,-0.0668149
409,-0.02791,-0.0668149
410,-0.0279,-0.0668149
411,-0.02789,-0.0668149
412,-0.02788,-0.0668149
413,-0.02787,-0.0668149
414,-0.02786,-0.0668149
415,-0.02785,-0.0668149
416,-0.02784,-0.0668149
417,-0.02783,-0.0668149
418,-0.02782,-0.0668149
419,-0.02781,-0.0668149
420,-0.0278,-0.0668149
421,-0.02779,-0.0668149
422,-0.02778,-0.0668149
423,-0.02777,-0.0668149
424,-0.02776,-0.0668149
425,-0.02775,-0.0668149
426,-0.02774,-0.0668149
427,-0.02773,-0.0668149
428,-0.02772,-0.0668149
429,-0.02771,-0.0668149
430,-0.0277,-0.0668149
431,-0.02769,-0.0668149
432,-0.02768,-0.0668149
433,-0.02767,-0.0501112
434,-0.02766,-0.0501112
435,-0.02765,-0.0334074
436,-0.02764,-0.0501112
437,-0.02763,-0.0668149
438,-0.02762,-0.0501112
439,-0.02761,-0.0501112
440,-0.0276,-0.0334074
441,-0.02759,-0.0668149
442,-0.02758,-0.0334074
443,-0.02757,-0.0501112
444,-0.02756,-0.0334074
445,-0.02755,-0.0668149
446,-0.02754,-0.0668149
447,-0.02753,-0.0668149
448,-0.02752,-0.0668149
449,-0.02751,-0.0668149
450,-0.0275,-0.0668149
451,-0.02749,-0.0668149
452,-0.02748,-0.0334074
453,-0.02747,-0.0668149
454,-0.02746,-0.0668149
455,-0.02745,-0.0668149
456,-0.02744,-0.0668149
457,-0.02743,-0.0668149
458,-0.02742,-0.0668149
459,-0.02741,-0.0668149
460,-0.0274,-0.0668149
461,-0.02739,-0.0668149
462,-0.02738,-0.0668149
463,-0.02737,-0.0668149
464,-0.02736,-0.0668149
465,-0.02735,-0.0668149
466,-0.02734,-0.0668149
467,-0.02733,-0.0668149
468,-0.02732,-0.0334074
469,-0.02731,-0.0501112
470,-0.0273,-0.0501112
471,-0.02729,-0.0334074
472,-0.02728,-0.0501112
473,-0.02727,-0.0501112
474,-0.02726,-0.0501112
475,-0.02725,-0.0501112
476,-0.02724,-0.0501112
477,-0.02723,-0.0334074
478,-0.02722,-0.0668149
479,-0.02721,-0.0334074
480,-0.0272,-0.0501112
481,-0.02719,-0.0501112
482,-0.02718,-0.0501112
483,-0.02717,-0.0501112
484,-0.02716,-0.0501112
485,-0.02715,-0.0668149
486,-0.02714,-0.0501112
487,-0.02713,-0.0334074
488,-0.02712,-0.0668149
489,-0.02711,-0.0668149
490,-0.0271,-0.0501112
491,-0.02709,-0.0501112
492,-0.02708,-0.0501112
493,-0.02707,-0.0501112
494,-0.02706,-0.0501112
495,-0.02705,-0.0501112
496,-0.02704,-0.0501112
497,-0.02703,-0.0501112
498,-0.02702,-0.0501112
499,-0.02701,-0.0501112
500,-0.027,-0.0501112
501,-0.02699,-0.0501112
502,-0.02698,-0.0501112
503,-0.02697,-0.0501112
504,-0.02696,-0.0501112
505,-0.02695,-0.0501112
506,-0.02694,-0.0501112
507,-0.02693,-0.0501112
508,-0.02692,-0.0501112
509,-0.02691,-0.0501112
510,-0.0269,-0.0501112
511,-0.02689,-0.0501112
512,-0.02688,-0.0501112
513,-0.02687,0
514,-0.02686,-0.0334074
515,-0.02685,0.0167037
516,-0.02684,0.0167037
517,-0.02683,0.0167037
518,-0.02682,0.0167037
519,-0.02681,0.0334074
520,-0.0268,0.0334074
521,-0.02679,0.0334074
522,-0.02678,0.0668149
523,-0.02677,0.0668149
524,-0.02676,0.0668149
525,-0.02675,0.0501112
526,-0.02674,0.0835186
527,-0.02673,0.0835186
528,-0.02672,0.100222
529,-0.02671,-0.26726
530,-0.0267,5.44541
531,-0.02669,9.48771
532,-0.02668,9.40419
533,-0.02667,9.40419
534,-0.02666,9.37079
535,-0.02665,9.32068
536,-0.02664,9.35408
537,-0.02663,9.30397
538,-0.02662,9.28727
539,-0.02661,9.27057
540,-0.0266,9.25386
541,-0.02659,9.25386
542,-0.02658,9.25386
543,-0.02657,9.25386
544,-0.02656,9.25386
545,-0.02655,9.25386
546,-0.02654,9.25386
547,-0.02653,9.25386
548,-0.02652,9.25386
549,-0.02651,9.25386
550,-0.0265,9.25386
551,-0.02649,9.25386
552,-0.02648,9.25386
553,-0.02647,9.25386
554,-0.02646,9.25386
555,-0.02645,9.27057
556,-0.02644,9.27057
557,-0.02643,9.27057
558,-0.02642,9.25386
559,-0.02641,9.25386
560,-0.0264,9.25386
561,-0.02639,9.25386
562,-0.02638,9.25386
563,-0.02637,9.25386
564,-0.02636,9.25386
565,-0.02635,9.25386
566,-0.02634,9.25386
567,-0.02633,9.25386
568,-0.02632,9.25386
569,-0.02631,9.25386
570,-0.0263,9.25386
571,-0.02629,9.25386
572,-0.02628,9.25386
573,-0.02627,9.25386
574,-0.02626,9.25386
575,-0.02625,9.25386
576,-0.02624,9.25386
577,-0.02623,9.25386
578,-0.02622,9.25386
579,-0.02621,9.25386
580,-0.0262,9.25386
581,-0.02619,9.25386
582,-0.02618,9.25386
583,-0.02617,9.27057
584,-0.02616,9.27057
585,-0.02615,9.27057
586,-0.02614,9.27057
587,-0.02613,9.27057
588,-0.02612,9.27057
589,-0.02611,9.25386
590,-0.0261,9.27057
591,-0.02609,9.27057
592,-0.02608,9.27057
593,-0.02607,9.27057
594,-0.02606,9.27057
595,-0.02605,9.28727
596,-0.02604,9.28727
597,-0.02603,9.28727
598,-0.02602,9.28727
599,-0.02601,9.28727
600,-0.026,9.28727
601,-0.02599,9.30397
602,-0.02598,9.30397
603,-0.02597,9.30397
604,-0.02596,9.30397
605,-0.02595,9.28727
606,-0.02594,9.28727
607,-0.02593,9.30397
608,-0.02592,9.30397
609,-0.02591,9.28727
610,-0.0259,9.28727
611,-0.02589,9.30397
612,-0.02588,9.27057
613,-0.02587,9.30397
614,-0.02586,9.28727
615,-0.02585,9.32068
616,-0.02584,9.28727
617,-0.02583,9.28727
618,-0.02582,9.30397
619,-0.02581,9.28727
620,-0.0258,9.28727
621,-0.02579,9.28727
622,-0.02578,9.28727
623,-0.02577,9.28727
624,-0.02576,9.28727
625,-0.02575,9.28727
626,-0.02574,9.28727
627,-0.02573,9.28727
628,-0.02572,9.28727
629,-0.02571,9.28727
630,-0.0257,9.28727
631,-0.02569,9.28727
632,-0.02568,9.28727
633,-0.02567,9.28727
634,-0.02566,9.28727
635,-0.02565,9.28727
636,-0.02564,9.28727
637,-0.02563,9.28727
638,-0.02562,9.28727
639,-0.02561,9.28727
640,-0.0256,9.28727
641,-0.02559,9.28727
642,-0.02558,9.28727
643,-0.02557,9.28727
644,-0.02556,9.28727
645,-0.02555,9.28727
646,-0.02554,9.28727
647,-0.02553,9.28727
648,-0.02552,9.28727
649,-0.02551,9.28727
650,-0.0255,9.28727
651,-0.02549,9.28727
652,-0.02548,9.28727
653,-0.02547,9.28727
654,-0.02546,9.28727
655,-0.02545,9.28727
656,-0.02544,9.28727
657,-0.02543,9.28727
658,-0.02542,9.28727
659,-0.02541,9.28727
660,-0.0254,9.28727
661,-0.02539,9.28727
662,-0.02538,9.28727
663,-0.02537,9.28727
664,-0.02536,9.28727
665,-0.02535,9.28727
666,-0.02534,9.28727
667,-0.02533,9.28727
668,-0.02532,9.28727
669,-0.02531,9.28727
670,-0.0253,9.28727
671,-0.02529,9.28727
672,-0.02528,9.28727
673,-0.02527,9.28727
674,-0.02526,9.28727
675,-0.02525,9.28727
676,-0.02524,9.28727
677,-0.02523,9.28727
678,-0.02522,9.28727
679,-0.02521,9.28727
680,-0.0252,9.28727
681,-0.02519,9.28727
682,-0.02518,9.28727
683,-0.02517,9.28727
684,-0.02516,9.28727
685,-0.02515,9.28727
686,-0.02514,9.28727
687,-0.02513,9.28727
688,-0.02512,9.28727
689,-0.02511,9.28727
690,-0.0251,9.28727
691,-0.02509,9.28727
692,-0.02508,9.28727
693,-0.02507,9.28727
694,-0.02506,9.28727
695,-0.02505,9.28727
696,-0.02504,9.28727
697,-0.02503,9.28727
698,-0.02502,9.28727
699,-0.02501,9.28727
700,-0.025,9.28727
701,-0.02499,9.28727
702,-0.02498,9.28727
703,-0.02497,9.28727
704,-0.02496,9.28727
705,-0.02495,9.28727
706,-0.02494,9.28727
707,-0.02493,9.28727
708,-0.02492,9.28727
709,-0.02491,9.28727
710,-0.0249,9.28727
711,-0.02489,9.28727
712,-0.02488,9.28727
713,-0.02487,9.28727
714,-0.02486,9.28727
715,-0.02485,9.28727
716,-0.02484,9.28727
717,-0.02483,9.28727
718,-0.02482,9.28727
719,-0.02481,9.28727
720,-0.0248,9.28727
721,-0.02479,9.28727
722,-0.02478,9.28727
723,-0.02477,9.28727
724,-0.02476,9.28727
725,-0.02475,9.28727
726,-0.02474,9.28727
727,-0.02473,9.28727
728,-0.02472,9.28727
729,-0.02471,9.28727
730,-0.0247,9.28727
731,-0.02469,9.28727
732,-0.02468,9.28727
733,-0.02467,9.28727
734,-0.02466,9.28727
735,-0.02465,9.28727
736,-0.02464,9.28727
737,-0.02463,9.28727
738,-0.02462,9.28727
739,-0.02461,9.28727
740,-0.0246,9.28727
741,-0.02459,9.28727
742,-0.02458,9.28727
743,-0.02457,9.28727
744,-0.02456,9.28727
745,-0.02455,9.28727
746,-0.02454,9.28727
747,-0.02453,9.28727
748,-0.02452,9.28727
749,-0.02451,9.28727
750,-0.0245,9.28727
751,-0.02449,9.28727
752,-0.02448,9.28727
753,-0.02447,9.28727
754,-0.02446,9.28727
755,-0.02445,9.28727
756,-0.02444,9.28727
757,-0.02443,9.28727
758,-0.02442,9.28727
759,-0.02441,9.28727
760,-0.0244,9.28727
761,-0.02439,9.28727
762,-0.02438,9.28727
763,-0.02437,9.28727
764,-0.02436,9.28727
765,-0.02435,9.28727
766,-0.02434,9.28727
767,-0.02433,9.28727
768,-0.02432,9.28727
769,-0.02431,9.28727
770,-0.0243,9.28727
771,-0.02429,9.28727
772,-0.02428,9.28727
773,-0.02427,9.28727
774,-0.02426,9.28727
775,-0.02425,9.28727
776,-0.02424,9.28727
777,-0.02423,9.28727
778,-0.02422,9.28727
779,-0.02421,9.28727
780,-0.0242,9.28727
781,-0.02419,9.28727
782,-0.02418,9.28727
783,-0.02417,9.28727
784,-0.02416,9.27057
785,-0.02415,9.28727
786,-0.02414,9.28727
787,-0.02413,9.28727
788,-0.02412,9.28727
789,-0.02411,9.28727
790,-0.0241,9.28727
791,-0.02409,9.28727
792,-0.02408,9.28727
793,-0.02407,9.28727
794,-0.02406,9.28727
795,-0.02405,9.28727
796,-0.02404,9.28727
797,-0.02403,9.28727
798,-0.02402,9.28727
799,-0.02401,9.28727
800,-0.024,9.28727
801,-0.02399,9.28727
802,-0.02398,9.28727
803,-0.02397,9.28727
804,-0.02396,9.28727
805,-0.02395,9.28727
806,-0.02394,9.28727
807,-0.02393,9.28727
808,-0.02392,9.28727
809,-0.02391,9.27057
810,-0.0239,9.28727
811,-0.02389,9.27057
812,-0.02388,9.28727
813,-0.02387,9.28727
814,-0.02386,9.28727
815,-0.02385,9.28727
816,-0.02384,9.28727
817,-0.02383,9.28727
818,-0.02382,9.28727
819,-0.02381,9.28727
820,-0.0238,9.25386
821,-0.02379,9.28727
822,-0.02378,9.28727
823,-0.02377,9.28727
824,-0.02376,9.28727
825,-0.02375,9.28727
826,-0.02374,9.27057
827,-0.02373,9.27057
828,-0.02372,9.28727
829,-0.02371,9.27057
830,-0.0237,9.28727
831,-0.02369,9.27057
832,-0.02368,9.27057
833,-0.02367,9.27057
834,-0.02366,9.27057
835,-0.02365,9.27057
836,-0.02364,9.27057
837,-0.02363,9.27057
838,-0.02362,9.27057
839,-0.02361,9.27057
840,-0.0236,9.27057
841,-0.02359,9.27057
842,-0.02358,9.28727
843,-0.02357,9.25386
844,-0.02356,9.28727
845,-0.02355,9.27057
846,-0.02354,9.27057
847,-0.02353,9.27057
848,-0.02352,9.27057
849,-0.02351,9.27057
850,-0.0235,9.27057
851,-0.02349,9.27057
852,-0.02348,9.27057
853,-0.02347,9.27057
854,-0.02346,9.27057
855,-0.02345,9.27057
856,-0.02344,9.27057
857,-0.02343,9.27057
858,-0.02342,9.27057
859,-0.02341,9.27057
860,-0.0234,9.27057
861,-0.02339,9.27057
862,-0.02338,9.27057
863,-0.02337,9.27057
864,-0.02336,9.27057
865,-0.02335,9.27057
866,-0.02334,9.27057
867,-0.02333,9.27057
868,-0.02332,9.27057
869,-0.02331,9.27057
870,-0.0233,9.27057
871,-0.02329,9.27057
872,-0.02328,9.27057
873,-0.02327,9.27057
874,-0.02326,9.27057
875,-0.02325,9.27057
876,-0.02324,9.27057
877,-0.02323,9.27057
878,-0.02322,9.27057
879,-0.02321,9.27057
880,-0.0232,9.27057
881,-0.02319,9.27057
882,-0.02318,9.27057
883,-0.02317,9.27057
884,-0.02316,9.27057
885,-0.02315,9.27057
886,-0.02314,9.27057
887,-0.02313,9.27057
888,-0.02312,9.27057
889,-0.02311,9.27057
890,-0.0231,9.27057
891,-0.02309,9.27057
892,-0.02308,9.27057
893,-0.02307,9.27057
894,-0.02306,9.27057
895,-0.02305,9.27057
896,-0.02304,9.27057
897,-0.02303,9.27057
898,-0.02302,9.27057
899,-0.02301,9.27057
900,-0.023,9.27057
