Mesures/Data/inNE_4ms_5v_1m5.csv

;Scopy version,f4beeb1
;Exported on,Wednesday May 15/05/2024
;Device,M2K
;Nr of samples,6400
;Sample rate,100000
;Tool,Oscilloscope
;Additional Information,
Sample,Time(S),CH1(V)
0,-0.032,9.18705
1,-0.03199,9.18705
2,-0.03198,9.18705
3,-0.03197,9.18705
4,-0.03196,9.18705
5,-0.03195,9.18705
6,-0.03194,9.18705
7,-0.03193,9.18705
8,-0.03192,9.18705
9,-0.03191,9.18705
10,-0.0319,9.18705
11,-0.03189,9.18705
12,-0.03188,9.18705
13,-0.03187,9.18705
14,-0.03186,9.18705
15,-0.03185,9.18705
16,-0.03184,9.18705
17,-0.03183,9.18705
18,-0.03182,9.18705
19,-0.03181,9.18705
20,-0.0318,9.18705
21,-0.03179,9.18705
22,-0.03178,9.18705
23,-0.03177,9.18705
24,-0.03176,9.18705
25,-0.03175,9.18705
26,-0.03174,9.18705
27,-0.03173,9.18705
28,-0.03172,9.18705
29,-0.03171,9.18705
30,-0.0317,9.18705
31,-0.03169,9.18705
32,-0.03168,9.18705
33,-0.03167,9.18705
34,-0.03166,9.18705
35,-0.03165,9.18705
36,-0.03164,9.18705
37,-0.03163,9.18705
38,-0.03162,9.18705
39,-0.03161,9.18705
40,-0.0316,9.18705
41,-0.03159,9.18705
42,-0.03158,9.18705
43,-0.03157,9.18705
44,-0.03156,9.18705
45,-0.03155,9.18705
46,-0.03154,9.18705
47,-0.03153,9.18705
48,-0.03152,9.18705
49,-0.03151,9.18705
50,-0.0315,9.18705
51,-0.03149,9.18705
52,-0.03148,9.18705
53,-0.03147,9.18705
54,-0.03146,9.18705
55,-0.03145,9.18705
56,-0.03144,9.18705
57,-0.03143,9.18705
58,-0.03142,9.18705
59,-0.03141,9.18705
60,-0.0314,9.18705
61,-0.03139,9.18705
62,-0.03138,9.18705
63,-0.03137,9.18705
64,-0.03136,9.18705
65,-0.03135,9.18705
66,-0.03134,9.18705
67,-0.03133,9.18705
68,-0.03132,9.18705
69,-0.03131,9.18705
70,-0.0313,9.18705
71,-0.03129,9.18705
72,-0.03128,9.18705
73,-0.03127,9.18705
74,-0.03126,9.18705
75,-0.03125,9.18705
76,-0.03124,9.18705
77,-0.03123,9.18705
78,-0.03122,9.18705
79,-0.03121,9.18705
80,-0.0312,9.18705
81,-0.03119,9.18705
82,-0.03118,9.18705
83,-0.03117,9.18705
84,-0.03116,9.18705
85,-0.03115,9.18705
86,-0.03114,9.18705
87,-0.03113,9.18705
88,-0.03112,9.18705
89,-0.03111,9.18705
90,-0.0311,9.18705
91,-0.03109,9.18705
92,-0.03108,9.18705
93,-0.03107,9.18705
94,-0.03106,9.18705
95,-0.03105,9.18705
96,-0.03104,9.18705
97,-0.03103,9.18705
98,-0.03102,9.18705
99,-0.03101,9.18705
100,-0.031,9.18705
101,-0.03099,9.18705
102,-0.03098,9.18705
103,-0.03097,9.18705
104,-0.03096,9.18705
105,-0.03095,9.18705
106,-0.03094,9.18705
107,-0.03093,9.18705
108,-0.03092,9.18705
109,-0.03091,9.18705
110,-0.0309,9.18705
111,-0.03089,9.18705
112,-0.03088,9.18705
113,-0.03087,9.18705
114,-0.03086,9.18705
115,-0.03085,9.18705
116,-0.03084,9.18705
117,-0.03083,9.18705
118,-0.03082,9.18705
119,-0.03081,9.18705
120,-0.0308,9.18705
121,-0.03079,9.18705
122,-0.03078,9.18705
123,-0.03077,9.18705
124,-0.03076,9.18705
125,-0.03075,9.18705
126,-0.03074,9.18705
127,-0.03073,9.18705
128,-0.03072,9.18705
129,-0.03071,9.18705
130,-0.0307,9.18705
131,-0.03069,9.18705
132,-0.03068,9.18705
133,-0.03067,9.18705
134,-0.03066,9.18705
135,-0.03065,9.18705
136,-0.03064,9.18705
137,-0.03063,9.18705
138,-0.03062,9.18705
139,-0.03061,9.18705
140,-0.0306,9.18705
141,-0.03059,9.18705
142,-0.03058,9.17034
143,-0.03057,9.40419
144,-0.03056,5.17815
145,-0.03055,0.434297
146,-0.03054,-0.0334074
147,-0.03053,-0.0334074
148,-0.03052,-0.0334074
149,-0.03051,0
150,-0.0305,0.0334074
151,-0.03049,0.0501112
152,-0.03048,0.0668149
153,-0.03047,0.0668149
154,-0.03046,0.0668149
155,-0.03045,0.100222
156,-0.03044,0.0835186
157,-0.03043,0.0835186
158,-0.03042,0.0334074
159,-0.03041,-0.0501112
160,-0.0304,-0.0501112
161,-0.03039,-0.0501112
162,-0.03038,-0.0668149
163,-0.03037,-0.0668149
164,-0.03036,-0.0668149
165,-0.03035,-0.0668149
166,-0.03034,-0.0668149
167,-0.03033,-0.0668149
168,-0.03032,-0.0668149
169,-0.03031,-0.0668149
170,-0.0303,-0.0835186
171,-0.03029,-0.0835186
172,-0.03028,-0.0668149
173,-0.03027,-0.0668149
174,-0.03026,-0.0668149
175,-0.03025,-0.0668149
176,-0.03024,-0.0668149
177,-0.03023,-0.0668149
178,-0.03022,-0.0668149
179,-0.03021,-0.0668149
180,-0.0302,-0.0668149
181,-0.03019,-0.0668149
182,-0.03018,-0.0668149
183,-0.03017,-0.0668149
184,-0.03016,-0.0668149
185,-0.03015,-0.0668149
186,-0.03014,-0.0668149
187,-0.03013,-0.0668149
188,-0.03012,-0.0668149
189,-0.03011,-0.0668149
190,-0.0301,-0.0668149
191,-0.03009,-0.0668149
192,-0.03008,-0.0668149
193,-0.03007,-0.0668149
194,-0.03006,-0.0668149
195,-0.03005,-0.0668149
196,-0.03004,-0.0668149
197,-0.03003,-0.0668149
198,-0.03002,-0.0668149
199,-0.03001,-0.0668149
200,-0.03,-0.0668149
201,-0.02999,-0.0668149
202,-0.02998,-0.0668149
203,-0.02997,-0.0668149
204,-0.02996,-0.0668149
205,-0.02995,-0.0668149
206,-0.02994,-0.0668149
207,-0.02993,-0.0668149
208,-0.02992,-0.0668149
209,-0.02991,-0.0668149
210,-0.0299,-0.0668149
211,-0.02989,-0.0668149
212,-0.02988,-0.0668149
213,-0.02987,-0.0668149
214,-0.02986,-0.0668149
215,-0.02985,-0.0668149
216,-0.02984,-0.0668149
217,-0.02983,-0.0668149
218,-0.02982,-0.0668149
219,-0.02981,-0.0668149
220,-0.0298,-0.0668149
221,-0.02979,-0.0668149
222,-0.02978,-0.0668149
223,-0.02977,-0.0668149
224,-0.02976,-0.0668149
225,-0.02975,-0.0668149
226,-0.02974,-0.0668149
227,-0.02973,-0.0668149
228,-0.02972,-0.0668149
229,-0.02971,-0.0668149
230,-0.0297,-0.0668149
231,-0.02969,-0.0668149
232,-0.02968,-0.0668149
233,-0.02967,-0.0668149
234,-0.02966,-0.0668149
235,-0.02965,-0.0668149
236,-0.02964,-0.0668149
237,-0.02963,-0.0668149
238,-0.02962,-0.0668149
239,-0.02961,-0.0668149
240,-0.0296,-0.0668149
241,-0.02959,-0.0668149
242,-0.02958,-0.0668149
243,-0.02957,-0.0668149
244,-0.02956,-0.0668149
245,-0.02955,-0.0668149
246,-0.02954,-0.0668149
247,-0.02953,-0.0668149
248,-0.02952,-0.0668149
249,-0.02951,-0.0668149
250,-0.0295,-0.0668149
251,-0.02949,-0.0668149
252,-0.02948,-0.0668149
253,-0.02947,-0.0668149
254,-0.02946,-0.0668149
255,-0.02945,-0.0668149
256,-0.02944,-0.0668149
257,-0.02943,-0.0668149
258,-0.02942,-0.0668149
259,-0.02941,-0.0668149
260,-0.0294,-0.0668149
261,-0.02939,-0.0668149
262,-0.02938,-0.0668149
263,-0.02937,-0.0668149
264,-0.02936,-0.0668149
265,-0.02935,-0.0668149
266,-0.02934,-0.0668149
267,-0.02933,-0.0668149
268,-0.02932,-0.0668149
269,-0.02931,-0.0668149
270,-0.0293,-0.0668149
271,-0.02929,-0.0668149
272,-0.02928,-0.0668149
273,-0.02927,-0.0668149
274,-0.02926,-0.0668149
275,-0.02925,-0.0668149
276,-0.02924,-0.0668149
277,-0.02923,-0.0668149
278,-0.02922,-0.0668149
279,-0.02921,-0.0668149
280,-0.0292,-0.0668149
281,-0.02919,-0.0668149
282,-0.02918,-0.0668149
283,-0.02917,-0.0668149
284,-0.02916,-0.0668149
285,-0.02915,-0.0668149
286,-0.02914,-0.0668149
287,-0.02913,-0.0668149
288,-0.02912,-0.0668149
289,-0.02911,-0.0668149
290,-0.0291,-0.0668149
291,-0.02909,-0.0668149
292,-0.02908,-0.0668149
293,-0.02907,-0.0668149
294,-0.02906,-0.0668149
295,-0.02905,-0.0668149
296,-0.02904,-0.0668149
297,-0.02903,-0.0668149
298,-0.02902,-0.0668149
299,-0.02901,-0.0668149
300,-0.029,-0.0668149
301,-0.02899,-0.0668149
302,-0.02898,-0.0668149
303,-0.02897,-0.0668149
304,-0.02896,-0.0668149
305,-0.02895,-0.0668149
306,-0.02894,-0.0668149
307,-0.02893,-0.0668149
308,-0.02892,-0.0668149
309,-0.02891,-0.0668149
310,-0.0289,-0.0668149
311,-0.02889,-0.0668149
312,-0.02888,-0.0668149
313,-0.02887,-0.0668149
314,-0.02886,-0.0668149
315,-0.02885,-0.0668149
316,-0.02884,-0.0668149
317,-0.02883,-0.0668149
318,-0.02882,-0.0668149
319,-0.02881,-0.0668149
320,-0.0288,-0.0668149
321,-0.02879,-0.0668149
322,-0.02878,-0.0668149
323,-0.02877,-0.0668149
324,-0.02876,-0.0668149
325,-0.02875,-0.0668149
326,-0.02874,-0.0668149
327,-0.02873,-0.0668149
328,-0.02872,-0.0668149
329,-0.02871,-0.0668149
330,-0.0287,-0.0668149
331,-0.02869,-0.0668149
332,-0.02868,-0.0668149
333,-0.02867,-0.0668149
334,-0.02866,-0.0668149
335,-0.02865,-0.0668149
336,-0.02864,-0.0668149
337,-0.02863,-0.0668149
338,-0.02862,-0.0668149
339,-0.02861,-0.0668149
340,-0.0286,-0.0668149
341,-0.02859,-0.0668149
342,-0.02858,-0.0668149
343,-0.02857,-0.0668149
344,-0.02856,-0.0668149
345,-0.02855,-0.0668149
346,-0.02854,-0.0668149
347,-0.02853,-0.0668149
348,-0.02852,-0.0668149
349,-0.02851,-0.0668149
350,-0.0285,-0.0668149
351,-0.02849,-0.0668149
352,-0.02848,-0.0668149
353,-0.02847,-0.0668149
354,-0.02846,-0.0668149
355,-0.02845,-0.0668149
356,-0.02844,-0.0668149
357,-0.02843,-0.0668149
358,-0.02842,-0.0668149
359,-0.02841,-0.0668149
360,-0.0284,-0.0668149
361,-0.02839,-0.0668149
362,-0.02838,-0.0668149
363,-0.02837,-0.0668149
364,-0.02836,-0.0668149
365,-0.02835,-0.0668149
366,-0.02834,-0.0668149
367,-0.02833,-0.0668149
368,-0.02832,-0.0668149
369,-0.02831,-0.0668149
370,-0.0283,-0.0668149
371,-0.02829,-0.0668149
372,-0.02828,-0.0668149
373,-0.02827,-0.0668149
374,-0.02826,-0.0668149
375,-0.02825,-0.0668149
376,-0.02824,-0.0668149
377,-0.02823,-0.0668149
378,-0.02822,-0.0668149
379,-0.02821,-0.0668149
380,-0.0282,-0.0668149
381,-0.02819,-0.0668149
382,-0.02818,-0.0668149
383,-0.02817,-0.0668149
384,-0.02816,-0.0668149
385,-0.02815,-0.0668149
386,-0.02814,-0.0668149
387,-0.02813,-0.0668149
388,-0.02812,-0.0668149
389,-0.02811,-0.0668149
390,-0.0281,-0.0668149
391,-0.02809,-0.0668149
392,-0.02808,-0.0668149
393,-0.02807,-0.0668149
394,-0.02806,-0.0668149
395,-0.02805,-0.0668149
396,-0.02804,-0.0668149
397,-0.02803,-0.0668149
398,-0.02802,-0.0668149
399,-0.02801,-0.0668149
400,-0.028,-0.0668149
401,-0.02799,-0.0668149
402,-0.02798,-0.0668149
403,-0.02797,-0.0668149
404,-0.02796,-0.0668149
405,-0.02795,-0.0668149
406,-0.02794,-0.0668149
407,-0.02793,-0.0668149
408,-0.02792,-0.0668149
409,-0.02791,-0.0668149
410,-0.0279,-0.0668149
411,-0.02789,-0.0668149
412,-0.02788,-0.0668149
413,-0.02787,-0.0668149
414,-0.02786,-0.0668149
415,-0.02785,-0.0668149
416,-0.02784,-0.0668149
417,-0.02783,-0.0668149
418,-0.02782,-0.0668149
419,-0.02781,-0.0668149
420,-0.0278,-0.0668149
421,-0.02779,-0.0668149
422,-0.02778,-0.0668149
423,-0.02777,-0.0668149
424,-0.02776,-0.0668149
425,-0.02775,-0.0668149
426,-0.02774,-0.0668149
427,-0.02773,-0.0668149
428,-0.02772,-0.0668149
429,-0.02771,-0.0668149
430,-0.0277,-0.0668149
431,-0.02769,-0.0668149
432,-0.02768,-0.0668149
433,-0.02767,-0.0668149
434,-0.02766,-0.0668149
435,-0.02765,-0.0668149
436,-0.02764,-0.0668149
437,-0.02763,-0.0668149
438,-0.02762,-0.0668149
439,-0.02761,-0.0668149
440,-0.0276,-0.0668149
441,-0.02759,-0.0668149
442,-0.02758,-0.0668149
443,-0.02757,-0.0668149
444,-0.02756,-0.0668149
445,-0.02755,-0.0668149
446,-0.02754,-0.0668149
447,-0.02753,-0.0668149
448,-0.02752,-0.0668149
449,-0.02751,-0.0668149
450,-0.0275,-0.0668149
451,-0.02749,-0.0668149
452,-0.02748,-0.0668149
453,-0.02747,-0.0668149
454,-0.02746,-0.0668149
455,-0.02745,-0.0668149
456,-0.02744,-0.0334074
457,-0.02743,-0.0501112
458,-0.02742,-0.0334074
459,-0.02741,-0.0668149
460,-0.0274,-0.0668149
461,-0.02739,-0.0668149
462,-0.02738,-0.0668149
463,-0.02737,-0.0668149
464,-0.02736,-0.0668149
465,-0.02735,-0.0668149
466,-0.02734,-0.0668149
467,-0.02733,-0.0668149
468,-0.02732,-0.0668149
469,-0.02731,-0.0668149
470,-0.0273,-0.0668149
471,-0.02729,-0.0668149
472,-0.02728,-0.0668149
473,-0.02727,-0.0668149
474,-0.02726,-0.0668149
475,-0.02725,-0.0668149
476,-0.02724,-0.0668149
477,-0.02723,-0.0668149
478,-0.02722,-0.0668149
479,-0.02721,-0.0668149
480,-0.0272,-0.0668149
481,-0.02719,-0.0668149
482,-0.02718,-0.0668149
483,-0.02717,-0.0668149
484,-0.02716,-0.0668149
485,-0.02715,-0.0668149
486,-0.02714,-0.0668149
487,-0.02713,-0.0668149
488,-0.02712,-0.0668149
489,-0.02711,-0.0668149
490,-0.0271,-0.0668149
491,-0.02709,-0.0668149
492,-0.02708,-0.0668149
493,-0.02707,-0.0668149
494,-0.02706,-0.0668149
495,-0.02705,-0.0668149
496,-0.02704,-0.0668149
497,-0.02703,-0.0668149
498,-0.02702,-0.0668149
499,-0.02701,-0.0668149
500,-0.027,-0.0668149
501,-0.02699,-0.0501112
502,-0.02698,-0.0501112
503,-0.02697,-0.0501112
504,-0.02696,-0.0501112
505,-0.02695,0
506,-0.02694,0
507,-0.02693,0
508,-0.02692,0
509,-0.02691,0.0167037
510,-0.0269,0.0167037
511,-0.02689,0.0167037
512,-0.02688,0.0501112
513,-0.02687,0.0334074
514,-0.02686,0.0668149
515,-0.02685,0.0668149
516,-0.02684,0.0501112
517,-0.02683,0.0835186
518,-0.02682,0.0835186
519,-0.02681,0.0835186
520,-0.0268,0.0835186
521,-0.02679,0.0835186
522,-0.02678,0.0835186
523,-0.02677,0.100222
524,-0.02676,0.100222
525,-0.02675,0.100222
526,-0.02674,0.100222
527,-0.02673,0.100222
528,-0.02672,0.100222
529,-0.02671,0.100222
530,-0.0267,0.100222
531,-0.02669,0.100222
532,-0.02668,0.100222
533,-0.02667,0.100222
534,-0.02666,0.100222
535,-0.02665,0.0835186
536,-0.02664,0.116926
537,-0.02663,0.116926
538,-0.02662,0.116926
539,-0.02661,0.116926
540,-0.0266,0.116926
541,-0.02659,0.13363
542,-0.02658,0.13363
543,-0.02657,0.13363
544,-0.02656,0.13363
545,-0.02655,0.13363
546,-0.02654,0.13363
547,-0.02653,0.13363
548,-0.02652,0.13363
549,-0.02651,0.13363
550,-0.0265,0.13363
551,-0.02649,0.13363
552,-0.02648,0.13363
553,-0.02647,0.13363
554,-0.02646,0.13363
555,-0.02645,0.13363
556,-0.02644,0.13363
557,-0.02643,0.13363
558,-0.02642,0.13363
559,-0.02641,0.150333
560,-0.0264,0.13363
561,-0.02639,0.13363
562,-0.02638,0.150333
563,-0.02637,0.150333
564,-0.02636,0.150333
565,-0.02635,0.150333
566,-0.02634,0.150333
567,-0.02633,0.150333
568,-0.02632,0.150333
569,-0.02631,0.150333
570,-0.0263,0.150333
571,-0.02629,0.150333
572,-0.02628,0.150333
573,-0.02627,0.150333
574,-0.02626,0.150333
575,-0.02625,0.150333
576,-0.02624,0.150333
577,-0.02623,0.150333
578,-0.02622,0.150333
579,-0.02621,0.13363
580,-0.0262,0.167037
581,-0.02619,0.167037
582,-0.02618,0.167037
583,-0.02617,0.167037
584,-0.02616,0.167037
585,-0.02615,0.167037
586,-0.02614,0.167037
587,-0.02613,0.167037
588,-0.02612,0.167037
589,-0.02611,0.167037
590,-0.0261,0.167037
591,-0.02609,0.167037
592,-0.02608,0.167037
593,-0.02607,0.167037
594,-0.02606,0.167037
595,-0.02605,0.167037
596,-0.02604,0.167037
597,-0.02603,0.167037
598,-0.02602,0.167037
599,-0.02601,0.167037
600,-0.026,0.167037
601,-0.02599,0.167037
602,-0.02598,0.167037
603,-0.02597,0.167037
604,-0.02596,0.167037
605,-0.02595,0.167037
606,-0.02594,0.167037
607,-0.02593,0.167037
608,-0.02592,0.167037
609,-0.02591,0.167037
610,-0.0259,0.167037
611,-0.02589,0.167037
612,-0.02588,0.167037
613,-0.02587,0.167037
614,-0.02586,0.167037
615,-0.02585,0.167037
616,-0.02584,0.167037
617,-0.02583,0.167037
618,-0.02582,0.167037
619,-0.02581,0.183741
620,-0.0258,0.183741
621,-0.02579,0.183741
622,-0.02578,0.183741
623,-0.02577,0.183741
624,-0.02576,0.183741
625,-0.02575,0.183741
626,-0.02574,0.183741
627,-0.02573,0.183741
628,-0.02572,0.183741
629,-0.02571,0.183741
630,-0.0257,0.183741
631,-0.02569,0.183741
632,-0.02568,0.183741
633,-0.02567,0.183741
634,-0.02566,0.183741
635,-0.02565,0.183741
636,-0.02564,0.183741
637,-0.02563,0.183741
638,-0.02562,0.183741
639,-0.02561,0.183741
640,-0.0256,0.183741
641,-0.02559,0.183741
642,-0.02558,0.183741
643,-0.02557,0.183741
644,-0.02556,0.183741
645,-0.02555,0.183741
646,-0.02554,0.183741
647,-0.02553,0.183741
648,-0.02552,0.183741
649,-0.02551,0.183741
650,-0.0255,0.183741
651,-0.02549,0.183741
652,-0.02548,0.183741
653,-0.02547,0.183741
654,-0.02546,0.183741
655,-0.02545,0.200445
656,-0.02544,0.167037
657,-0.02543,0.200445
658,-0.02542,0.200445
659,-0.02541,0.200445
660,-0.0254,0.200445
661,-0.02539,0.200445
662,-0.02538,0.183741
663,-0.02537,0.183741
664,-0.02536,0.200445
665,-0.02535,0.200445
666,-0.02534,0.200445
667,-0.02533,0.200445
668,-0.02532,0.200445
669,-0.02531,0.200445
670,-0.0253,0.200445
671,-0.02529,0.200445
672,-0.02528,0.200445
673,-0.02527,0.200445
674,-0.02526,0.200445
675,-0.02525,0.200445
676,-0.02524,0.200445
677,-0.02523,0.200445
678,-0.02522,0.200445
679,-0.02521,0.200445
680,-0.0252,0.200445
681,-0.02519,0.200445
682,-0.02518,0.200445
683,-0.02517,0.200445
684,-0.02516,0.200445
685,-0.02515,0.200445
686,-0.02514,0.200445
687,-0.02513,0.200445
688,-0.02512,0.200445
689,-0.02511,0.200445
690,-0.0251,0.200445
691,-0.02509,0.200445
692,-0.02508,0.200445
693,-0.02507,0.200445
694,-0.02506,0.200445
695,-0.02505,0.200445
696,-0.02504,0.200445
697,-0.02503,0.200445
698,-0.02502,0.200445
699,-0.02501,0.200445
700,-0.025,0.200445
701,-0.02499,0.200445
702,-0.02498,0.200445
703,-0.02497,0.200445
704,-0.02496,0.200445
705,-0.02495,0.200445
706,-0.02494,0.200445
707,-0.02493,0.200445
708,-0.02492,0.200445
709,-0.02491,0.200445
710,-0.0249,0.200445
711,-0.02489,0.200445
712,-0.02488,0.200445
713,-0.02487,0.200445
714,-0.02486,0.200445
715,-0.02485,0.200445
716,-0.02484,0.200445
717,-0.02483,0.200445
718,-0.02482,0.200445
719,-0.02481,0.200445
720,-0.0248,0.200445
721,-0.02479,0.200445
722,-0.02478,0.200445
723,-0.02477,0.200445
724,-0.02476,0.200445
725,-0.02475,0.200445
726,-0.02474,0.200445
727,-0.02473,0.200445
728,-0.02472,0.200445
729,-0.02471,0.200445
730,-0.0247,0.183741
731,-0.02469,0.217148
732,-0.02468,0.217148
733,-0.02467,0.217148
734,-0.02466,0.217148
735,-0.02465,0.217148
736,-0.02464,0.217148
737,-0.02463,0.217148
738,-0.02462,0.217148
739,-0.02461,0.217148
740,-0.0246,0.217148
741,-0.02459,0.217148
742,-0.02458,0.217148
743,-0.02457,0.217148
744,-0.02456,0.217148
745,-0.02455,0.217148
746,-0.02454,0.217148
747,-0.02453,0.217148
748,-0.02452,0.217148
749,-0.02451,0.217148
750,-0.0245,0.217148
751,-0.02449,0.217148
752,-0.02448,0.217148
753,-0.02447,0.217148
754,-0.02446,0.217148
755,-0.02445,0.217148
756,-0.02444,0.217148
757,-0.02443,0.217148
758,-0.02442,0.217148
759,-0.02441,0.217148
760,-0.0244,0.217148
761,-0.02439,0.217148
762,-0.02438,0.217148
763,-0.02437,0.217148
764,-0.02436,0.217148
765,-0.02435,0.217148
766,-0.02434,0.217148
767,-0.02433,0.217148
768,-0.02432,0.217148
769,-0.02431,0.217148
770,-0.0243,0.217148
771,-0.02429,0.217148
772,-0.02428,0.217148
773,-0.02427,0.217148
774,-0.02426,0.217148
775,-0.02425,0.217148
776,-0.02424,0.217148
777,-0.02423,0.217148
778,-0.02422,0.217148
779,-0.02421,0.217148
780,-0.0242,0.217148
781,-0.02419,0.217148
782,-0.02418,0.217148
783,-0.02417,0.217148
784,-0.02416,0.217148
785,-0.02415,0.217148
786,-0.02414,0.217148
787,-0.02413,0.217148
788,-0.02412,0.217148
789,-0.02411,0.217148
790,-0.0241,0.217148
791,-0.02409,0.217148
792,-0.02408,0.217148
793,-0.02407,0.217148
794,-0.02406,0.217148
795,-0.02405,0.217148
796,-0.02404,0.217148
797,-0.02403,0.217148
798,-0.02402,0.217148
799,-0.02401,0.217148
800,-0.024,0.217148
801,-0.02399,0.217148
802,-0.02398,0.217148
803,-0.02397,0.217148
804,-0.02396,0.217148
805,-0.02395,0.217148
806,-0.02394,0.217148
807,-0.02393,0.217148
808,-0.02392,0.217148
809,-0.02391,0.217148
810,-0.0239,0.217148
811,-0.02389,0.217148
812,-0.02388,0.217148
813,-0.02387,0.217148
814,-0.02386,0.217148
815,-0.02385,0.217148
816,-0.02384,0.217148
817,-0.02383,0.217148
818,-0.02382,0.217148
819,-0.02381,0.217148
820,-0.0238,0.200445
821,-0.02379,0.250556
822,-0.02378,0.200445
823,-0.02377,0.217148
824,-0.02376,0.217148
825,-0.02375,0.217148
826,-0.02374,0.200445
827,-0.02373,0.250556
828,-0.02372,0.217148
829,-0.02371,0.217148
830,-0.0237,0.250556
831,-0.02369,0.217148
832,-0.02368,0.217148
833,-0.02367,0.250556
834,-0.02366,0.250556
835,-0.02365,0.250556
836,-0.02364,0.250556
837,-0.02363,0.250556
838,-0.02362,0.250556
839,-0.02361,0.250556
840,-0.0236,0.250556
841,-0.02359,0.250556
842,-0.02358,0.250556
843,-0.02357,0.250556
844,-0.02356,0.250556
845,-0.02355,0.250556
846,-0.02354,0.250556
847,-0.02353,0.250556
848,-0.02352,0.250556
849,-0.02351,0.250556
850,-0.0235,0.250556
851,-0.02349,0.250556
852,-0.02348,0.250556
853,-0.02347,0.250556
854,-0.02346,0.250556
855,-0.02345,0.250556
856,-0.02344,0.250556
857,-0.02343,0.250556
858,-0.02342,0.250556
859,-0.02341,0.250556
860,-0.0234,0.250556
861,-0.02339,0.250556
862,-0.02338,0.250556
863,-0.02337,0.250556
864,-0.02336,0.250556
865,-0.02335,0.250556
866,-0.02334,0.250556
867,-0.02333,0.250556
868,-0.02332,0.250556
869,-0.02331,0.250556
870,-0.0233,0.250556
871,-0.02329,0.250556
872,-0.02328,0.250556
873,-0.02327,0.250556
874,-0.02326,0.250556
875,-0.02325,0.250556
876,-0.02324,0.250556
877,-0.02323,0.250556
878,-0.02322,0.250556
879,-0.02321,0.250556
880,-0.0232,0.250556
881,-0.02319,0.250556
882,-0.02318,0.250556
883,-0.02317,0.250556
884,-0.02316,0.250556
885,-0.02315,0.250556
