Mesures/Data/M1_4ms_5v.csv

;Scopy version,f4beeb1
;Exported on,Wednesday May 15/05/2024
;Device,M2K
;Nr of samples,6400
;Sample rate,100000
;Tool,Oscilloscope
;Additional Information,
Sample,Time(S),CH1(V)
0,-0.032,0.200445
1,-0.03199,0.200445
2,-0.03198,0.200445
3,-0.03197,0.200445
4,-0.03196,0.200445
5,-0.03195,0.200445
6,-0.03194,0.200445
7,-0.03193,0.200445
8,-0.03192,0.200445
9,-0.03191,0.200445
10,-0.0319,0.200445
11,-0.03189,0.200445
12,-0.03188,0.200445
13,-0.03187,0.200445
14,-0.03186,0.200445
15,-0.03185,0.200445
16,-0.03184,0.200445
17,-0.03183,0.200445
18,-0.03182,0.200445
19,-0.03181,0.183741
20,-0.0318,0.217148
21,-0.03179,0.217148
22,-0.03178,0.26726
23,-0.03177,1.67037
24,-0.03176,4.71045
25,-0.03175,4.52671
26,-0.03174,4.62693
27,-0.03173,4.72715
28,-0.03172,4.84408
29,-0.03171,4.99441
30,-0.0317,5.14475
31,-0.03169,5.32849
32,-0.03168,5.57904
33,-0.03167,5.86301
34,-0.03166,6.31401
35,-0.03165,7.56679
36,-0.03164,15.0166
37,-0.03163,14.3819
38,-0.03162,14.432
39,-0.03161,14.3819
40,-0.0316,14.3485
41,-0.03159,14.3151
42,-0.03158,14.2984
43,-0.03157,14.2817
44,-0.03156,14.2817
45,-0.03155,14.2316
46,-0.03154,14.2316
47,-0.03153,14.2316
48,-0.03152,14.2149
49,-0.03151,14.2149
50,-0.0315,14.2149
51,-0.03149,14.2149
52,-0.03148,14.2149
53,-0.03147,14.2149
54,-0.03146,14.2149
55,-0.03145,14.2149
56,-0.03144,14.2149
57,-0.03143,14.2149
58,-0.03142,14.2149
59,-0.03141,14.2149
60,-0.0314,14.2149
61,-0.03139,14.2149
62,-0.03138,14.2149
63,-0.03137,14.2149
64,-0.03136,14.2149
65,-0.03135,14.2149
66,-0.03134,14.2149
67,-0.03133,14.2149
68,-0.03132,14.2149
69,-0.03131,14.2149
70,-0.0313,14.2149
71,-0.03129,14.2149
72,-0.03128,14.2149
73,-0.03127,14.2149
74,-0.03126,14.2149
75,-0.03125,14.2149
76,-0.03124,14.2149
77,-0.03123,14.2149
78,-0.03122,14.2149
79,-0.03121,14.2149
80,-0.0312,14.2149
81,-0.03119,14.2149
82,-0.03118,14.2149
83,-0.03117,14.2149
84,-0.03116,14.2149
85,-0.03115,14.2149
86,-0.03114,14.2149
87,-0.03113,14.2149
88,-0.03112,14.2149
89,-0.03111,14.2149
90,-0.0311,14.2149
91,-0.03109,14.2149
92,-0.03108,14.2149
93,-0.03107,14.2149
94,-0.03106,14.2149
95,-0.03105,14.2149
96,-0.03104,14.2149
97,-0.03103,14.2149
98,-0.03102,14.2149
99,-0.03101,14.2149
100,-0.031,14.2149
101,-0.03099,14.2149
102,-0.03098,14.2149
103,-0.03097,14.2149
104,-0.03096,14.2149
105,-0.03095,14.2149
106,-0.03094,14.2149
107,-0.03093,14.2149
108,-0.03092,14.2149
109,-0.03091,14.2149
110,-0.0309,14.2149
111,-0.03089,14.2149
112,-0.03088,14.2149
113,-0.03087,14.2149
114,-0.03086,14.2149
115,-0.03085,14.2149
116,-0.03084,14.2149
117,-0.03083,14.2149
118,-0.03082,14.2149
119,-0.03081,14.2149
120,-0.0308,14.2149
121,-0.03079,14.2149
122,-0.03078,14.2149
123,-0.03077,14.2149
124,-0.03076,14.2149
125,-0.03075,14.2149
126,-0.03074,14.2149
127,-0.03073,14.2149
128,-0.03072,14.2149
129,-0.03071,14.2149
130,-0.0307,14.2149
131,-0.03069,14.2149
132,-0.03068,14.2149
133,-0.03067,14.2149
134,-0.03066,14.2149
135,-0.03065,14.2149
136,-0.03064,14.2149
137,-0.03063,14.2149
138,-0.03062,14.2149
139,-0.03061,14.2149
140,-0.0306,14.2149
141,-0.03059,14.2149
142,-0.03058,14.2149
143,-0.03057,14.2149
144,-0.03056,14.2149
145,-0.03055,14.2149
146,-0.03054,14.2149
147,-0.03053,14.2149
148,-0.03052,14.2149
149,-0.03051,14.2149
150,-0.0305,14.1648
151,-0.03049,14.9498
152,-0.03048,4.45989
153,-0.03047,-0.150333
154,-0.03046,-0.116926
155,-0.03045,-0.0668149
156,-0.03044,0
157,-0.03043,0.0334074
158,-0.03042,0.0835186
159,-0.03041,0.116926
160,-0.0304,0.13363
161,-0.03039,0.167037
162,-0.03038,0.183741
163,-0.03037,0.167037
164,-0.03036,0.200445
165,-0.03035,0.200445
166,-0.03034,0.200445
167,-0.03033,0.200445
168,-0.03032,0.217148
169,-0.03031,0.217148
170,-0.0303,0.217148
171,-0.03029,0.217148
172,-0.03028,0.217148
173,-0.03027,0.217148
174,-0.03026,0.200445
175,-0.03025,0.200445
176,-0.03024,0.200445
177,-0.03023,0.200445
178,-0.03022,0.200445
179,-0.03021,0.200445
180,-0.0302,0.200445
181,-0.03019,0.200445
182,-0.03018,0.200445
183,-0.03017,0.200445
184,-0.03016,0.200445
185,-0.03015,0.200445
186,-0.03014,0.200445
187,-0.03013,0.200445
188,-0.03012,0.217148
189,-0.03011,0.183741
190,-0.0301,0.200445
191,-0.03009,0.200445
192,-0.03008,0.200445
193,-0.03007,0.200445
194,-0.03006,0.200445
195,-0.03005,0.200445
196,-0.03004,0.200445
197,-0.03003,0.200445
198,-0.03002,0.200445
199,-0.03001,0.200445
200,-0.03,0.200445
201,-0.02999,0.200445
202,-0.02998,0.200445
203,-0.02997,0.200445
204,-0.02996,0.200445
205,-0.02995,0.200445
206,-0.02994,0.200445
207,-0.02993,0.200445
208,-0.02992,0.200445
209,-0.02991,0.200445
210,-0.0299,0.200445
211,-0.02989,0.200445
212,-0.02988,0.200445
213,-0.02987,0.200445
214,-0.02986,0.200445
215,-0.02985,0.200445
216,-0.02984,0.200445
217,-0.02983,0.200445
218,-0.02982,0.200445
219,-0.02981,0.200445
220,-0.0298,0.200445
221,-0.02979,0.200445
222,-0.02978,0.200445
223,-0.02977,0.200445
224,-0.02976,0.200445
225,-0.02975,0.200445
226,-0.02974,0.200445
227,-0.02973,0.200445
228,-0.02972,0.200445
229,-0.02971,0.200445
230,-0.0297,0.200445
231,-0.02969,0.200445
232,-0.02968,0.200445
233,-0.02967,0.200445
234,-0.02966,0.200445
235,-0.02965,0.200445
236,-0.02964,0.200445
237,-0.02963,0.200445
238,-0.02962,0.200445
239,-0.02961,0.200445
240,-0.0296,0.200445
241,-0.02959,0.200445
242,-0.02958,0.200445
243,-0.02957,0.200445
244,-0.02956,0.200445
245,-0.02955,0.200445
246,-0.02954,0.200445
247,-0.02953,0.200445
248,-0.02952,0.200445
249,-0.02951,0.200445
250,-0.0295,0.200445
251,-0.02949,0.200445
252,-0.02948,0.200445
253,-0.02947,0.200445
254,-0.02946,0.200445
255,-0.02945,0.200445
256,-0.02944,0.200445
257,-0.02943,0.200445
258,-0.02942,0.200445
259,-0.02941,0.200445
260,-0.0294,0.200445
261,-0.02939,0.200445
262,-0.02938,0.200445
263,-0.02937,0.200445
264,-0.02936,0.200445
265,-0.02935,0.200445
266,-0.02934,0.200445
267,-0.02933,0.200445
268,-0.02932,0.200445
269,-0.02931,0.200445
270,-0.0293,0.200445
271,-0.02929,0.200445
272,-0.02928,0.200445
273,-0.02927,0.200445
274,-0.02926,0.200445
275,-0.02925,0.200445
276,-0.02924,0.200445
277,-0.02923,0.200445
278,-0.02922,0.200445
279,-0.02921,0.200445
280,-0.0292,0.200445
281,-0.02919,0.200445
282,-0.02918,0.200445
283,-0.02917,0.200445
284,-0.02916,0.200445
285,-0.02915,0.200445
286,-0.02914,0.200445
287,-0.02913,0.200445
288,-0.02912,0.200445
289,-0.02911,0.200445
290,-0.0291,0.200445
291,-0.02909,0.200445
292,-0.02908,0.200445
293,-0.02907,0.200445
294,-0.02906,0.200445
295,-0.02905,0.200445
296,-0.02904,0.200445
297,-0.02903,0.200445
298,-0.02902,0.200445
299,-0.02901,0.200445
300,-0.029,0.200445
301,-0.02899,0.200445
302,-0.02898,0.200445
303,-0.02897,0.200445
304,-0.02896,0.200445
305,-0.02895,0.200445
306,-0.02894,0.200445
307,-0.02893,0.200445
308,-0.02892,0.200445
309,-0.02891,0.200445
310,-0.0289,0.200445
311,-0.02889,0.200445
312,-0.02888,0.200445
313,-0.02887,0.200445
314,-0.02886,0.200445
315,-0.02885,0.200445
316,-0.02884,0.200445
317,-0.02883,0.200445
318,-0.02882,0.200445
319,-0.02881,0.200445
320,-0.0288,0.200445
321,-0.02879,0.200445
322,-0.02878,0.200445
323,-0.02877,0.200445
324,-0.02876,0.200445
325,-0.02875,0.200445
326,-0.02874,0.200445
327,-0.02873,0.200445
328,-0.02872,0.200445
329,-0.02871,0.200445
330,-0.0287,0.200445
331,-0.02869,0.200445
332,-0.02868,0.200445
333,-0.02867,0.200445
334,-0.02866,0.200445
335,-0.02865,0.200445
336,-0.02864,0.200445
337,-0.02863,0.200445
338,-0.02862,0.200445
339,-0.02861,0.200445
340,-0.0286,0.200445
341,-0.02859,0.200445
342,-0.02858,0.200445
343,-0.02857,0.200445
344,-0.02856,0.200445
345,-0.02855,0.200445
346,-0.02854,0.200445
347,-0.02853,0.200445
348,-0.02852,0.200445
349,-0.02851,0.200445
350,-0.0285,0.200445
351,-0.02849,0.200445
352,-0.02848,0.200445
353,-0.02847,0.200445
354,-0.02846,0.200445
355,-0.02845,0.200445
356,-0.02844,0.200445
357,-0.02843,0.200445
358,-0.02842,0.200445
359,-0.02841,0.200445
360,-0.0284,0.200445
361,-0.02839,0.200445
362,-0.02838,0.200445
363,-0.02837,0.200445
364,-0.02836,0.200445
365,-0.02835,0.200445
366,-0.02834,0.200445
367,-0.02833,0.200445
368,-0.02832,0.200445
369,-0.02831,0.200445
370,-0.0283,0.200445
371,-0.02829,0.200445
372,-0.02828,0.200445
373,-0.02827,0.200445
374,-0.02826,0.200445
375,-0.02825,0.200445
376,-0.02824,0.200445
377,-0.02823,0.200445
378,-0.02822,0.200445
379,-0.02821,0.200445
380,-0.0282,0.200445
381,-0.02819,0.200445
382,-0.02818,0.200445
383,-0.02817,0.200445
384,-0.02816,0.200445
385,-0.02815,0.200445
386,-0.02814,0.200445
387,-0.02813,0.200445
388,-0.02812,0.200445
389,-0.02811,0.200445
390,-0.0281,0.200445
391,-0.02809,0.200445
392,-0.02808,0.200445
393,-0.02807,0.200445
394,-0.02806,0.200445
395,-0.02805,0.200445
396,-0.02804,0.200445
397,-0.02803,0.200445
398,-0.02802,0.200445
399,-0.02801,0.200445
400,-0.028,0.200445
401,-0.02799,0.200445
402,-0.02798,0.200445
403,-0.02797,0.200445
404,-0.02796,0.200445
405,-0.02795,0.200445
406,-0.02794,0.200445
407,-0.02793,0.200445
408,-0.02792,0.200445
409,-0.02791,0.200445
410,-0.0279,0.200445
411,-0.02789,0.200445
412,-0.02788,0.200445
413,-0.02787,0.200445
414,-0.02786,0.200445
415,-0.02785,0.200445
416,-0.02784,0.200445
417,-0.02783,0.200445
418,-0.02782,0.200445
419,-0.02781,0.200445
420,-0.0278,0.200445
421,-0.02779,0.200445
422,-0.02778,0.200445
423,-0.02777,0.200445
424,-0.02776,0.200445
425,-0.02775,0.200445
426,-0.02774,0.200445
427,-0.02773,0.200445
428,-0.02772,0.200445
429,-0.02771,0.200445
430,-0.0277,0.200445
431,-0.02769,0.200445
432,-0.02768,0.200445
433,-0.02767,0.200445
434,-0.02766,0.200445
435,-0.02765,0.200445
436,-0.02764,0.200445
437,-0.02763,0.200445
438,-0.02762,0.200445
439,-0.02761,0.200445
440,-0.0276,0.200445
441,-0.02759,0.200445
442,-0.02758,0.200445
443,-0.02757,0.200445
444,-0.02756,0.200445
445,-0.02755,0.200445
446,-0.02754,0.200445
447,-0.02753,0.200445
448,-0.02752,0.200445
449,-0.02751,0.200445
450,-0.0275,0.200445
451,-0.02749,0.200445
452,-0.02748,0.200445
453,-0.02747,0.200445
454,-0.02746,0.200445
455,-0.02745,0.200445
456,-0.02744,0.200445
457,-0.02743,0.200445
458,-0.02742,0.200445
459,-0.02741,0.200445
460,-0.0274,0.200445
461,-0.02739,0.200445
462,-0.02738,0.200445
463,-0.02737,0.200445
464,-0.02736,0.200445
465,-0.02735,0.200445
466,-0.02734,0.200445
467,-0.02733,0.200445
468,-0.02732,0.200445
469,-0.02731,0.200445
470,-0.0273,0.200445
471,-0.02729,0.200445
472,-0.02728,0.200445
473,-0.02727,0.200445
474,-0.02726,0.200445
475,-0.02725,0.200445
476,-0.02724,0.200445
477,-0.02723,0.200445
478,-0.02722,0.200445
479,-0.02721,0.200445
480,-0.0272,0.200445
481,-0.02719,0.200445
482,-0.02718,0.200445
483,-0.02717,0.200445
484,-0.02716,0.200445
485,-0.02715,0.200445
486,-0.02714,0.200445
487,-0.02713,0.200445
488,-0.02712,0.200445
489,-0.02711,0.200445
490,-0.0271,0.200445
491,-0.02709,0.200445
492,-0.02708,0.200445
493,-0.02707,0.200445
494,-0.02706,0.200445
495,-0.02705,0.200445
496,-0.02704,0.200445
497,-0.02703,0.200445
498,-0.02702,0.200445
499,-0.02701,0.200445
500,-0.027,0.200445
501,-0.02699,0.200445
502,-0.02698,0.200445
503,-0.02697,0.200445
504,-0.02696,0.200445
505,-0.02695,0.200445
506,-0.02694,0.200445
507,-0.02693,0.200445
508,-0.02692,0.200445
509,-0.02691,0.200445
510,-0.0269,0.200445
511,-0.02689,0.200445
512,-0.02688,0.200445
513,-0.02687,0.200445
514,-0.02686,0.200445
515,-0.02685,0.200445
516,-0.02684,0.200445
517,-0.02683,0.200445
518,-0.02682,0.200445
519,-0.02681,0.200445
520,-0.0268,0.200445
521,-0.02679,0.200445
522,-0.02678,0.200445
523,-0.02677,0.200445
524,-0.02676,0.200445
525,-0.02675,0.200445
526,-0.02674,0.200445
527,-0.02673,0.200445
528,-0.02672,0.200445
529,-0.02671,0.200445
530,-0.0267,0.200445
531,-0.02669,0.200445
532,-0.02668,0.200445
533,-0.02667,0.200445
534,-0.02666,0.200445
535,-0.02665,0.200445
536,-0.02664,0.200445
537,-0.02663,0.200445
538,-0.02662,0.200445
539,-0.02661,0.200445
540,-0.0266,0.200445
541,-0.02659,0.200445
542,-0.02658,0.200445
543,-0.02657,0.200445
544,-0.02656,0.200445
545,-0.02655,0.200445
546,-0.02654,0.200445
547,-0.02653,0.200445
548,-0.02652,0.200445
549,-0.02651,0.200445
550,-0.0265,0.200445
551,-0.02649,0.200445
552,-0.02648,0.200445
553,-0.02647,0.200445
554,-0.02646,0.200445
555,-0.02645,0.200445
556,-0.02644,0.200445
557,-0.02643,0.200445
558,-0.02642,0.200445
559,-0.02641,0.200445
560,-0.0264,0.200445
561,-0.02639,0.200445
562,-0.02638,0.200445
563,-0.02637,0.200445
564,-0.02636,0.200445
565,-0.02635,0.200445
566,-0.02634,0.200445
567,-0.02633,0.200445
568,-0.02632,0.200445
569,-0.02631,0.200445
570,-0.0263,0.200445
571,-0.02629,0.200445
572,-0.02628,0.200445
573,-0.02627,0.200445
574,-0.02626,0.200445
575,-0.02625,0.200445
576,-0.02624,0.200445
577,-0.02623,0.200445
578,-0.02622,0.200445
579,-0.02621,0.200445
580,-0.0262,0.200445
581,-0.02619,0.200445
582,-0.02618,0.200445
583,-0.02617,0.200445
584,-0.02616,0.200445
585,-0.02615,0.200445
586,-0.02614,0.200445
587,-0.02613,0.200445
588,-0.02612,0.200445
589,-0.02611,0.200445
590,-0.0261,0.200445
591,-0.02609,0.200445
592,-0.02608,0.200445
593,-0.02607,0.200445
594,-0.02606,0.200445
595,-0.02605,0.200445
596,-0.02604,0.200445
597,-0.02603,0.200445
598,-0.02602,0.200445
599,-0.02601,0.200445
600,-0.026,0.200445
601,-0.02599,0.200445
602,-0.02598,0.200445
603,-0.02597,0.200445
604,-0.02596,0.200445
605,-0.02595,0.200445
606,-0.02594,0.200445
607,-0.02593,0.200445
608,-0.02592,0.200445
609,-0.02591,0.200445
610,-0.0259,0.200445
611,-0.02589,0.200445
612,-0.02588,0.200445
613,-0.02587,0.200445
614,-0.02586,0.200445
615,-0.02585,0.200445
616,-0.02584,0.200445
617,-0.02583,0.200445
618,-0.02582,0.200445
619,-0.02581,0.200445
620,-0.0258,0.200445
621,-0.02579,0.200445
622,-0.02578,0.200445
623,-0.02577,0.200445
624,-0.02576,0.200445
625,-0.02575,0.200445
626,-0.02574,0.200445
627,-0.02573,0.200445
628,-0.02572,0.200445
629,-0.02571,0.200445
630,-0.0257,0.200445
631,-0.02569,0.200445
632,-0.02568,0.200445
633,-0.02567,0.200445
634,-0.02566,0.200445
635,-0.02565,0.200445
636,-0.02564,0.200445
637,-0.02563,0.200445
638,-0.02562,0.200445
639,-0.02561,0.200445
640,-0.0256,0.200445
641,-0.02559,0.200445
642,-0.02558,0.200445
643,-0.02557,0.200445
644,-0.02556,0.200445
645,-0.02555,0.200445
646,-0.02554,0.200445
647,-0.02553,0.200445
648,-0.02552,0.200445
649,-0.02551,0.200445
650,-0.0255,0.200445
651,-0.02549,0.200445
652,-0.02548,0.200445
653,-0.02547,0.200445
654,-0.02546,0.200445
655,-0.02545,0.200445
656,-0.02544,0.200445
657,-0.02543,0.200445
658,-0.02542,0.200445
659,-0.02541,0.200445
660,-0.0254,0.200445
661,-0.02539,0.200445
662,-0.02538,0.200445
663,-0.02537,0.200445
664,-0.02536,0.200445
665,-0.02535,0.200445
666,-0.02534,0.200445
667,-0.02533,0.200445
668,-0.02532,0.200445
669,-0.02531,0.200445
670,-0.0253,0.200445
671,-0.02529,0.200445
672,-0.02528,0.200445
673,-0.02527,0.200445
674,-0.02526,0.200445
675,-0.02525,0.200445
676,-0.02524,0.200445
677,-0.02523,0.200445
678,-0.02522,0.200445
679,-0.02521,0.200445
680,-0.0252,0.200445
681,-0.02519,0.200445
682,-0.02518,0.200445
683,-0.02517,0.200445
684,-0.02516,0.200445
685,-0.02515,0.200445
686,-0.02514,0.200445
687,-0.02513,0.200445
688,-0.02512,0.200445
689,-0.02511,0.200445
690,-0.0251,0.200445
691,-0.02509,0.200445
692,-0.02508,0.200445
693,-0.02507,0.200445
694,-0.02506,0.200445
695,-0.02505,0.200445
696,-0.02504,0.200445
697,-0.02503,0.200445
698,-0.02502,0.200445
699,-0.02501,0.200445
700,-0.025,0.200445
701,-0.02499,0.200445
702,-0.02498,0.200445
703,-0.02497,0.200445
704,-0.02496,0.200445
705,-0.02495,0.200445
706,-0.02494,0.200445
707,-0.02493,0.200445
708,-0.02492,0.200445
709,-0.02491,0.200445
710,-0.0249,0.200445
711,-0.02489,0.200445
712,-0.02488,0.200445
713,-0.02487,0.200445
714,-0.02486,0.200445
715,-0.02485,0.200445
716,-0.02484,0.200445
717,-0.02483,0.200445
718,-0.02482,0.200445
719,-0.02481,0.200445
720,-0.0248,0.200445
721,-0.02479,0.200445
722,-0.02478,0.200445
723,-0.02477,0.200445
724,-0.02476,0.200445
725,-0.02475,0.200445
726,-0.02474,0.200445
727,-0.02473,0.200445
728,-0.02472,0.200445
729,-0.02471,0.200445
730,-0.0247,0.200445
731,-0.02469,0.200445
732,-0.02468,0.200445
733,-0.02467,0.200445
734,-0.02466,0.200445
735,-0.02465,0.200445
736,-0.02464,0.200445
737,-0.02463,0.200445
738,-0.02462,0.200445
739,-0.02461,0.200445
740,-0.0246,0.200445
741,-0.02459,0.200445
742,-0.02458,0.200445
743,-0.02457,0.200445
744,-0.02456,0.200445
745,-0.02455,0.200445
746,-0.02454,0.200445
747,-0.02453,0.200445
748,-0.02452,0.200445
749,-0.02451,0.200445
750,-0.0245,0.200445
751,-0.02449,0.200445
752,-0.02448,0.200445
753,-0.02447,0.200445
754,-0.02446,0.200445
755,-0.02445,0.200445
756,-0.02444,0.200445
757,-0.02443,0.200445
758,-0.02442,0.200445
759,-0.02441,0.200445
760,-0.0244,0.200445
761,-0.02439,0.200445
762,-0.02438,0.200445
763,-0.02437,0.200445
764,-0.02436,0.200445
765,-0.02435,0.200445
766,-0.02434,0.200445
767,-0.02433,0.200445
768,-0.02432,0.200445
769,-0.02431,0.200445
770,-0.0243,0.200445
771,-0.02429,0.200445
772,-0.02428,0.200445
773,-0.02427,0.200445
774,-0.02426,0.200445
775,-0.02425,0.200445
776,-0.02424,0.200445
777,-0.02423,0.200445
778,-0.02422,0.200445
779,-0.02421,0.200445
780,-0.0242,0.200445
781,-0.02419,0.200445
782,-0.02418,0.200445
783,-0.02417,0.200445
784,-0.02416,0.200445
785,-0.02415,0.200445
786,-0.02414,0.200445
787,-0.02413,0.200445
788,-0.02412,0.200445
789,-0.02411,0.200445
790,-0.0241,0.200445
791,-0.02409,0.200445
792,-0.02408,0.200445
793,-0.02407,0.200445
794,-0.02406,0.200445
795,-0.02405,0.200445
796,-0.02404,0.200445
797,-0.02403,0.200445
798,-0.02402,0.200445
799,-0.02401,0.200445
800,-0.024,0.200445
801,-0.02399,0.200445
802,-0.02398,0.200445
803,-0.02397,0.200445
804,-0.02396,0.200445
805,-0.02395,0.200445
806,-0.02394,0.200445
807,-0.02393,0.200445
808,-0.02392,0.200445
809,-0.02391,0.200445
810,-0.0239,0.200445
811,-0.02389,0.200445
812,-0.02388,0.200445
813,-0.02387,0.200445
814,-0.02386,0.200445
815,-0.02385,0.200445
816,-0.02384,0.200445
817,-0.02383,0.200445
818,-0.02382,0.200445
819,-0.02381,0.200445
820,-0.0238,0.200445
821,-0.02379,0.200445
822,-0.02378,0.200445
823,-0.02377,0.200445
824,-0.02376,0.200445
825,-0.02375,0.200445
826,-0.02374,0.200445
827,-0.02373,0.200445
828,-0.02372,0.200445
829,-0.02371,0.200445
830,-0.0237,0.200445
831,-0.02369,0.200445
832,-0.02368,0.200445
833,-0.02367,0.200445
834,-0.02366,0.200445
835,-0.02365,0.200445
836,-0.02364,0.200445
837,-0.02363,0.200445
838,-0.02362,0.200445
839,-0.02361,0.200445
840,-0.0236,0.200445
841,-0.02359,0.200445
842,-0.02358,0.200445
843,-0.02357,0.200445
844,-0.02356,0.200445
845,-0.02355,0.200445
846,-0.02354,0.200445
847,-0.02353,0.200445
848,-0.02352,0.200445
849,-0.02351,0.200445
850,-0.0235,0.200445
851,-0.02349,0.200445
852,-0.02348,0.200445
853,-0.02347,0.200445
854,-0.02346,0.200445
855,-0.02345,0.200445
856,-0.02344,0.200445
857,-0.02343,0.200445
858,-0.02342,0.200445
859,-0.02341,0.200445
860,-0.0234,0.200445
861,-0.02339,0.200445
862,-0.02338,0.200445
863,-0.02337,0.200445
864,-0.02336,0.200445
865,-0.02335,0.200445
866,-0.02334,0.200445
867,-0.02333,0.200445
868,-0.02332,0.200445
869,-0.02331,0.200445
870,-0.0233,0.200445
871,-0.02329,0.200445
872,-0.02328,0.200445
873,-0.02327,0.200445
874,-0.02326,0.200445
875,-0.02325,0.200445
876,-0.02324,0.200445
877,-0.02323,0.200445
878,-0.02322,0.200445
879,-0.02321,0.200445
880,-0.0232,0.200445
881,-0.02319,0.200445
882,-0.02318,0.200445
883,-0.02317,0.200445
884,-0.02316,0.200445
885,-0.02315,0.200445
886,-0.02314,0.200445
887,-0.02313,0.200445
888,-0.02312,0.200445
889,-0.02311,0.200445
890,-0.0231,0.200445
891,-0.02309,0.200445
892,-0.02308,0.200445
893,-0.02307,0.200445
894,-0.02306,0.200445
895,-0.02305,0.200445
896,-0.02304,0.200445
897,-0.02303,0.200445
898,-0.02302,0.200445
899,-0.02301,0.200445
900,-0.023,0.200445
901,-0.02299,0.200445
902,-0.02298,0.200445
903,-0.02297,0.200445
904,-0.02296,0.200445
905,-0.02295,0.200445
906,-0.02294,0.200445
907,-0.02293,0.200445
908,-0.02292,0.200445
909,-0.02291,0.200445
910,-0.0229,0.200445
911,-0.02289,0.200445
912,-0.02288,0.200445
913,-0.02287,0.200445
914,-0.02286,0.200445
915,-0.02285,0.200445
