Mesures/Data/M1E_4ms_3v.csv

;Scopy version,f4beeb1
;Exported on,Wednesday May 15/05/2024
;Device,M2K
;Nr of samples,6400
;Sample rate,100000
;Tool,Oscilloscope
;Additional Information,
Sample,Time(S),CH1(V),CH2(V)
0,-0.032,3.84186,0.768371
1,-0.03199,3.80845,0.768371
2,-0.03198,3.80845,0.768371
3,-0.03197,3.80845,0.768371
4,-0.03196,3.80845,0.768371
5,-0.03195,3.80845,0.768371
6,-0.03194,3.77504,0.768371
7,-0.03193,3.77504,0.768371
8,-0.03192,3.77504,0.768371
9,-0.03191,3.77504,0.768371
10,-0.0319,3.75834,0.768371
11,-0.03189,3.75834,0.768371
12,-0.03188,3.75834,0.768371
13,-0.03187,3.72493,0.768371
14,-0.03186,3.74163,0.768371
15,-0.03185,3.70823,0.751667
16,-0.03184,3.72493,0.768371
17,-0.03183,3.67482,0.768371
18,-0.03182,3.70823,0.768371
19,-0.03181,3.70823,0.768371
20,-0.0318,3.65811,0.768371
21,-0.03179,3.65811,0.768371
22,-0.03178,3.65811,0.768371
23,-0.03177,3.65811,0.768371
24,-0.03176,3.65811,0.768371
25,-0.03175,3.62471,0.768371
26,-0.03174,3.62471,0.768371
27,-0.03173,3.62471,0.768371
28,-0.03172,3.608,0.768371
29,-0.03171,3.608,0.768371
30,-0.0317,3.608,0.768371
31,-0.03169,3.608,0.768371
32,-0.03168,3.5746,0.768371
33,-0.03167,3.5913,0.768371
34,-0.03166,3.55789,0.768371
35,-0.03165,3.55789,0.768371
36,-0.03164,3.55789,0.768371
37,-0.03163,3.55789,0.768371
38,-0.03162,3.54119,0.768371
39,-0.03161,3.54119,0.768371
40,-0.0316,3.54119,0.768371
41,-0.03159,3.52449,0.768371
42,-0.03158,3.52449,0.768371
43,-0.03157,3.52449,0.768371
44,-0.03156,3.52449,0.768371
45,-0.03155,3.49108,0.768371
46,-0.03154,3.50778,0.768371
47,-0.03153,3.47437,0.768371
48,-0.03152,3.49108,0.768371
49,-0.03151,3.45767,0.768371
50,-0.0315,3.45767,0.768371
51,-0.03149,3.45767,0.768371
52,-0.03148,3.45767,0.768371
53,-0.03147,3.45767,0.768371
54,-0.03146,3.45767,0.768371
55,-0.03145,3.40756,0.768371
56,-0.03144,3.40756,0.768371
57,-0.03143,3.42426,0.768371
58,-0.03142,3.39086,0.768371
59,-0.03141,3.39086,0.768371
60,-0.0314,3.39086,0.768371
61,-0.03139,3.37415,0.768371
62,-0.03138,3.37415,0.768371
63,-0.03137,3.37415,0.768371
64,-0.03136,3.37415,0.768371
65,-0.03135,3.34074,0.768371
66,-0.03134,3.34074,0.768371
67,-0.03133,3.34074,0.768371
68,-0.03132,3.34074,0.768371
69,-0.03131,3.34074,0.734964
70,-0.0313,3.30734,0.768371
71,-0.03129,3.30734,0.768371
72,-0.03128,3.32404,0.768371
73,-0.03127,3.29063,0.768371
74,-0.03126,3.29063,0.768371
75,-0.03125,3.30734,0.768371
76,-0.03124,3.27393,0.768371
77,-0.03123,3.27393,0.768371
78,-0.03122,3.29063,0.768371
79,-0.03121,3.25723,0.768371
80,-0.0312,3.25723,0.768371
81,-0.03119,3.25723,0.768371
82,-0.03118,3.24052,0.768371
83,-0.03117,3.25723,0.768371
84,-0.03116,3.22382,0.768371
85,-0.03115,3.24052,0.768371
86,-0.03114,3.20711,0.768371
87,-0.03113,3.20711,0.768371
88,-0.03112,3.22382,0.751667
89,-0.03111,3.17371,0.768371
90,-0.0311,3.17371,0.768371
91,-0.03109,3.17371,0.768371
92,-0.03108,3.17371,0.768371
93,-0.03107,3.157,0.768371
94,-0.03106,3.17371,0.768371
95,-0.03105,3.1403,0.768371
96,-0.03104,3.1403,0.768371
97,-0.03103,3.1403,0.768371
98,-0.03102,3.1403,0.768371
99,-0.03101,3.1236,0.768371
100,-0.031,3.1236,0.768371
101,-0.03099,3.1236,0.768371
102,-0.03098,3.10689,0.768371
103,-0.03097,3.1236,0.768371
104,-0.03096,3.09019,0.768371
105,-0.03095,3.09019,0.768371
106,-0.03094,3.09019,0.768371
107,-0.03093,3.07348,0.768371
108,-0.03092,3.07348,0.768371
109,-0.03091,3.07348,0.768371
110,-0.0309,3.05678,0.768371
111,-0.03089,3.05678,0.768371
112,-0.03088,3.04008,0.768371
113,-0.03087,3.04008,0.768371
114,-0.03086,3.04008,0.768371
115,-0.03085,3.02337,0.768371
116,-0.03084,3.02337,0.768371
117,-0.03083,3.04008,0.768371
118,-0.03082,3.00667,0.768371
119,-0.03081,3.00667,0.768371
120,-0.0308,3.02337,0.768371
121,-0.03079,2.98997,0.768371
122,-0.03078,2.98997,0.768371
123,-0.03077,3.00667,0.768371
124,-0.03076,2.97326,0.768371
125,-0.03075,2.97326,0.768371
126,-0.03074,2.98997,0.768371
127,-0.03073,2.95656,0.768371
128,-0.03072,2.95656,0.768371
129,-0.03071,2.95656,0.768371
130,-0.0307,2.92315,0.768371
131,-0.03069,2.92315,0.768371
132,-0.03068,2.95656,0.768371
133,-0.03067,2.90645,0.768371
134,-0.03066,2.90645,0.768371
135,-0.03065,2.92315,0.768371
136,-0.03064,2.88974,0.768371
137,-0.03063,2.88974,0.768371
138,-0.03062,2.88974,0.768371
139,-0.03061,2.88974,0.768371
140,-0.0306,2.87304,0.768371
141,-0.03059,2.88974,0.768371
142,-0.03058,2.85634,0.768371
143,-0.03057,2.85634,0.768371
144,-0.03056,2.87304,0.768371
145,-0.03055,2.83963,0.768371
146,-0.03054,2.83963,0.768371
147,-0.03053,2.83963,0.768371
148,-0.03052,2.82293,0.768371
149,-0.03051,2.82293,0.768371
150,-0.0305,2.83963,0.768371
151,-0.03049,2.80623,0.768371
152,-0.03048,2.80623,0.768371
153,-0.03047,2.80623,0.768371
154,-0.03046,2.80623,0.768371
155,-0.03045,2.78952,0.768371
156,-0.03044,2.78952,0.768371
157,-0.03043,2.78952,0.768371
158,-0.03042,2.77282,0.768371
159,-0.03041,2.77282,0.768371
160,-0.0304,2.78952,0.768371
161,-0.03039,2.75611,0.768371
162,-0.03038,2.75611,0.768371
163,-0.03037,2.75611,0.768371
164,-0.03036,2.75611,0.768371
165,-0.03035,2.73941,0.768371
166,-0.03034,2.75611,0.768371
167,-0.03033,2.72271,0.768371
168,-0.03032,2.72271,0.768371
169,-0.03031,2.72271,0.768371
170,-0.0303,2.6893,0.768371
171,-0.03029,2.6893,0.768371
172,-0.03028,2.6893,0.751667
173,-0.03027,2.6726,0.751667
174,-0.03026,2.6726,0.734964
175,-0.03025,2.6726,0.768371
176,-0.03024,2.6726,0.768371
177,-0.03023,2.6893,0.768371
178,-0.03022,2.65589,0.768371
179,-0.03021,2.65589,0.768371
180,-0.0302,2.6726,0.768371
181,-0.03019,2.63919,0.768371
182,-0.03018,2.63919,0.768371
183,-0.03017,2.65589,0.768371
184,-0.03016,2.62248,0.768371
185,-0.03015,2.62248,0.768371
186,-0.03014,2.62248,0.768371
187,-0.03013,2.60578,0.768371
188,-0.03012,2.60578,0.751667
189,-0.03011,2.60578,0.734964
190,-0.0301,2.58908,0.768371
191,-0.03009,2.58908,0.751667
192,-0.03008,2.60578,0.768371
193,-0.03007,2.57237,0.751667
194,-0.03006,2.57237,0.768371
195,-0.03005,2.57237,0.768371
196,-0.03004,2.58908,0.768371
197,-0.03003,2.55567,0.768371
198,-0.03002,2.55567,0.768371
199,-0.03001,2.55567,0.768371
200,-0.03,2.55567,0.768371
201,-0.02999,2.53897,0.768371
202,-0.02998,2.53897,0.768371
203,-0.02997,2.55567,0.768371
204,-0.02996,2.52226,0.768371
205,-0.02995,2.52226,0.768371
206,-0.02994,2.52226,0.768371
207,-0.02993,2.53897,0.768371
208,-0.02992,2.50556,0.768371
209,-0.02991,2.50556,0.768371
210,-0.0299,2.50556,0.768371
211,-0.02989,2.50556,0.768371
212,-0.02988,2.48885,0.768371
213,-0.02987,2.48885,0.768371
214,-0.02986,2.50556,0.768371
215,-0.02985,2.47215,0.751667
216,-0.02984,2.47215,0.751667
217,-0.02983,2.47215,0.768371
218,-0.02982,2.47215,0.751667
219,-0.02981,2.43874,0.751667
220,-0.0298,2.43874,0.768371
221,-0.02979,2.43874,0.768371
222,-0.02978,2.47215,0.768371
223,-0.02977,2.42204,0.768371
224,-0.02976,2.42204,0.768371
225,-0.02975,2.42204,0.768371
226,-0.02974,2.43874,0.768371
227,-0.02973,2.40534,0.768371
228,-0.02972,2.40534,0.768371
229,-0.02971,2.40534,0.768371
230,-0.0297,2.40534,0.768371
231,-0.02969,2.38863,0.768371
232,-0.02968,2.38863,0.768371
233,-0.02967,2.40534,0.768371
234,-0.02966,2.37193,0.768371
235,-0.02965,2.37193,0.768371
236,-0.02964,2.38863,0.768371
237,-0.02963,2.35522,0.768371
238,-0.02962,2.35522,0.768371
239,-0.02961,2.35522,0.768371
240,-0.0296,2.35522,0.768371
241,-0.02959,2.35522,0.768371
242,-0.02958,2.33852,0.768371
243,-0.02957,2.33852,0.768371
244,-0.02956,2.35522,0.768371
245,-0.02955,2.32182,0.768371
246,-0.02954,2.32182,0.768371
247,-0.02953,2.32182,0.768371
248,-0.02952,2.32182,0.768371
249,-0.02951,2.30511,0.768371
250,-0.0295,2.30511,0.768371
251,-0.02949,2.30511,0.768371
252,-0.02948,2.30511,0.768371
253,-0.02947,2.28841,0.768371
254,-0.02946,2.28841,0.768371
255,-0.02945,2.28841,0.768371
256,-0.02944,2.27171,0.768371
257,-0.02943,2.27171,0.768371
258,-0.02942,2.27171,0.768371
259,-0.02941,2.27171,0.768371
260,-0.0294,2.27171,0.768371
261,-0.02939,2.255,0.768371
262,-0.02938,2.255,0.768371
263,-0.02937,2.255,0.768371
264,-0.02936,2.2383,0.768371
265,-0.02935,2.2383,0.768371
266,-0.02934,2.2383,0.768371
267,-0.02933,2.2383,0.751667
268,-0.02932,2.2216,0.751667
269,-0.02931,2.2216,0.768371
270,-0.0293,2.2216,0.734964
271,-0.02929,2.2216,0.751667
272,-0.02928,2.2216,0.768371
273,-0.02927,2.18819,0.768371
274,-0.02926,2.18819,0.768371
275,-0.02925,2.18819,0.768371
276,-0.02924,2.17148,0.768371
277,-0.02923,2.17148,0.768371
278,-0.02922,2.17148,0.768371
279,-0.02921,2.17148,0.768371
280,-0.0292,2.17148,0.768371
281,-0.02919,2.15478,0.768371
282,-0.02918,2.15478,0.768371
283,-0.02917,2.15478,0.768371
284,-0.02916,2.15478,0.768371
285,-0.02915,2.13808,0.768371
286,-0.02914,2.13808,0.768371
287,-0.02913,2.13808,0.768371
288,-0.02912,2.12137,0.751667
289,-0.02911,2.12137,0.734964
290,-0.0291,2.12137,0.768371
291,-0.02909,2.12137,0.768371
292,-0.02908,2.12137,0.768371
293,-0.02907,2.10467,0.768371
294,-0.02906,2.10467,0.768371
295,-0.02905,2.10467,0.768371
296,-0.02904,2.10467,0.768371
297,-0.02903,2.08797,0.768371
298,-0.02902,2.08797,0.768371
299,-0.02901,2.08797,0.768371
300,-0.029,2.08797,0.768371
301,-0.02899,2.08797,0.768371
302,-0.02898,2.07126,0.768371
303,-0.02897,2.07126,0.768371
304,-0.02896,2.07126,0.768371
305,-0.02895,2.05456,0.768371
306,-0.02894,2.05456,0.768371
307,-0.02893,2.05456,0.768371
308,-0.02892,2.05456,0.768371
309,-0.02891,2.05456,0.768371
310,-0.0289,2.03785,0.768371
311,-0.02889,2.03785,0.768371
312,-0.02888,2.03785,0.768371
313,-0.02887,2.03785,0.768371
314,-0.02886,2.02115,0.768371
315,-0.02885,2.02115,0.768371
316,-0.02884,2.02115,0.768371
317,-0.02883,2.02115,0.768371
318,-0.02882,2.02115,0.768371
319,-0.02881,2.00445,0.768371
320,-0.0288,2.00445,0.768371
321,-0.02879,2.00445,0.768371
322,-0.02878,1.98774,0.768371
323,-0.02877,1.98774,0.768371
324,-0.02876,1.98774,0.768371
325,-0.02875,1.98774,0.768371
326,-0.02874,1.98774,0.768371
327,-0.02873,1.98774,0.768371
328,-0.02872,1.97104,0.768371
329,-0.02871,1.97104,0.768371
330,-0.0287,1.97104,0.768371
331,-0.02869,1.97104,0.768371
332,-0.02868,1.93763,0.768371
333,-0.02867,1.93763,0.768371
334,-0.02866,1.93763,0.768371
335,-0.02865,1.93763,0.768371
336,-0.02864,1.93763,0.768371
337,-0.02863,1.92093,0.768371
338,-0.02862,1.92093,0.768371
339,-0.02861,1.92093,0.768371
340,-0.0286,1.92093,0.768371
341,-0.02859,1.90422,0.768371
342,-0.02858,1.90422,0.768371
343,-0.02857,1.90422,0.768371
344,-0.02856,1.90422,0.768371
345,-0.02855,1.90422,0.768371
346,-0.02854,1.88752,0.768371
347,-0.02853,1.88752,0.768371
348,-0.02852,1.88752,0.768371
349,-0.02851,1.88752,0.768371
350,-0.0285,1.87082,0.768371
351,-0.02849,1.87082,0.768371
352,-0.02848,1.87082,0.768371
353,-0.02847,1.87082,0.768371
354,-0.02846,1.87082,0.768371
355,-0.02845,1.85411,0.768371
356,-0.02844,1.85411,0.768371
357,-0.02843,1.85411,0.768371
358,-0.02842,1.85411,0.768371
359,-0.02841,1.83741,0.768371
360,-0.0284,1.83741,0.768371
361,-0.02839,1.83741,0.768371
362,-0.02838,1.83741,0.768371
363,-0.02837,1.83741,0.768371
364,-0.02836,1.82071,0.768371
365,-0.02835,1.82071,0.768371
366,-0.02834,1.82071,0.768371
367,-0.02833,1.82071,0.768371
368,-0.02832,1.804,0.768371
369,-0.02831,1.804,0.768371
370,-0.0283,1.804,0.768371
371,-0.02829,1.804,0.768371
372,-0.02828,1.804,0.768371
373,-0.02827,1.7873,0.768371
374,-0.02826,1.7873,0.768371
375,-0.02825,1.7873,0.768371
376,-0.02824,1.7873,0.768371
377,-0.02823,1.7873,0.768371
378,-0.02822,1.77059,0.768371
379,-0.02821,1.77059,0.768371
380,-0.0282,1.77059,0.768371
381,-0.02819,1.77059,0.751667
382,-0.02818,1.77059,0.751667
383,-0.02817,1.75389,0.751667
384,-0.02816,1.75389,0.751667
385,-0.02815,1.75389,0.768371
386,-0.02814,1.75389,0.768371
387,-0.02813,1.73719,0.768371
388,-0.02812,1.73719,0.768371
389,-0.02811,1.73719,0.734964
390,-0.0281,1.73719,0.734964
391,-0.02809,1.73719,0.768371
392,-0.02808,1.73719,0.734964
393,-0.02807,1.70378,0.751667
394,-0.02806,1.70378,0.768371
395,-0.02805,1.70378,0.751667
396,-0.02804,1.70378,0.751667
397,-0.02803,1.68708,0.751667
398,-0.02802,1.68708,0.751667
399,-0.02801,1.68708,0.751667
400,-0.028,1.68708,0.751667
401,-0.02799,1.68708,0.751667
402,-0.02798,1.68708,0.751667
403,-0.02797,1.68708,0.768371
404,-0.02796,1.68708,0.768371
405,-0.02795,1.68708,0.768371
406,-0.02794,1.67037,0.768371
407,-0.02793,1.67037,0.768371
408,-0.02792,1.67037,0.768371
409,-0.02791,1.67037,0.768371
410,-0.0279,1.67037,0.768371
411,-0.02789,1.65367,0.768371
412,-0.02788,1.65367,0.768371
413,-0.02787,1.65367,0.768371
414,-0.02786,1.63696,0.768371
415,-0.02785,1.63696,0.768371
416,-0.02784,1.63696,0.768371
417,-0.02783,1.63696,0.768371
418,-0.02782,1.62026,0.751667
419,-0.02781,1.62026,0.768371
420,-0.0278,1.62026,0.751667
421,-0.02779,1.62026,0.751667
422,-0.02778,1.62026,0.768371
423,-0.02777,1.62026,0.768371
424,-0.02776,1.62026,0.768371
425,-0.02775,1.62026,0.768371
426,-0.02774,1.60356,0.768371
427,-0.02773,1.60356,0.768371
428,-0.02772,1.60356,0.768371
429,-0.02771,1.60356,0.768371
430,-0.0277,1.60356,0.768371
431,-0.02769,1.58685,0.768371
432,-0.02768,1.58685,0.768371
433,-0.02767,1.58685,0.768371
434,-0.02766,1.58685,0.768371
435,-0.02765,1.57015,0.768371
436,-0.02764,1.57015,0.768371
437,-0.02763,1.57015,0.768371
438,-0.02762,1.57015,0.768371
439,-0.02761,1.57015,0.768371
440,-0.0276,1.55345,0.768371
441,-0.02759,1.55345,0.768371
442,-0.02758,1.55345,0.768371
443,-0.02757,1.55345,0.768371
444,-0.02756,1.55345,0.768371
445,-0.02755,1.55345,0.768371
446,-0.02754,1.55345,0.768371
447,-0.02753,1.53674,0.768371
448,-0.02752,1.53674,0.768371
449,-0.02751,1.53674,0.768371
450,-0.0275,1.53674,0.768371
451,-0.02749,1.53674,0.768371
452,-0.02748,1.53674,0.768371
453,-0.02747,1.52004,0.768371
454,-0.02746,1.52004,0.768371
455,-0.02745,1.52004,0.768371
456,-0.02744,1.52004,0.768371
457,-0.02743,1.52004,0.768371
458,-0.02742,1.52004,0.768371
459,-0.02741,1.50333,0.768371
460,-0.0274,1.50333,0.768371
461,-0.02739,1.50333,0.768371
462,-0.02738,1.50333,0.768371
463,-0.02737,1.50333,0.768371
464,-0.02736,1.48663,0.768371
465,-0.02735,1.48663,0.768371
466,-0.02734,1.48663,0.768371
467,-0.02733,1.48663,0.768371
468,-0.02732,1.48663,0.768371
469,-0.02731,1.43652,0.768371
470,-0.0273,1.48663,0.768371
471,-0.02729,1.45322,0.768371
472,-0.02728,1.45322,0.768371
473,-0.02727,1.45322,0.768371
474,-0.02726,1.45322,0.768371
475,-0.02725,1.45322,0.768371
476,-0.02724,1.43652,0.768371
477,-0.02723,1.43652,0.768371
478,-0.02722,1.43652,0.768371
479,-0.02721,1.43652,0.768371
480,-0.0272,1.43652,0.768371
481,-0.02719,1.43652,0.768371
482,-0.02718,1.41982,0.768371
483,-0.02717,1.41982,0.768371
484,-0.02716,1.41982,0.768371
485,-0.02715,1.41982,0.768371
486,-0.02714,1.41982,0.768371
487,-0.02713,1.41982,0.768371
488,-0.02712,1.41982,0.768371
489,-0.02711,1.40311,0.768371
490,-0.0271,1.40311,0.768371
491,-0.02709,1.40311,0.768371
492,-0.02708,1.40311,0.768371
493,-0.02707,1.40311,0.768371
494,-0.02706,1.40311,0.768371
495,-0.02705,1.40311,0.768371
496,-0.02704,1.38641,0.768371
497,-0.02703,1.38641,0.768371
498,-0.02702,1.38641,0.768371
499,-0.02701,1.38641,0.768371
500,-0.027,1.38641,0.768371
501,-0.02699,1.38641,0.768371
502,-0.02698,1.38641,0.768371
503,-0.02697,1.38641,0.768371
504,-0.02696,1.36971,0.768371
505,-0.02695,1.36971,0.768371
506,-0.02694,1.36971,0.768371
507,-0.02693,1.36971,0.768371
508,-0.02692,1.36971,0.768371
509,-0.02691,1.36971,0.768371
510,-0.0269,1.353,0.768371
511,-0.02689,1.353,0.768371
512,-0.02688,1.353,0.768371
513,-0.02687,1.353,0.768371
514,-0.02686,1.353,0.768371
515,-0.02685,1.353,0.768371
516,-0.02684,1.3363,0.768371
517,-0.02683,1.3363,0.768371
518,-0.02682,1.3363,0.768371
519,-0.02681,1.3363,0.768371
520,-0.0268,1.3363,0.768371
521,-0.02679,1.3363,0.768371
522,-0.02678,1.31959,0.768371
523,-0.02677,1.31959,0.768371
524,-0.02676,1.31959,0.768371
525,-0.02675,1.31959,0.768371
526,-0.02674,1.31959,0.768371
527,-0.02673,1.31959,0.768371
528,-0.02672,1.31959,0.768371
529,-0.02671,1.30289,0.768371
530,-0.0267,1.30289,0.768371
531,-0.02669,1.30289,0.768371
532,-0.02668,1.30289,0.768371
533,-0.02667,1.30289,0.768371
534,-0.02666,1.30289,0.768371
535,-0.02665,1.30289,0.768371
536,-0.02664,1.28619,0.768371
537,-0.02663,1.28619,0.768371
538,-0.02662,1.28619,0.768371
539,-0.02661,1.28619,0.768371
540,-0.0266,1.28619,0.768371
541,-0.02659,1.28619,0.768371
542,-0.02658,1.28619,0.768371
543,-0.02657,1.25278,0.768371
544,-0.02656,1.26948,0.768371
545,-0.02655,1.26948,0.768371
546,-0.02654,1.26948,0.768371
547,-0.02653,1.26948,0.768371
548,-0.02652,1.25278,0.768371
549,-0.02651,1.25278,0.768371
550,-0.0265,1.25278,0.768371
551,-0.02649,1.25278,0.768371
552,-0.02648,1.25278,0.768371
553,-0.02647,1.25278,0.768371
554,-0.02646,1.25278,0.768371
555,-0.02645,1.23608,0.768371
556,-0.02644,1.23608,0.751667
557,-0.02643,1.23608,0.768371
558,-0.02642,1.23608,0.768371
559,-0.02641,1.23608,0.768371
560,-0.0264,1.23608,0.768371
561,-0.02639,1.23608,0.768371
562,-0.02638,1.23608,0.768371
563,-0.02637,1.18596,0.768371
564,-0.02636,1.20267,0.768371
565,-0.02635,1.20267,0.768371
566,-0.02634,1.20267,0.768371
567,-0.02633,1.20267,0.768371
568,-0.02632,1.20267,0.768371
569,-0.02631,1.20267,0.768371
570,-0.0263,1.18596,0.768371
571,-0.02629,1.18596,0.768371
572,-0.02628,1.18596,0.768371
573,-0.02627,1.18596,0.768371
574,-0.02626,1.18596,0.768371
575,-0.02625,1.18596,0.768371
576,-0.02624,1.18596,0.768371
577,-0.02623,1.18596,0.768371
578,-0.02622,1.16926,0.768371
579,-0.02621,1.16926,0.768371
580,-0.0262,1.16926,0.768371
581,-0.02619,1.16926,0.768371
582,-0.02618,1.16926,0.768371
583,-0.02617,1.16926,0.768371
584,-0.02616,1.16926,0.768371
585,-0.02615,1.13585,0.768371
586,-0.02614,1.15256,0.751667
587,-0.02613,1.15256,0.768371
588,-0.02612,1.15256,0.768371
589,-0.02611,1.15256,0.768371
590,-0.0261,1.15256,0.768371
591,-0.02609,1.15256,0.768371
592,-0.02608,1.15256,0.768371
593,-0.02607,1.11915,0.768371
594,-0.02606,1.13585,0.751667
595,-0.02605,1.13585,0.768371
596,-0.02604,1.13585,0.768371
597,-0.02603,1.13585,0.768371
598,-0.02602,1.13585,0.768371
599,-0.02601,1.13585,0.768371
600,-0.026,1.11915,0.768371
601,-0.02599,1.11915,0.768371
602,-0.02598,1.11915,0.768371
603,-0.02597,1.11915,0.768371
604,-0.02596,1.11915,0.768371
605,-0.02595,1.11915,0.768371
606,-0.02594,1.11915,0.768371
607,-0.02593,1.08574,0.768371
608,-0.02592,1.10245,0.768371
609,-0.02591,1.10245,0.768371
610,-0.0259,1.10245,0.768371
611,-0.02589,1.10245,0.768371
612,-0.02588,1.10245,0.768371
613,-0.02587,1.10245,0.768371
614,-0.02586,1.10245,0.768371
615,-0.02585,1.06904,0.768371
616,-0.02584,1.08574,0.768371
617,-0.02583,1.08574,0.768371
618,-0.02582,1.08574,0.768371
619,-0.02581,1.08574,0.768371
620,-0.0258,1.08574,0.768371
621,-0.02579,1.08574,0.768371
622,-0.02578,1.08574,0.768371
623,-0.02577,1.06904,0.768371
624,-0.02576,1.05233,0.768371
625,-0.02575,1.06904,0.768371
626,-0.02574,1.06904,0.768371
627,-0.02573,1.06904,0.768371
628,-0.02572,1.06904,0.768371
629,-0.02571,1.06904,0.768371
630,-0.0257,1.06904,0.768371
631,-0.02569,1.06904,0.768371
632,-0.02568,1.03563,0.768371
633,-0.02567,1.05233,0.768371
634,-0.02566,1.05233,0.768371
635,-0.02565,1.05233,0.768371
636,-0.02564,1.05233,0.768371
637,-0.02563,1.05233,0.768371
638,-0.02562,1.05233,0.768371
639,-0.02561,1.03563,0.768371
640,-0.0256,1.01893,0.768371
641,-0.02559,1.03563,0.768371
642,-0.02558,1.03563,0.768371
643,-0.02557,1.03563,0.768371
644,-0.02556,1.03563,0.768371
645,-0.02555,1.03563,0.768371
646,-0.02554,1.03563,0.768371
647,-0.02553,1.03563,0.768371
648,-0.02552,1.00222,0.768371
649,-0.02551,1.01893,0.768371
650,-0.0255,1.01893,0.734964
651,-0.02549,1.01893,0.768371
652,-0.02548,1.01893,0.768371
653,-0.02547,1.01893,0.768371
654,-0.02546,1.01893,0.768371
655,-0.02545,1.01893,0.768371
656,-0.02544,1.01893,0.768371
657,-0.02543,1.00222,0.768371
658,-0.02542,1.00222,0.768371
659,-0.02541,1.00222,0.768371
660,-0.0254,1.00222,0.768371
661,-0.02539,1.00222,0.768371
662,-0.02538,1.00222,0.768371
663,-0.02537,1.00222,0.768371
664,-0.02536,1.00222,0.768371
665,-0.02535,1.00222,0.768371
666,-0.02534,0.98552,0.768371
667,-0.02533,0.98552,0.768371
668,-0.02532,0.98552,0.768371
