Mesures/Data/mesures_monoA.csv

;Scopy version,f4beeb1
;Exported on,samedi mai 18/05/2024
;Device,M2K
;Nr of samples,8000
;Sample rate,100000
;Tool,Oscilloscope
;Additional Information,
Sample,Time(S),CH1(V),CH2(V)
0,-0.04,0.300667,5.74608
1,-0.03999,0.300667,5.74608
2,-0.03998,0.300667,5.71267
3,-0.03997,0.300667,5.71267
4,-0.03996,0.300667,5.71267
5,-0.03995,0.300667,5.67927
6,-0.03994,0.300667,5.67927
7,-0.03993,0.300667,5.67927
8,-0.03992,0.300667,5.64586
9,-0.03991,0.300667,5.64586
10,-0.0399,0.300667,5.62915
11,-0.03989,0.300667,5.61245
12,-0.03988,0.300667,5.61245
13,-0.03987,0.300667,5.59575
14,-0.03986,0.300667,5.56234
15,-0.03985,0.300667,5.56234
16,-0.03984,0.300667,5.54564
17,-0.03983,0.317371,5.54564
18,-0.03982,0.317371,5.52893
19,-0.03981,0.317371,5.51223
20,-0.0398,0.317371,5.49552
21,-0.03979,0.317371,5.49552
22,-0.03978,0.300667,5.47882
23,-0.03977,0.300667,5.46212
24,-0.03976,0.283963,5.46212
25,-0.03975,0.317371,5.44541
26,-0.03974,0.300667,5.42871
27,-0.03973,0.317371,5.42871
28,-0.03972,0.283963,5.3953
29,-0.03971,0.300667,5.3953
30,-0.0397,0.300667,5.3953
31,-0.03969,0.300667,5.3786
32,-0.03968,0.300667,5.3786
33,-0.03967,0.283963,5.32849
34,-0.03966,0.300667,5.32849
35,-0.03965,0.300667,5.32849
36,-0.03964,0.300667,5.31178
37,-0.03963,0.300667,5.27838
38,-0.03962,0.300667,5.27838
39,-0.03961,0.300667,5.27838
40,-0.0396,0.300667,5.26167
41,-0.03959,0.300667,5.26167
42,-0.03958,0.300667,5.24497
43,-0.03957,0.300667,5.24497
44,-0.03956,0.300667,5.21156
45,-0.03955,0.300667,5.21156
46,-0.03954,0.300667,5.21156
47,-0.03953,0.300667,5.19486
48,-0.03952,0.300667,5.19486
49,-0.03951,0.300667,5.17815
50,-0.0395,0.300667,5.17815
51,-0.03949,0.300667,5.14475
52,-0.03948,0.300667,5.14475
53,-0.03947,0.300667,5.14475
54,-0.03946,0.300667,5.12804
55,-0.03945,0.300667,5.12804
56,-0.03944,0.300667,5.12804
57,-0.03943,0.317371,5.09464
58,-0.03942,0.317371,5.09464
59,-0.03941,0.317371,5.06123
60,-0.0394,0.317371,5.06123
61,-0.03939,0.317371,5.06123
62,-0.03938,0.317371,5.02782
63,-0.03937,0.283963,5.02782
64,-0.03936,0.300667,5.02782
65,-0.03935,0.300667,4.99441
66,-0.03934,0.300667,5.01112
67,-0.03933,0.300667,4.97771
68,-0.03932,0.300667,4.97771
69,-0.03931,0.300667,4.97771
70,-0.0393,0.283963,4.96101
71,-0.03929,0.317371,4.96101
72,-0.03928,0.283963,4.9443
73,-0.03927,0.300667,4.9276
74,-0.03926,0.300667,4.9276
75,-0.03925,0.300667,4.91089
76,-0.03924,0.300667,4.91089
77,-0.03923,0.300667,4.86078
78,-0.03922,0.300667,4.89419
79,-0.03921,0.300667,4.84408
80,-0.0392,0.300667,4.86078
81,-0.03919,0.300667,4.82738
82,-0.03918,0.300667,4.84408
83,-0.03917,0.300667,4.82738
84,-0.03916,0.300667,4.82738
85,-0.03915,0.317371,4.79397
86,-0.03914,0.317371,4.81067
87,-0.03913,0.317371,4.77726
88,-0.03912,0.317371,4.77726
89,-0.03911,0.283963,4.77726
90,-0.0391,0.300667,4.76056
91,-0.03909,0.283963,4.76056
92,-0.03908,0.300667,4.74386
93,-0.03907,0.300667,4.74386
94,-0.03906,0.300667,4.71045
95,-0.03905,0.300667,4.72715
96,-0.03904,0.300667,4.69375
97,-0.03903,0.300667,4.71045
98,-0.03902,0.300667,4.67704
99,-0.03901,0.300667,4.67704
100,-0.039,0.300667,4.67704
101,-0.03899,0.300667,4.66034
102,-0.03898,0.300667,4.66034
103,-0.03897,0.300667,4.62693
104,-0.03896,0.300667,4.62693
105,-0.03895,0.300667,4.62693
106,-0.03894,0.300667,4.59352
107,-0.03893,0.300667,4.61023
108,-0.03892,0.300667,4.57682
109,-0.03891,0.283963,4.57682
110,-0.0389,0.317371,4.57682
111,-0.03889,0.317371,4.56012
112,-0.03888,0.317371,4.56012
113,-0.03887,0.300667,4.54341
114,-0.03886,0.300667,4.54341
115,-0.03885,0.300667,4.52671
116,-0.03884,0.300667,4.52671
117,-0.03883,0.300667,4.4933
118,-0.03882,0.300667,4.51
119,-0.03881,0.300667,4.4766
120,-0.0388,0.300667,4.4933
121,-0.03879,0.300667,4.45989
122,-0.03878,0.283963,4.4766
123,-0.03877,0.317371,4.45989
124,-0.03876,0.317371,4.45989
125,-0.03875,0.317371,4.45989
126,-0.03874,0.300667,4.42649
127,-0.03873,0.300667,4.42649
128,-0.03872,0.300667,4.42649
129,-0.03871,0.300667,4.37638
130,-0.0387,0.300667,4.39308
131,-0.03869,0.300667,4.35967
132,-0.03868,0.300667,4.35967
133,-0.03867,0.300667,4.35967
134,-0.03866,0.300667,4.35967
135,-0.03865,0.300667,4.32626
136,-0.03864,0.300667,4.34297
137,-0.03863,0.300667,4.30956
138,-0.03862,0.300667,4.32626
139,-0.03861,0.300667,4.29286
140,-0.0386,0.300667,4.30956
141,-0.03859,0.300667,4.29286
142,-0.03858,0.300667,4.29286
143,-0.03857,0.300667,4.27615
144,-0.03856,0.300667,4.27615
145,-0.03855,0.300667,4.27615
146,-0.03854,0.300667,4.24275
147,-0.03853,0.300667,4.25945
148,-0.03852,0.300667,4.22604
149,-0.03851,0.300667,4.24275
150,-0.0385,0.300667,4.20934
151,-0.03849,0.300667,4.22604
152,-0.03848,0.300667,4.19263
153,-0.03847,0.300667,4.20934
154,-0.03846,0.300667,4.15923
155,-0.03845,0.300667,4.19263
156,-0.03844,0.300667,4.14252
157,-0.03843,0.300667,4.15923
158,-0.03842,0.300667,4.14252
159,-0.03841,0.300667,4.14252
160,-0.0384,0.300667,4.14252
161,-0.03839,0.300667,4.10912
162,-0.03838,0.300667,4.12582
163,-0.03837,0.300667,4.10912
164,-0.03836,0.300667,4.10912
165,-0.03835,0.300667,4.09241
166,-0.03834,0.300667,4.09241
167,-0.03833,0.300667,4.07571
168,-0.03832,0.300667,4.07571
169,-0.03831,0.300667,4.07571
170,-0.0383,0.300667,4.0423
171,-0.03829,0.300667,4.0423
172,-0.03828,0.300667,4.0423
173,-0.03827,0.300667,4.00889
174,-0.03826,0.300667,4.00889
175,-0.03825,0.300667,4.00889
176,-0.03824,0.300667,4.00889
177,-0.03823,0.300667,4.00889
178,-0.03822,0.300667,3.97549
179,-0.03821,0.300667,3.97549
180,-0.0382,0.300667,3.97549
181,-0.03819,0.300667,3.97549
182,-0.03818,0.300667,3.94208
183,-0.03817,0.300667,3.94208
184,-0.03816,0.300667,3.94208
185,-0.03815,0.300667,3.90867
186,-0.03814,0.300667,3.90867
187,-0.03813,0.300667,3.90867
188,-0.03812,0.300667,3.90867
189,-0.03811,0.300667,3.87526
190,-0.0381,0.300667,3.87526
191,-0.03809,0.300667,3.87526
192,-0.03808,0.300667,3.87526
193,-0.03807,0.300667,3.85856
194,-0.03806,0.300667,3.85856
195,-0.03805,0.300667,3.85856
196,-0.03804,0.300667,3.85856
197,-0.03803,0.300667,3.82515
198,-0.03802,0.300667,3.82515
199,-0.03801,0.283963,3.82515
200,-0.038,0.300667,3.82515
201,-0.03799,0.300667,3.80845
202,-0.03798,0.300667,3.80845
203,-0.03797,0.300667,3.79174
204,-0.03796,0.300667,3.79174
205,-0.03795,0.300667,3.77504
206,-0.03794,0.300667,3.77504
207,-0.03793,0.300667,3.75834
208,-0.03792,0.300667,3.75834
209,-0.03791,0.300667,3.75834
210,-0.0379,0.300667,3.74163
211,-0.03789,0.300667,3.74163
212,-0.03788,0.300667,3.70823
213,-0.03787,0.300667,3.70823
214,-0.03786,0.300667,3.70823
215,-0.03785,0.300667,3.67482
216,-0.03784,0.300667,3.67482
217,-0.03783,0.300667,3.67482
218,-0.03782,0.300667,3.67482
219,-0.03781,0.300667,3.67482
220,-0.0378,0.300667,3.64141
221,-0.03779,0.300667,3.64141
222,-0.03778,0.300667,3.64141
223,-0.03777,0.300667,3.62471
224,-0.03776,0.300667,3.62471
225,-0.03775,0.300667,3.62471
226,-0.03774,0.300667,3.608
227,-0.03773,0.300667,3.608
228,-0.03772,0.300667,3.608
229,-0.03771,0.300667,3.608
230,-0.0377,0.283963,3.5913
231,-0.03769,0.317371,3.5913
232,-0.03768,0.283963,3.5746
233,-0.03767,0.300667,3.5746
234,-0.03766,0.300667,3.5746
235,-0.03765,0.300667,3.54119
236,-0.03764,0.300667,3.54119
237,-0.03763,0.300667,3.54119
238,-0.03762,0.300667,3.54119
239,-0.03761,0.300667,3.54119
240,-0.0376,0.300667,3.50778
241,-0.03759,0.300667,3.50778
242,-0.03758,0.300667,3.52449
243,-0.03757,0.300667,3.47437
244,-0.03756,0.300667,3.47437
245,-0.03755,0.300667,3.47437
246,-0.03754,0.300667,3.47437
247,-0.03753,0.300667,3.47437
248,-0.03752,0.300667,3.44097
249,-0.03751,0.300667,3.44097
250,-0.0375,0.300667,3.45767
251,-0.03749,0.300667,3.42426
252,-0.03748,0.300667,3.42426
253,-0.03747,0.300667,3.42426
254,-0.03746,0.300667,3.42426
255,-0.03745,0.300667,3.42426
256,-0.03744,0.300667,3.39086
257,-0.03743,0.300667,3.40756
258,-0.03742,0.300667,3.37415
259,-0.03741,0.300667,3.37415
260,-0.0374,0.300667,3.39086
261,-0.03739,0.300667,3.35745
262,-0.03738,0.300667,3.35745
263,-0.03737,0.300667,3.35745
264,-0.03736,0.300667,3.35745
265,-0.03735,0.300667,3.34074
266,-0.03734,0.300667,3.35745
267,-0.03733,0.300667,3.32404
268,-0.03732,0.300667,3.32404
269,-0.03731,0.300667,3.32404
270,-0.0373,0.300667,3.32404
271,-0.03729,0.300667,3.30734
272,-0.03728,0.300667,3.30734
273,-0.03727,0.300667,3.29063
274,-0.03726,0.300667,3.29063
275,-0.03725,0.300667,3.27393
276,-0.03724,0.300667,3.29063
277,-0.03723,0.300667,3.24052
278,-0.03722,0.300667,3.24052
279,-0.03721,0.300667,3.24052
280,-0.0372,0.300667,3.24052
281,-0.03719,0.300667,3.22382
282,-0.03718,0.300667,3.24052
283,-0.03717,0.300667,3.20711
284,-0.03716,0.300667,3.20711
285,-0.03715,0.300667,3.22382
286,-0.03714,0.300667,3.19041
287,-0.03713,0.300667,3.19041
288,-0.03712,0.300667,3.20711
289,-0.03711,0.300667,3.17371
290,-0.0371,0.300667,3.17371
291,-0.03709,0.300667,3.19041
292,-0.03708,0.300667,3.157
293,-0.03707,0.300667,3.157
294,-0.03706,0.300667,3.157
295,-0.03705,0.300667,3.1403
296,-0.03704,0.300667,3.1403
297,-0.03703,0.300667,3.1403
298,-0.03702,0.300667,3.1236
299,-0.03701,0.300667,3.1236
300,-0.037,0.300667,3.1403
301,-0.03699,0.300667,3.10689
302,-0.03698,0.300667,3.10689
303,-0.03697,0.300667,3.10689
304,-0.03696,0.300667,3.10689
305,-0.03695,0.300667,3.09019
306,-0.03694,0.300667,3.09019
307,-0.03693,0.300667,3.09019
308,-0.03692,0.300667,3.07348
309,-0.03691,0.300667,3.09019
310,-0.0369,0.300667,3.05678
311,-0.03689,0.300667,3.05678
312,-0.03688,0.300667,3.07348
313,-0.03687,0.300667,3.04008
314,-0.03686,0.300667,3.04008
315,-0.03685,0.300667,3.04008
316,-0.03684,0.300667,3.00667
317,-0.03683,0.300667,3.04008
318,-0.03682,0.300667,2.98997
319,-0.03681,0.300667,2.98997
320,-0.0368,0.300667,3.00667
321,-0.03679,0.300667,2.97326
322,-0.03678,0.300667,2.97326
323,-0.03677,0.300667,2.97326
324,-0.03676,0.300667,2.95656
325,-0.03675,0.300667,2.97326
326,-0.03674,0.300667,2.93986
327,-0.03673,0.300667,2.93986
328,-0.03672,0.300667,2.93986
329,-0.03671,0.300667,2.93986
330,-0.0367,0.300667,2.92315
331,-0.03669,0.300667,2.92315
332,-0.03668,0.300667,2.93986
333,-0.03667,0.300667,2.90645
334,-0.03666,0.300667,2.90645
335,-0.03665,0.300667,2.90645
336,-0.03664,0.300667,2.90645
337,-0.03663,0.300667,2.88974
338,-0.03662,0.300667,2.90645
339,-0.03661,0.300667,2.87304
340,-0.0366,0.300667,2.87304
341,-0.03659,0.300667,2.87304
342,-0.03658,0.300667,2.87304
343,-0.03657,0.300667,2.85634
344,-0.03656,0.300667,2.85634
345,-0.03655,0.300667,2.85634
346,-0.03654,0.300667,2.85634
347,-0.03653,0.300667,2.83963
348,-0.03652,0.300667,2.85634
349,-0.03651,0.300667,2.82293
350,-0.0365,0.300667,2.82293
351,-0.03649,0.300667,2.83963
352,-0.03648,0.300667,2.80623
353,-0.03647,0.300667,2.80623
354,-0.03646,0.300667,2.80623
355,-0.03645,0.300667,2.77282
356,-0.03644,0.300667,2.77282
357,-0.03643,0.300667,2.77282
358,-0.03642,0.300667,2.77282
359,-0.03641,0.300667,2.75611
360,-0.0364,0.300667,2.75611
361,-0.03639,0.300667,2.75611
362,-0.03638,0.300667,2.75611
363,-0.03637,0.300667,2.73941
364,-0.03636,0.300667,2.73941
365,-0.03635,0.300667,2.75611
366,-0.03634,0.300667,2.72271
367,-0.03633,0.300667,2.72271
368,-0.03632,0.300667,2.72271
369,-0.03631,0.300667,2.706
370,-0.0363,0.300667,2.706
371,-0.03629,0.300667,2.72271
372,-0.03628,0.300667,2.6893
373,-0.03627,0.300667,2.6893
374,-0.03626,0.300667,2.6893
375,-0.03625,0.300667,2.6893
376,-0.03624,0.300667,2.6726
377,-0.03623,0.300667,2.6726
378,-0.03622,0.300667,2.6893
379,-0.03621,0.300667,2.65589
380,-0.0362,0.300667,2.65589
381,-0.03619,0.300667,2.6726
382,-0.03618,0.300667,2.63919
383,-0.03617,0.300667,2.63919
384,-0.03616,0.300667,2.63919
385,-0.03615,0.300667,2.63919
386,-0.03614,0.300667,2.62248
387,-0.03613,0.300667,2.62248
388,-0.03612,0.300667,2.62248
389,-0.03611,0.300667,2.62248
390,-0.0361,0.300667,2.60578
391,-0.03609,0.300667,2.60578
392,-0.03608,0.300667,2.60578
393,-0.03607,0.300667,2.62248
394,-0.03606,0.300667,2.58908
395,-0.03605,0.300667,2.58908
396,-0.03604,0.300667,2.58908
397,-0.03603,0.300667,2.57237
398,-0.03602,0.300667,2.57237
399,-0.03601,0.300667,2.57237
400,-0.036,0.300667,2.53897
401,-0.03599,0.300667,2.53897
402,-0.03598,0.300667,2.53897
403,-0.03597,0.300667,2.52226
404,-0.03596,0.300667,2.52226
405,-0.03595,0.300667,2.53897
406,-0.03594,0.300667,2.50556
407,-0.03593,0.300667,2.50556
408,-0.03592,0.300667,2.52226
409,-0.03591,0.300667,2.48885
410,-0.0359,0.300667,2.48885
411,-0.03589,0.300667,2.48885
412,-0.03588,0.300667,2.48885
413,-0.03587,0.300667,2.47215
414,-0.03586,0.300667,2.47215
415,-0.03585,0.300667,2.47215
416,-0.03584,0.300667,2.47215
417,-0.03583,0.300667,2.45545
418,-0.03582,0.300667,2.45545
419,-0.03581,0.300667,2.45545
420,-0.0358,0.300667,2.47215
421,-0.03579,0.300667,2.43874
422,-0.03578,0.300667,2.43874
423,-0.03577,0.300667,2.43874
424,-0.03576,0.300667,2.45545
425,-0.03575,0.300667,2.42204
426,-0.03574,0.300667,2.42204
427,-0.03573,0.300667,2.43874
428,-0.03572,0.300667,2.40534
429,-0.03571,0.300667,2.40534
430,-0.0357,0.300667,2.40534
431,-0.03569,0.300667,2.42204
432,-0.03568,0.300667,2.38863
433,-0.03567,0.300667,2.38863
434,-0.03566,0.300667,2.38863
435,-0.03565,0.300667,2.40534
436,-0.03564,0.300667,2.37193
437,-0.03563,0.300667,2.37193
438,-0.03562,0.300667,2.37193
439,-0.03561,0.300667,2.38863
440,-0.0356,0.300667,2.35522
441,-0.03559,0.300667,2.35522
442,-0.03558,0.300667,2.35522
443,-0.03557,0.300667,2.35522
444,-0.03556,0.300667,2.33852
445,-0.03555,0.300667,2.33852
446,-0.03554,0.300667,2.35522
447,-0.03553,0.300667,2.30511
448,-0.03552,0.300667,2.30511
449,-0.03551,0.300667,2.30511
450,-0.0355,0.300667,2.30511
451,-0.03549,0.300667,2.28841
452,-0.03548,0.300667,2.28841
453,-0.03547,0.300667,2.28841
454,-0.03546,0.300667,2.28841
455,-0.03545,0.300667,2.27171
456,-0.03544,0.300667,2.27171
457,-0.03543,0.300667,2.27171
458,-0.03542,0.300667,2.27171
459,-0.03541,0.300667,2.255
460,-0.0354,0.300667,2.255
461,-0.03539,0.300667,2.255
462,-0.03538,0.300667,2.255
463,-0.03537,0.300667,2.2383
464,-0.03536,0.300667,2.2383
465,-0.03535,0.300667,2.2383
466,-0.03534,0.300667,2.2383
467,-0.03533,0.300667,2.2216
468,-0.03532,0.300667,2.2216
469,-0.03531,0.300667,2.2216
470,-0.0353,0.300667,2.2216
471,-0.03529,0.300667,2.20489
472,-0.03528,0.300667,2.20489
473,-0.03527,0.300667,2.20489
474,-0.03526,0.300667,2.20489
475,-0.03525,0.300667,2.20489
476,-0.03524,0.300667,2.18819
477,-0.03523,0.300667,2.18819
478,-0.03522,0.300667,2.18819
479,-0.03521,0.300667,2.18819
480,-0.0352,0.300667,2.17148
481,-0.03519,0.300667,2.17148
482,-0.03518,0.300667,2.17148
483,-0.03517,0.300667,2.17148
484,-0.03516,0.300667,2.15478
485,-0.03515,0.300667,2.15478
486,-0.03514,0.300667,2.15478
487,-0.03513,0.300667,2.15478
488,-0.03512,0.300667,2.13808
489,-0.03511,0.300667,2.13808
490,-0.0351,0.300667,2.13808
491,-0.03509,0.300667,2.13808
492,-0.03508,0.300667,2.12137
493,-0.03507,0.300667,2.12137
494,-0.03506,0.300667,2.12137
495,-0.03505,0.300667,2.12137
496,-0.03504,0.300667,2.12137
497,-0.03503,0.300667,2.10467
498,-0.03502,0.300667,2.10467
499,-0.03501,0.300667,2.10467
500,-0.035,0.300667,2.10467
501,-0.03499,0.300667,2.10467
502,-0.03498,0.300667,2.07126
503,-0.03497,0.300667,2.07126
504,-0.03496,0.300667,2.07126
505,-0.03495,0.300667,2.07126
506,-0.03494,0.300667,2.05456
507,-0.03493,0.300667,2.05456
508,-0.03492,0.300667,2.05456
509,-0.03491,0.300667,2.05456
510,-0.0349,0.300667,2.03785
511,-0.03489,0.300667,2.03785
512,-0.03488,0.300667,2.03785
513,-0.03487,0.300667,2.03785
514,-0.03486,0.300667,2.02115
515,-0.03485,0.300667,2.02115
516,-0.03484,0.300667,2.02115
517,-0.03483,0.300667,2.02115
518,-0.03482,0.300667,2.02115
519,-0.03481,0.300667,2.02115
520,-0.0348,0.300667,2.00445
521,-0.03479,0.300667,2.00445
522,-0.03478,0.300667,2.00445
523,-0.03477,0.300667,2.00445
524,-0.03476,0.300667,1.98774
525,-0.03475,0.300667,1.98774
526,-0.03474,0.300667,1.98774
527,-0.03473,0.300667,1.98774
528,-0.03472,0.300667,1.97104
529,-0.03471,0.300667,1.97104
530,-0.0347,0.300667,1.97104
531,-0.03469,0.300667,1.97104
532,-0.03468,0.300667,1.95434
533,-0.03467,0.300667,1.95434
534,-0.03466,0.300667,1.95434
535,-0.03465,0.300667,1.95434
536,-0.03464,0.300667,1.95434
537,-0.03463,0.300667,1.93763
538,-0.03462,0.300667,1.93763
539,-0.03461,0.300667,1.93763
540,-0.0346,0.300667,1.93763
541,-0.03459,0.300667,1.93763
542,-0.03458,0.300667,1.92093
543,-0.03457,0.300667,1.92093
544,-0.03456,0.300667,1.92093
545,-0.03455,0.300667,1.92093
546,-0.03454,0.300667,1.92093
547,-0.03453,0.300667,1.90422
548,-0.03452,0.300667,1.90422
549,-0.03451,0.300667,1.90422
550,-0.0345,0.300667,1.90422
551,-0.03449,0.300667,1.88752
552,-0.03448,0.300667,1.88752
553,-0.03447,0.300667,1.88752
554,-0.03446,0.300667,1.88752
555,-0.03445,0.300667,1.88752
556,-0.03444,0.300667,1.87082
557,-0.03443,0.300667,1.87082
558,-0.03442,0.300667,1.87082
559,-0.03441,0.300667,1.87082
560,-0.0344,0.300667,1.87082
561,-0.03439,0.300667,1.83741
562,-0.03438,0.300667,1.83741
563,-0.03437,0.300667,1.83741
564,-0.03436,0.300667,1.83741
565,-0.03435,0.300667,1.83741
566,-0.03434,0.300667,1.82071
567,-0.03433,0.300667,1.82071
568,-0.03432,0.300667,1.82071
569,-0.03431,0.300667,1.82071
570,-0.0343,0.300667,1.804
571,-0.03429,0.300667,1.804
572,-0.03428,0.300667,1.804
573,-0.03427,0.300667,1.804
574,-0.03426,0.300667,1.804
575,-0.03425,0.300667,1.804
576,-0.03424,0.300667,1.7873
577,-0.03423,0.300667,1.7873
578,-0.03422,0.300667,1.7873
579,-0.03421,0.300667,1.7873
580,-0.0342,0.300667,1.7873
581,-0.03419,0.300667,1.77059
582,-0.03418,0.300667,1.77059
583,-0.03417,0.300667,1.77059
584,-0.03416,0.300667,1.77059
585,-0.03415,0.300667,1.77059
586,-0.03414,0.300667,1.75389
587,-0.03413,0.300667,1.75389
588,-0.03412,0.300667,1.75389
589,-0.03411,0.300667,1.75389
590,-0.0341,0.300667,1.75389
591,-0.03409,0.300667,1.73719
592,-0.03408,0.300667,1.73719
593,-0.03407,0.300667,1.73719
594,-0.03406,0.300667,1.73719
595,-0.03405,0.300667,1.73719
596,-0.03404,0.300667,1.72048
597,-0.03403,0.300667,1.72048
598,-0.03402,0.300667,1.72048
599,-0.03401,0.300667,1.72048
600,-0.034,0.300667,1.70378
601,-0.03399,0.300667,1.70378
602,-0.03398,0.300667,1.70378
603,-0.03397,0.300667,1.70378
604,-0.03396,0.300667,1.70378
605,-0.03395,0.300667,1.70378
606,-0.03394,0.300667,1.70378
607,-0.03393,0.300667,1.68708
608,-0.03392,0.300667,1.68708
609,-0.03391,0.300667,1.68708
610,-0.0339,0.300667,1.68708
611,-0.03389,0.300667,1.68708
612,-0.03388,0.300667,1.67037
613,-0.03387,0.300667,1.67037
614,-0.03386,0.300667,1.67037
615,-0.03385,0.300667,1.67037
616,-0.03384,0.300667,1.67037
617,-0.03383,0.300667,1.65367
618,-0.03382,0.300667,1.65367
619,-0.03381,0.300667,1.65367
620,-0.0338,0.300667,1.65367
621,-0.03379,0.300667,1.65367
622,-0.03378,0.300667,1.65367
623,-0.03377,0.300667,1.63696
624,-0.03376,0.300667,1.63696
625,-0.03375,0.300667,1.63696
626,-0.03374,0.300667,1.63696
627,-0.03373,0.300667,1.63696
628,-0.03372,0.300667,1.60356
629,-0.03371,0.300667,1.60356
630,-0.0337,0.300667,1.60356
631,-0.03369,0.300667,1.60356
632,-0.03368,0.300667,1.60356
633,-0.03367,0.300667,1.58685
634,-0.03366,0.300667,1.58685
635,-0.03365,0.300667,1.58685
636,-0.03364,0.300667,1.58685
637,-0.03363,0.300667,1.58685
638,-0.03362,0.300667,1.57015
639,-0.03361,0.300667,1.57015
640,-0.0336,0.300667,1.57015
641,-0.03359,0.300667,1.57015
642,-0.03358,0.300667,1.57015
643,-0.03357,0.300667,1.57015
644,-0.03356,0.300667,1.57015
645,-0.03355,0.300667,1.55345
646,-0.03354,0.300667,1.55345
647,-0.03353,0.300667,1.55345
648,-0.03352,0.300667,1.55345
649,-0.03351,0.300667,1.53674
650,-0.0335,0.300667,1.53674
651,-0.03349,0.300667,1.53674
652,-0.03348,0.300667,1.53674
653,-0.03347,0.300667,1.52004
654,-0.03346,0.300667,1.52004
655,-0.03345,0.300667,1.52004
656,-0.03344,0.300667,1.52004
657,-0.03343,0.300667,1.52004
658,-0.03342,0.300667,1.52004
659,-0.03341,0.300667,1.52004
660,-0.0334,0.300667,1.52004
661,-0.03339,0.300667,1.50333
662,-0.03338,0.300667,1.50333
663,-0.03337,0.300667,1.50333
664,-0.03336,0.300667,1.50333
665,-0.03335,0.300667,1.50333
666,-0.03334,0.300667,1.50333
667,-0.03333,0.300667,1.48663
668,-0.03332,0.300667,1.48663
