Mesures/Data/O1_4ms_10v.csv

;Scopy version,f4beeb1
;Exported on,Wednesday May 15/05/2024
;Device,M2K
;Nr of samples,6400
;Sample rate,100000
;Tool,Oscilloscope
;Additional Information,
Sample,Time(S),CH1(V)
0,-0.032,-13.1124
1,-0.03199,-13.1124
2,-0.03198,-13.1124
3,-0.03197,-13.1124
4,-0.03196,-13.1124
5,-0.03195,-13.1124
6,-0.03194,-13.0957
7,-0.03193,-13.1124
8,-0.03192,-13.1124
9,-0.03191,-13.1124
10,-0.0319,-13.0957
11,-0.03189,-13.1291
12,-0.03188,-13.0957
13,-0.03187,-13.0957
14,-0.03186,-13.0957
15,-0.03185,-13.0957
16,-0.03184,-13.1124
17,-0.03183,-13.1291
18,-0.03182,-13.0957
19,-0.03181,-13.1124
20,-0.0318,-13.0957
21,-0.03179,-13.0957
22,-0.03178,-13.0957
23,-0.03177,-13.0957
24,-0.03176,-13.0957
25,-0.03175,-13.0957
26,-0.03174,-13.0957
27,-0.03173,-13.0957
28,-0.03172,-13.0957
29,-0.03171,-13.0957
30,-0.0317,-13.0957
31,-0.03169,-13.0957
32,-0.03168,-13.1291
33,-0.03167,-13.0957
34,-0.03166,-13.0957
35,-0.03165,-13.0957
36,-0.03164,-13.0957
37,-0.03163,-13.0957
38,-0.03162,-13.0957
39,-0.03161,-13.0957
40,-0.0316,-13.0957
41,-0.03159,-13.0957
42,-0.03158,-13.0957
43,-0.03157,-13.0957
44,-0.03156,-13.0957
45,-0.03155,-13.0957
46,-0.03154,-13.0957
47,-0.03153,-13.0957
48,-0.03152,-13.0957
49,-0.03151,-13.0957
50,-0.0315,-13.0957
51,-0.03149,-13.0957
52,-0.03148,-13.1124
53,-0.03147,-13.079
54,-0.03146,-13.0957
55,-0.03145,-13.0957
56,-0.03144,-13.0957
57,-0.03143,-13.0957
58,-0.03142,-13.079
59,-0.03141,-13.0957
60,-0.0314,-13.079
61,-0.03139,-13.1124
62,-0.03138,-13.0957
63,-0.03137,-13.0957
64,-0.03136,-13.079
65,-0.03135,-13.079
66,-0.03134,-13.079
67,-0.03133,-13.079
68,-0.03132,-13.079
69,-0.03131,-13.079
70,-0.0313,-13.079
71,-0.03129,-13.079
72,-0.03128,-13.079
73,-0.03127,-13.079
74,-0.03126,-13.079
75,-0.03125,-13.079
76,-0.03124,-13.079
77,-0.03123,-13.079
78,-0.03122,-13.079
79,-0.03121,-13.079
80,-0.0312,-13.079
81,-0.03119,-13.079
82,-0.03118,-13.079
83,-0.03117,-13.079
84,-0.03116,-13.079
85,-0.03115,-13.079
86,-0.03114,-13.079
87,-0.03113,-13.079
88,-0.03112,-13.079
89,-0.03111,-13.079
90,-0.0311,-13.079
91,-0.03109,-13.079
92,-0.03108,-13.079
93,-0.03107,-13.079
94,-0.03106,-13.079
95,-0.03105,-13.0957
96,-0.03104,-13.0623
97,-0.03103,-13.079
98,-0.03102,-13.079
99,-0.03101,-13.079
100,-0.031,-13.079
101,-0.03099,-13.0623
102,-0.03098,-13.0623
103,-0.03097,-13.079
104,-0.03096,-13.0623
105,-0.03095,-13.0623
106,-0.03094,-13.0623
107,-0.03093,-13.0623
108,-0.03092,-13.0623
109,-0.03091,-13.0623
110,-0.0309,-13.0623
111,-0.03089,-13.0623
112,-0.03088,-13.0623
113,-0.03087,-13.0623
114,-0.03086,-13.0623
115,-0.03085,-13.0623
116,-0.03084,-13.0623
117,-0.03083,-13.0623
118,-0.03082,-13.0623
119,-0.03081,-13.0623
120,-0.0308,-13.0623
121,-0.03079,-13.0623
122,-0.03078,-13.0623
123,-0.03077,-13.0623
124,-0.03076,-13.0623
125,-0.03075,-13.0289
126,-0.03074,-13.0289
127,-0.03073,-13.0289
128,-0.03072,-13.0289
129,-0.03071,-13.0289
130,-0.0307,-13.0289
131,-0.03069,-13.0289
132,-0.03068,-13.0289
133,-0.03067,-13.0289
134,-0.03066,-13.0289
135,-0.03065,-13.0289
136,-0.03064,-13.0289
137,-0.03063,-13.0289
138,-0.03062,-13.0289
139,-0.03061,-13.0289
140,-0.0306,-13.0122
141,-0.03059,-13.0122
142,-0.03058,-13.0122
143,-0.03057,-13.0122
144,-0.03056,-13.0122
145,-0.03055,-13.0122
146,-0.03054,-13.0122
147,-0.03053,-13.0122
148,-0.03052,-12.9955
149,-0.03051,-12.9955
150,-0.0305,-12.9955
151,-0.03049,-12.9621
152,-0.03048,-13.1959
153,-0.03047,-3.44097
154,-0.03046,11.6258
155,-0.03045,10.7071
156,-0.03044,10.7572
157,-0.03043,10.7238
158,-0.03042,10.6904
159,-0.03041,10.7572
160,-0.0304,10.9576
161,-0.03039,10.8741
162,-0.03038,10.7906
163,-0.03037,11.0579
164,-0.03036,11.0913
165,-0.03035,10.9409
166,-0.03034,11.2082
167,-0.03033,11.2416
168,-0.03032,11.0579
169,-0.03031,11.3752
170,-0.0303,11.4253
171,-0.03029,11.2082
172,-0.03028,11.4755
173,-0.03027,11.6091
174,-0.03026,11.3752
175,-0.03025,11.5924
176,-0.03024,11.726
177,-0.03023,11.4922
178,-0.03022,11.6759
179,-0.03021,11.8262
180,-0.0302,11.6592
181,-0.03019,11.726
182,-0.03018,11.893
183,-0.03017,11.7928
184,-0.03016,11.7427
185,-0.03015,11.9766
186,-0.03014,11.893
187,-0.03013,11.7761
188,-0.03012,12.0267
189,-0.03011,12.01
190,-0.0301,11.8429
191,-0.03009,12.0935
192,-0.03008,12.1102
193,-0.03007,11.893
194,-0.03006,12.1269
195,-0.03005,12.177
196,-0.03004,11.9432
197,-0.03003,12.1436
198,-0.03002,12.2271
199,-0.03001,11.9933
200,-0.03,12.1603
201,-0.02999,12.2772
202,-0.02998,12.0768
203,-0.02997,12.1603
204,-0.02996,12.3273
205,-0.02995,12.1603
206,-0.02994,12.1603
207,-0.02993,12.3441
208,-0.02992,12.2438
209,-0.02991,12.1436
210,-0.0299,12.3775
211,-0.02989,12.3273
212,-0.02988,12.1603
213,-0.02987,12.3942
214,-0.02986,12.3775
215,-0.02985,12.1436
216,-0.02984,12.3942
217,-0.02983,12.4276
218,-0.02982,12.177
219,-0.02981,12.3775
220,-0.0298,12.461
221,-0.02979,12.1937
222,-0.02978,12.3775
223,-0.02977,12.1603
224,-0.02976,13.8641
225,-0.02975,-12.1603
226,-0.02974,-13.1291
227,-0.02973,-13.5634
228,-0.02972,-13.4799
229,-0.02971,-13.363
230,-0.0297,-13.2795
231,-0.02969,-13.2126
232,-0.02968,-13.1625
233,-0.02967,-13.1291
234,-0.02966,-13.1124
235,-0.02965,-13.079
236,-0.02964,-13.0623
237,-0.02963,-13.0623
238,-0.02962,-13.0289
239,-0.02961,-13.0289
240,-0.0296,-13.0289
241,-0.02959,-13.0289
242,-0.02958,-13.0289
243,-0.02957,-13.0122
244,-0.02956,-13.0122
245,-0.02955,-13.0122
246,-0.02954,-13.0122
247,-0.02953,-13.0122
248,-0.02952,-13.0122
249,-0.02951,-13.0122
250,-0.0295,-13.0122
251,-0.02949,-13.0122
252,-0.02948,-13.0122
253,-0.02947,-13.0122
254,-0.02946,-13.0122
255,-0.02945,-13.0122
256,-0.02944,-13.0289
257,-0.02943,-13.0122
258,-0.02942,-13.0122
259,-0.02941,-13.0122
260,-0.0294,-13.0289
261,-0.02939,-13.0289
262,-0.02938,-13.0289
263,-0.02937,-13.0289
264,-0.02936,-13.0289
265,-0.02935,-13.0289
266,-0.02934,-13.0289
267,-0.02933,-13.0289
268,-0.02932,-13.0289
269,-0.02931,-13.0289
270,-0.0293,-13.0289
271,-0.02929,-13.0289
272,-0.02928,-13.0289
273,-0.02927,-13.0289
274,-0.02926,-13.0289
275,-0.02925,-13.0289
276,-0.02924,-13.0289
277,-0.02923,-13.0289
278,-0.02922,-13.0289
279,-0.02921,-13.0289
280,-0.0292,-13.0289
281,-0.02919,-13.0289
282,-0.02918,-13.0289
283,-0.02917,-13.0289
284,-0.02916,-13.0289
285,-0.02915,-13.0289
286,-0.02914,-13.0289
287,-0.02913,-13.0289
288,-0.02912,-13.0289
289,-0.02911,-13.0289
290,-0.0291,-13.0289
291,-0.02909,-13.0289
292,-0.02908,-13.0289
293,-0.02907,-13.0289
294,-0.02906,-13.0289
295,-0.02905,-13.0289
296,-0.02904,-13.0289
297,-0.02903,-13.0289
298,-0.02902,-13.0289
299,-0.02901,-13.0289
300,-0.029,-13.0289
301,-0.02899,-13.0289
302,-0.02898,-13.0289
303,-0.02897,-13.0289
304,-0.02896,-13.0289
305,-0.02895,-13.0289
306,-0.02894,-13.0289
307,-0.02893,-13.0289
308,-0.02892,-13.0289
309,-0.02891,-13.0289
310,-0.0289,-13.0289
311,-0.02889,-13.0623
312,-0.02888,-13.0289
313,-0.02887,-13.0289
314,-0.02886,-13.0289
315,-0.02885,-13.0289
316,-0.02884,-13.0289
317,-0.02883,-13.0289
318,-0.02882,-13.0289
319,-0.02881,-13.0289
320,-0.0288,-13.079
321,-0.02879,-13.0289
322,-0.02878,-13.0623
323,-0.02877,-13.0623
324,-0.02876,-13.0623
325,-0.02875,-13.0289
326,-0.02874,-13.0289
327,-0.02873,-13.0623
328,-0.02872,-13.0623
329,-0.02871,-13.0623
330,-0.0287,-13.0623
331,-0.02869,-13.0623
332,-0.02868,-13.0623
333,-0.02867,-13.0623
334,-0.02866,-13.0623
335,-0.02865,-13.0623
336,-0.02864,-13.0623
337,-0.02863,-13.0623
338,-0.02862,-13.0623
339,-0.02861,-13.0623
340,-0.0286,-13.0623
341,-0.02859,-13.0623
342,-0.02858,-13.0623
343,-0.02857,-13.0623
344,-0.02856,-13.0623
345,-0.02855,-13.0623
346,-0.02854,-13.0623
347,-0.02853,-13.0623
348,-0.02852,-13.0623
349,-0.02851,-13.0623
350,-0.0285,-13.0623
351,-0.02849,-13.0623
352,-0.02848,-13.0623
353,-0.02847,-13.0623
354,-0.02846,-13.0623
355,-0.02845,-13.0623
356,-0.02844,-13.0623
357,-0.02843,-13.0623
358,-0.02842,-13.0623
359,-0.02841,-13.0623
360,-0.0284,-13.0623
361,-0.02839,-13.0623
362,-0.02838,-13.0623
363,-0.02837,-13.0623
364,-0.02836,-13.0623
365,-0.02835,-13.0623
366,-0.02834,-13.0623
367,-0.02833,-13.0623
368,-0.02832,-13.0623
369,-0.02831,-13.0623
370,-0.0283,-13.0623
371,-0.02829,-13.0623
372,-0.02828,-13.0623
373,-0.02827,-13.0623
374,-0.02826,-13.0623
375,-0.02825,-13.0623
376,-0.02824,-13.0623
377,-0.02823,-13.0623
378,-0.02822,-13.0623
379,-0.02821,-13.0623
380,-0.0282,-13.0623
381,-0.02819,-13.0623
382,-0.02818,-13.0623
383,-0.02817,-13.0623
384,-0.02816,-13.0623
385,-0.02815,-13.0623
386,-0.02814,-13.0623
387,-0.02813,-13.0623
388,-0.02812,-13.0623
389,-0.02811,-13.0623
390,-0.0281,-13.0623
391,-0.02809,-13.0623
392,-0.02808,-13.0623
393,-0.02807,-13.0623
394,-0.02806,-13.0623
395,-0.02805,-13.0623
396,-0.02804,-13.0623
397,-0.02803,-13.0623
398,-0.02802,-13.0623
399,-0.02801,-13.0623
400,-0.028,-13.0623
401,-0.02799,-13.0623
402,-0.02798,-13.0623
403,-0.02797,-13.0623
404,-0.02796,-13.0623
405,-0.02795,-13.0623
406,-0.02794,-13.0623
407,-0.02793,-13.0623
408,-0.02792,-13.0623
409,-0.02791,-13.0623
410,-0.0279,-13.0623
411,-0.02789,-13.0623
412,-0.02788,-13.0623
413,-0.02787,-13.0623
414,-0.02786,-13.0623
415,-0.02785,-13.0623
416,-0.02784,-13.0623
417,-0.02783,-13.0623
418,-0.02782,-13.0623
419,-0.02781,-13.0623
420,-0.0278,-13.0623
421,-0.02779,-13.0623
422,-0.02778,-13.0623
423,-0.02777,-13.0623
424,-0.02776,-13.0623
425,-0.02775,-13.0623
426,-0.02774,-13.0623
427,-0.02773,-13.0623
428,-0.02772,-13.0623
429,-0.02771,-13.0623
430,-0.0277,-13.0623
431,-0.02769,-13.0623
432,-0.02768,-13.0623
433,-0.02767,-13.0623
434,-0.02766,-13.0623
435,-0.02765,-13.0623
436,-0.02764,-13.0623
437,-0.02763,-13.0623
438,-0.02762,-13.0623
439,-0.02761,-13.0623
440,-0.0276,-13.0623
441,-0.02759,-13.0623
442,-0.02758,-13.0623
443,-0.02757,-13.0623
444,-0.02756,-13.0623
445,-0.02755,-13.0623
446,-0.02754,-13.0623
447,-0.02753,-13.0623
448,-0.02752,-13.0623
449,-0.02751,-13.0623
450,-0.0275,-13.0623
451,-0.02749,-13.0623
452,-0.02748,-13.0623
453,-0.02747,-13.0623
454,-0.02746,-13.0623
455,-0.02745,-13.0623
456,-0.02744,-13.0623
457,-0.02743,-13.0623
458,-0.02742,-13.0623
459,-0.02741,-13.0623
460,-0.0274,-13.0623
461,-0.02739,-13.0623
462,-0.02738,-13.0623
463,-0.02737,-13.0623
464,-0.02736,-13.0623
465,-0.02735,-13.0623
466,-0.02734,-13.0623
467,-0.02733,-13.0623
468,-0.02732,-13.0623
469,-0.02731,-13.0623
470,-0.0273,-13.0623
471,-0.02729,-13.0623
472,-0.02728,-13.0623
473,-0.02727,-13.0623
474,-0.02726,-13.0623
475,-0.02725,-13.0623
476,-0.02724,-13.0623
477,-0.02723,-13.0623
478,-0.02722,-13.079
479,-0.02721,-13.0623
480,-0.0272,-13.079
481,-0.02719,-13.079
482,-0.02718,-13.0623
483,-0.02717,-13.0623
484,-0.02716,-13.0623
485,-0.02715,-13.0623
486,-0.02714,-13.0623
487,-0.02713,-13.079
488,-0.02712,-13.079
489,-0.02711,-13.0623
490,-0.0271,-13.0623
491,-0.02709,-13.0957
492,-0.02708,-13.079
493,-0.02707,-13.0623
494,-0.02706,-13.079
495,-0.02705,-13.079
496,-0.02704,-13.079
497,-0.02703,-13.079
498,-0.02702,-13.079
499,-0.02701,-13.0623
500,-0.027,-13.0623
501,-0.02699,-13.0623
502,-0.02698,-13.0623
503,-0.02697,-13.079
504,-0.02696,-13.079
505,-0.02695,-13.079
506,-0.02694,-13.079
507,-0.02693,-13.079
508,-0.02692,-13.079
509,-0.02691,-13.079
510,-0.0269,-13.079
511,-0.02689,-13.079
512,-0.02688,-13.079
513,-0.02687,-13.079
514,-0.02686,-13.0623
515,-0.02685,-13.0957
516,-0.02684,-13.079
517,-0.02683,-13.079
518,-0.02682,-13.079
519,-0.02681,-13.079
520,-0.0268,-13.079
521,-0.02679,-13.079
522,-0.02678,-13.079
523,-0.02677,-13.079
524,-0.02676,-13.079
525,-0.02675,-13.079
526,-0.02674,-13.079
527,-0.02673,-13.079
528,-0.02672,-13.079
529,-0.02671,-13.079
530,-0.0267,-13.079
531,-0.02669,-13.079
532,-0.02668,-13.079
533,-0.02667,-13.079
534,-0.02666,-13.079
535,-0.02665,-13.079
536,-0.02664,-13.079
537,-0.02663,-13.079
538,-0.02662,-13.079
539,-0.02661,-13.079
540,-0.0266,-13.079
541,-0.02659,-13.079
542,-0.02658,-13.079
543,-0.02657,-13.079
544,-0.02656,-13.079
545,-0.02655,-13.079
546,-0.02654,-13.079
547,-0.02653,-13.079
548,-0.02652,-13.079
549,-0.02651,-13.079
550,-0.0265,-13.079
551,-0.02649,-13.079
552,-0.02648,-13.079
553,-0.02647,-13.079
554,-0.02646,-13.079
555,-0.02645,-13.079
556,-0.02644,-13.079
557,-0.02643,-13.079
558,-0.02642,-13.079
559,-0.02641,-13.079
560,-0.0264,-13.079
561,-0.02639,-13.079
562,-0.02638,-13.079
563,-0.02637,-13.079
564,-0.02636,-13.079
565,-0.02635,-13.079
566,-0.02634,-13.079
567,-0.02633,-13.079
568,-0.02632,-13.079
569,-0.02631,-13.079
570,-0.0263,-13.079
571,-0.02629,-13.079
572,-0.02628,-13.079
573,-0.02627,-13.079
574,-0.02626,-13.079
575,-0.02625,-13.079
576,-0.02624,-13.079
577,-0.02623,-13.079
578,-0.02622,-13.079
579,-0.02621,-13.079
580,-0.0262,-13.079
581,-0.02619,-13.079
582,-0.02618,-13.079
583,-0.02617,-13.079
584,-0.02616,-13.079
585,-0.02615,-13.079
586,-0.02614,-13.079
587,-0.02613,-13.079
588,-0.02612,-13.079
589,-0.02611,-13.079
590,-0.0261,-13.079
591,-0.02609,-13.079
592,-0.02608,-13.079
593,-0.02607,-13.079
594,-0.02606,-13.079
595,-0.02605,-13.079
596,-0.02604,-13.079
597,-0.02603,-13.079
598,-0.02602,-13.079
599,-0.02601,-13.079
600,-0.026,-13.079
601,-0.02599,-13.079
602,-0.02598,-13.079
603,-0.02597,-13.079
604,-0.02596,-13.079
605,-0.02595,-13.079
606,-0.02594,-13.079
607,-0.02593,-13.079
608,-0.02592,-13.079
609,-0.02591,-13.079
610,-0.0259,-13.079
611,-0.02589,-13.079
612,-0.02588,-13.079
613,-0.02587,-13.079
614,-0.02586,-13.079
615,-0.02585,-13.079
616,-0.02584,-13.079
617,-0.02583,-13.079
618,-0.02582,-13.079
619,-0.02581,-13.079
620,-0.0258,-13.079
621,-0.02579,-13.079
622,-0.02578,-13.079
623,-0.02577,-13.079
624,-0.02576,-13.079
625,-0.02575,-13.079
626,-0.02574,-13.079
627,-0.02573,-13.079
628,-0.02572,-13.079
629,-0.02571,-13.079
630,-0.0257,-13.079
631,-0.02569,-13.079
632,-0.02568,-13.079
633,-0.02567,-13.079
634,-0.02566,-13.079
635,-0.02565,-13.079
636,-0.02564,-13.079
637,-0.02563,-13.079
638,-0.02562,-13.079
639,-0.02561,-13.079
640,-0.0256,-13.079
641,-0.02559,-13.079
642,-0.02558,-13.079
643,-0.02557,-13.079
644,-0.02556,-13.079
645,-0.02555,-13.0957
646,-0.02554,-13.079
647,-0.02553,-13.079
648,-0.02552,-13.079
649,-0.02551,-13.079
650,-0.0255,-13.079
651,-0.02549,-13.079
652,-0.02548,-13.079
653,-0.02547,-13.0957
654,-0.02546,-13.079
655,-0.02545,-13.079
656,-0.02544,-13.079
657,-0.02543,-13.079
658,-0.02542,-13.079
659,-0.02541,-13.079
660,-0.0254,-13.079
661,-0.02539,-13.0957
662,-0.02538,-13.079
663,-0.02537,-13.079
664,-0.02536,-13.1124
665,-0.02535,-13.0623
666,-0.02534,-13.1124
667,-0.02533,-13.079
668,-0.02532,-13.0957
669,-0.02531,-13.0957
670,-0.0253,-13.0957
671,-0.02529,-13.0957
672,-0.02528,-13.0957
673,-0.02527,-13.0957
674,-0.02526,-13.0957
675,-0.02525,-13.079
676,-0.02524,-13.0957
677,-0.02523,-13.0623
678,-0.02522,-13.0957
679,-0.02521,-13.079
680,-0.0252,-13.079
681,-0.02519,-13.0957
682,-0.02518,-13.0957
683,-0.02517,-13.0957
684,-0.02516,-13.0957
685,-0.02515,-13.1124
686,-0.02514,-13.079
687,-0.02513,-13.0957
688,-0.02512,-13.0957
689,-0.02511,-13.0957
690,-0.0251,-13.0957
691,-0.02509,-13.0957
692,-0.02508,-13.0957
693,-0.02507,-13.0957
694,-0.02506,-13.0957
695,-0.02505,-13.079
696,-0.02504,-13.0957
697,-0.02503,-13.0957
698,-0.02502,-13.0957
699,-0.02501,-13.0957
700,-0.025,-13.0957
701,-0.02499,-13.0957
702,-0.02498,-13.0957
703,-0.02497,-13.0957
704,-0.02496,-13.1124
705,-0.02495,-13.079
706,-0.02494,-13.0957
707,-0.02493,-13.0957
708,-0.02492,-13.0957
709,-0.02491,-13.0957
710,-0.0249,-13.0957
711,-0.02489,-13.0957
712,-0.02488,-13.0957
713,-0.02487,-13.0957
714,-0.02486,-13.0957
715,-0.02485,-13.0957
716,-0.02484,-13.0957
717,-0.02483,-13.0957
718,-0.02482,-13.0957
719,-0.02481,-13.0957
720,-0.0248,-13.0957
721,-0.02479,-13.0957
722,-0.02478,-13.0957
723,-0.02477,-13.0957
724,-0.02476,-13.0957
725,-0.02475,-13.0957
726,-0.02474,-13.0957
727,-0.02473,-13.0957
728,-0.02472,-13.0957
729,-0.02471,-13.0957
730,-0.0247,-13.0957
731,-0.02469,-13.0957
732,-0.02468,-13.0957
733,-0.02467,-13.0957
734,-0.02466,-13.0957
735,-0.02465,-13.0957
736,-0.02464,-13.0957
737,-0.02463,-13.0957
738,-0.02462,-13.0957
739,-0.02461,-13.0957
740,-0.0246,-13.0957
741,-0.02459,-13.0957
742,-0.02458,-13.0957
743,-0.02457,-13.0957
744,-0.02456,-13.0957
745,-0.02455,-13.0957
746,-0.02454,-13.0957
747,-0.02453,-13.0957
748,-0.02452,-13.0957
749,-0.02451,-13.0957
750,-0.0245,-13.0957
751,-0.02449,-13.0957
752,-0.02448,-13.0957
753,-0.02447,-13.0957
754,-0.02446,-13.0957
755,-0.02445,-13.0957
756,-0.02444,-13.0957
757,-0.02443,-13.0957
758,-0.02442,-13.0957
759,-0.02441,-13.0957
760,-0.0244,-13.0957
761,-0.02439,-13.0957
762,-0.02438,-13.0957
763,-0.02437,-13.0957
764,-0.02436,-13.0957
765,-0.02435,-13.0957
766,-0.02434,-13.0957
767,-0.02433,-13.0957
768,-0.02432,-13.0957
769,-0.02431,-13.0957
770,-0.0243,-13.0957
771,-0.02429,-13.0957
772,-0.02428,-13.0957
773,-0.02427,-13.0957
774,-0.02426,-13.0957
775,-0.02425,-13.0957
776,-0.02424,-13.0957
777,-0.02423,-13.0957
778,-0.02422,-13.0957
779,-0.02421,-13.0957
780,-0.0242,-13.0957
781,-0.02419,-13.0957
782,-0.02418,-13.0957
783,-0.02417,-13.0957
784,-0.02416,-13.0957
785,-0.02415,-13.0957
786,-0.02414,-13.0957
787,-0.02413,-13.0957
788,-0.02412,-13.0957
789,-0.02411,-13.0957
790,-0.0241,-13.0957
791,-0.02409,-13.0957
792,-0.02408,-13.0957
793,-0.02407,-13.0957
794,-0.02406,-13.0957
795,-0.02405,-13.0957
796,-0.02404,-13.0957
797,-0.02403,-13.0957
798,-0.02402,-13.0957
799,-0.02401,-13.0957
800,-0.024,-13.0957
801,-0.02399,-13.0957
802,-0.02398,-13.0957
803,-0.02397,-13.0957
804,-0.02396,-13.0957
805,-0.02395,-13.0957
806,-0.02394,-13.0957
807,-0.02393,-13.0957
808,-0.02392,-13.0957
809,-0.02391,-13.0957
810,-0.0239,-13.0957
811,-0.02389,-13.0957
812,-0.02388,-13.0957
813,-0.02387,-13.0957
814,-0.02386,-13.0957
815,-0.02385,-13.0957
816,-0.02384,-13.0957
817,-0.02383,-13.0957
818,-0.02382,-13.0957
819,-0.02381,-13.0957
820,-0.0238,-13.0957
821,-0.02379,-13.0957
822,-0.02378,-13.0957
823,-0.02377,-13.0957
824,-0.02376,-13.0957
825,-0.02375,-13.0957
826,-0.02374,-13.0957
827,-0.02373,-13.0957
828,-0.02372,-13.0957
829,-0.02371,-13.0957
830,-0.0237,-13.0957
831,-0.02369,-13.0957
832,-0.02368,-13.0957
833,-0.02367,-13.0957
834,-0.02366,-13.0957
835,-0.02365,-13.0957
836,-0.02364,-13.0957
837,-0.02363,-13.0957
838,-0.02362,-13.0957
839,-0.02361,-13.0957
840,-0.0236,-13.0957
841,-0.02359,-13.0957
842,-0.02358,-13.0957
843,-0.02357,-13.0957
844,-0.02356,-13.0957
845,-0.02355,-13.0957
846,-0.02354,-13.0957
847,-0.02353,-13.0957
848,-0.02352,-13.0957
849,-0.02351,-13.0957
850,-0.0235,-13.0957
851,-0.02349,-13.0957
852,-0.02348,-13.0957
853,-0.02347,-13.0957
854,-0.02346,-13.0957
855,-0.02345,-13.0957
856,-0.02344,-13.0957
857,-0.02343,-13.0957
858,-0.02342,-13.0957
859,-0.02341,-13.0957
860,-0.0234,-13.0957
861,-0.02339,-13.0957
862,-0.02338,-13.0957
863,-0.02337,-13.0957
864,-0.02336,-13.0957
865,-0.02335,-13.0957
866,-0.02334,-13.0957
867,-0.02333,-13.0957
868,-0.02332,-13.0957
869,-0.02331,-13.0957
870,-0.0233,-13.0957
871,-0.02329,-13.0957
872,-0.02328,-13.0957
873,-0.02327,-13.0957
874,-0.02326,-13.0957
875,-0.02325,-13.0957
876,-0.02324,-13.0957
877,-0.02323,-13.0957
878,-0.02322,-13.0957
879,-0.02321,-13.0957
880,-0.0232,-13.0957
881,-0.02319,-13.0957
882,-0.02318,-13.0957
883,-0.02317,-13.0957
884,-0.02316,-13.0957
885,-0.02315,-13.0957
886,-0.02314,-13.0957
887,-0.02313,-13.0957
888,-0.02312,-13.0957
889,-0.02311,-13.1124
890,-0.0231,-13.1124
891,-0.02309,-13.0957
892,-0.02308,-13.0957
893,-0.02307,-13.0957
894,-0.02306,-13.0957
895,-0.02305,-13.0957
896,-0.02304,-13.0957
897,-0.02303,-13.0957
898,-0.02302,-13.0957
899,-0.02301,-13.0957
900,-0.023,-13.0957
901,-0.02299,-13.0957
902,-0.02298,-13.0957
903,-0.02297,-13.0957
904,-0.02296,-13.1124
905,-0.02295,-13.1124
906,-0.02294,-13.0957
907,-0.02293,-13.0957
908,-0.02292,-13.0957
909,-0.02291,-13.0957
910,-0.0229,-13.0957
911,-0.02289,-13.0957
912,-0.02288,-13.0957
913,-0.02287,-13.0957
914,-0.02286,-13.0957
915,-0.02285,-13.0957
916,-0.02284,-13.0957
917,-0.02283,-13.0957
918,-0.02282,-13.0957
919,-0.02281,-13.0957
920,-0.0228,-13.0957
921,-0.02279,-13.0957
922,-0.02278,-13.0957
923,-0.02277,-13.0957
