Mesures/Data/outNE_4ms_5v_1m5.csv

;Scopy version,f4beeb1
;Exported on,Wednesday May 15/05/2024
;Device,M2K
;Nr of samples,6400
;Sample rate,100000
;Tool,Oscilloscope
;Additional Information,
Sample,Time(S),CH1(V)
0,-0.032,0.0501112
1,-0.03199,0.0501112
2,-0.03198,0.0501112
3,-0.03197,0.0501112
4,-0.03196,0.0501112
5,-0.03195,0.0501112
6,-0.03194,0.0501112
7,-0.03193,0.0501112
8,-0.03192,0.0501112
9,-0.03191,0.0501112
10,-0.0319,0.0501112
11,-0.03189,0.0501112
12,-0.03188,0.0501112
13,-0.03187,0.0501112
14,-0.03186,0.0501112
15,-0.03185,0.0501112
16,-0.03184,0.0501112
17,-0.03183,0.0501112
18,-0.03182,0.0501112
19,-0.03181,0.0501112
20,-0.0318,0.0501112
21,-0.03179,0.0501112
22,-0.03178,0.0501112
23,-0.03177,0.0501112
24,-0.03176,0.0501112
25,-0.03175,0.0501112
26,-0.03174,0.0501112
27,-0.03173,0.0501112
28,-0.03172,0.0501112
29,-0.03171,0.0501112
30,-0.0317,0.0501112
31,-0.03169,0.0501112
32,-0.03168,0.0501112
33,-0.03167,0.0501112
34,-0.03166,0.0501112
35,-0.03165,0.0501112
36,-0.03164,0.0501112
37,-0.03163,0.0501112
38,-0.03162,0.0501112
39,-0.03161,0.0501112
40,-0.0316,0.0501112
41,-0.03159,0.0501112
42,-0.03158,0.0501112
43,-0.03157,0.0501112
44,-0.03156,0.0501112
45,-0.03155,0.0501112
46,-0.03154,0.0501112
47,-0.03153,0.0501112
48,-0.03152,0.0501112
49,-0.03151,0.0501112
50,-0.0315,0.0501112
51,-0.03149,0.0501112
52,-0.03148,0.0501112
53,-0.03147,0.0501112
54,-0.03146,0.0501112
55,-0.03145,0.0501112
56,-0.03144,0.0501112
57,-0.03143,0.0501112
58,-0.03142,0.0501112
59,-0.03141,0.0501112
60,-0.0314,0.0501112
61,-0.03139,0.0501112
62,-0.03138,0.0501112
63,-0.03137,0.0501112
64,-0.03136,0.0501112
65,-0.03135,0.0501112
66,-0.03134,0.0501112
67,-0.03133,0.0501112
68,-0.03132,0.0501112
69,-0.03131,0.0501112
70,-0.0313,0.0501112
71,-0.03129,0.0501112
72,-0.03128,0.0501112
73,-0.03127,0.0501112
74,-0.03126,0.0501112
75,-0.03125,0.0501112
76,-0.03124,0.0501112
77,-0.03123,0.0501112
78,-0.03122,0.0501112
79,-0.03121,0.0501112
80,-0.0312,0.0501112
81,-0.03119,0.0501112
82,-0.03118,0.0501112
83,-0.03117,0.0501112
84,-0.03116,0.0501112
85,-0.03115,0.0501112
86,-0.03114,0.0501112
87,-0.03113,0.0501112
88,-0.03112,0.0501112
89,-0.03111,0.0501112
90,-0.0311,0.0501112
91,-0.03109,0.0501112
92,-0.03108,0.0501112
93,-0.03107,0.0501112
94,-0.03106,0.0501112
95,-0.03105,0.0501112
96,-0.03104,0.0501112
97,-0.03103,0.0501112
98,-0.03102,0.0501112
99,-0.03101,0.0501112
100,-0.031,0.0501112
101,-0.03099,0.0501112
102,-0.03098,0.0501112
103,-0.03097,0.0501112
104,-0.03096,0.0501112
105,-0.03095,0.0501112
106,-0.03094,0.0501112
107,-0.03093,0.0501112
108,-0.03092,0.0501112
109,-0.03091,0.0501112
110,-0.0309,0.0501112
111,-0.03089,0.0501112
112,-0.03088,0.13363
113,-0.03087,-0.918705
114,-0.03086,11.8262
115,-0.03085,14.3318
116,-0.03084,14.4654
117,-0.03083,14.3986
118,-0.03082,14.3318
119,-0.03081,14.2984
120,-0.0308,14.2149
121,-0.03079,14.1815
122,-0.03078,14.1815
123,-0.03077,14.1648
124,-0.03076,14.1648
125,-0.03075,14.1313
126,-0.03074,14.1313
127,-0.03073,14.1313
128,-0.03072,14.1146
129,-0.03071,14.1146
130,-0.0307,14.1146
131,-0.03069,14.1146
132,-0.03068,14.1146
133,-0.03067,14.1146
134,-0.03066,14.1146
135,-0.03065,14.1146
136,-0.03064,14.1146
137,-0.03063,14.1146
138,-0.03062,14.1146
139,-0.03061,14.0311
140,-0.0306,14.9832
141,-0.03059,3.17371
142,-0.03058,-0.200445
143,-0.03057,-0.317371
144,-0.03056,-0.233852
145,-0.03055,-0.183741
146,-0.03054,-0.116926
147,-0.03053,-0.0835186
148,-0.03052,-0.0668149
149,-0.03051,-0.0501112
150,-0.0305,0
151,-0.03049,-0.0334074
152,-0.03048,0.0167037
153,-0.03047,0.0167037
154,-0.03046,0.0167037
155,-0.03045,0.0167037
156,-0.03044,0.0334074
157,-0.03043,0.0167037
158,-0.03042,0.0501112
159,-0.03041,0.0501112
160,-0.0304,0.0501112
161,-0.03039,0.0501112
162,-0.03038,0.0501112
163,-0.03037,0.0501112
164,-0.03036,0.0501112
165,-0.03035,0.0501112
166,-0.03034,0.0668149
167,-0.03033,0.0334074
168,-0.03032,0.0501112
169,-0.03031,0.0501112
170,-0.0303,0.0501112
171,-0.03029,0.0501112
172,-0.03028,0.0501112
173,-0.03027,0.0501112
174,-0.03026,0.0501112
175,-0.03025,0.0334074
176,-0.03024,0.0334074
177,-0.03023,0.0334074
178,-0.03022,0.0334074
179,-0.03021,0.0334074
180,-0.0302,0.0334074
181,-0.03019,0.0334074
182,-0.03018,0.0334074
183,-0.03017,0.0334074
184,-0.03016,0.0501112
185,-0.03015,0.0501112
186,-0.03014,0.0501112
187,-0.03013,0.0501112
188,-0.03012,0.0501112
189,-0.03011,0.0501112
190,-0.0301,0.0501112
191,-0.03009,0.0501112
192,-0.03008,0.0501112
193,-0.03007,0.0501112
194,-0.03006,0.0501112
195,-0.03005,0.0501112
196,-0.03004,0.0501112
197,-0.03003,0.0501112
198,-0.03002,0.0501112
199,-0.03001,0.0501112
200,-0.03,0.0501112
201,-0.02999,0.0501112
202,-0.02998,0.0501112
203,-0.02997,0.0501112
204,-0.02996,0.0501112
205,-0.02995,0.0501112
206,-0.02994,0.0501112
207,-0.02993,0.0501112
208,-0.02992,0.0501112
209,-0.02991,0.0501112
210,-0.0299,0.0501112
211,-0.02989,0.0501112
212,-0.02988,0.0501112
213,-0.02987,0.0501112
214,-0.02986,0.0501112
215,-0.02985,0.0501112
216,-0.02984,0.0501112
217,-0.02983,0.0501112
218,-0.02982,0.0501112
219,-0.02981,0.0501112
220,-0.0298,0.0501112
221,-0.02979,0.0501112
222,-0.02978,0.0501112
223,-0.02977,0.0501112
224,-0.02976,0.0501112
225,-0.02975,0.0501112
226,-0.02974,0.0501112
227,-0.02973,0.0501112
228,-0.02972,0.0501112
229,-0.02971,0.0501112
230,-0.0297,0.0501112
231,-0.02969,0.0501112
232,-0.02968,0.0501112
233,-0.02967,0.0501112
234,-0.02966,0.0501112
235,-0.02965,0.0501112
236,-0.02964,0.0501112
237,-0.02963,0.0501112
238,-0.02962,0.0501112
239,-0.02961,0.0501112
240,-0.0296,0.0501112
241,-0.02959,0.0501112
242,-0.02958,0.0501112
243,-0.02957,0.0501112
244,-0.02956,0.0501112
245,-0.02955,0.0501112
246,-0.02954,0.0501112
247,-0.02953,0.0501112
248,-0.02952,0.0501112
249,-0.02951,0.0501112
250,-0.0295,0.0501112
251,-0.02949,0.0501112
252,-0.02948,0.0501112
253,-0.02947,0.0501112
254,-0.02946,0.0501112
255,-0.02945,0.0501112
256,-0.02944,0.0501112
257,-0.02943,0.0501112
258,-0.02942,0.0501112
259,-0.02941,0.0501112
260,-0.0294,0.0501112
261,-0.02939,0.0501112
262,-0.02938,0.0501112
263,-0.02937,0.0501112
264,-0.02936,0.0501112
265,-0.02935,0.0501112
266,-0.02934,0.0501112
267,-0.02933,0.0501112
268,-0.02932,0.0501112
269,-0.02931,0.0501112
270,-0.0293,0.0501112
271,-0.02929,0.0501112
272,-0.02928,0.0501112
273,-0.02927,0.0501112
274,-0.02926,0.0501112
275,-0.02925,0.0501112
276,-0.02924,0.0501112
277,-0.02923,0.0501112
278,-0.02922,0.0501112
279,-0.02921,0.0501112
280,-0.0292,0.0501112
281,-0.02919,0.0501112
282,-0.02918,0.0501112
283,-0.02917,0.0501112
284,-0.02916,0.0501112
285,-0.02915,0.0501112
286,-0.02914,0.0501112
287,-0.02913,0.0501112
288,-0.02912,0.0501112
289,-0.02911,0.0501112
290,-0.0291,0.0501112
291,-0.02909,0.0501112
292,-0.02908,0.0501112
293,-0.02907,0.0501112
294,-0.02906,0.0501112
295,-0.02905,0.0501112
296,-0.02904,0.0501112
297,-0.02903,0.0501112
298,-0.02902,0.0501112
299,-0.02901,0.0501112
300,-0.029,0.0501112
301,-0.02899,0.0501112
302,-0.02898,0.0501112
303,-0.02897,0.0501112
304,-0.02896,0.0501112
305,-0.02895,0.0501112
306,-0.02894,0.0501112
307,-0.02893,0.0501112
308,-0.02892,0.0501112
309,-0.02891,0.0501112
310,-0.0289,0.0501112
311,-0.02889,0.0501112
312,-0.02888,0.0501112
313,-0.02887,0.0501112
314,-0.02886,0.0501112
315,-0.02885,0.0501112
316,-0.02884,0.0501112
317,-0.02883,0.0501112
318,-0.02882,0.0501112
319,-0.02881,0.0501112
320,-0.0288,0.0501112
321,-0.02879,0.0501112
322,-0.02878,0.0501112
323,-0.02877,0.0501112
324,-0.02876,0.0501112
325,-0.02875,0.0501112
326,-0.02874,0.0501112
327,-0.02873,0.0501112
328,-0.02872,0.0501112
329,-0.02871,0.0501112
330,-0.0287,0.0501112
331,-0.02869,0.0501112
332,-0.02868,0.0501112
333,-0.02867,0.0501112
334,-0.02866,0.0501112
335,-0.02865,0.0501112
336,-0.02864,0.0501112
337,-0.02863,0.0501112
338,-0.02862,0.0501112
339,-0.02861,0.0501112
340,-0.0286,0.0501112
341,-0.02859,0.0501112
342,-0.02858,0.0501112
343,-0.02857,0.0501112
344,-0.02856,0.0501112
345,-0.02855,0.0501112
346,-0.02854,0.0501112
347,-0.02853,0.0501112
348,-0.02852,0.0501112
349,-0.02851,0.0501112
350,-0.0285,0.0501112
351,-0.02849,0.0501112
352,-0.02848,0.0501112
353,-0.02847,0.0501112
354,-0.02846,0.0501112
355,-0.02845,0.0501112
356,-0.02844,0.0501112
357,-0.02843,0.0501112
358,-0.02842,0.0501112
359,-0.02841,0.0501112
360,-0.0284,0.0501112
361,-0.02839,0.0501112
362,-0.02838,0.0501112
363,-0.02837,0.0501112
364,-0.02836,0.0501112
365,-0.02835,0.0501112
366,-0.02834,0.0501112
367,-0.02833,0.0501112
368,-0.02832,0.0501112
369,-0.02831,0.0501112
370,-0.0283,0.0501112
371,-0.02829,0.0501112
372,-0.02828,0.0501112
373,-0.02827,0.0501112
374,-0.02826,0.0501112
375,-0.02825,0.0501112
376,-0.02824,0.0501112
377,-0.02823,0.0501112
378,-0.02822,0.0501112
379,-0.02821,0.0501112
380,-0.0282,0.0501112
381,-0.02819,0.0501112
382,-0.02818,0.0501112
383,-0.02817,0.0501112
384,-0.02816,0.0501112
385,-0.02815,0.0501112
386,-0.02814,0.0501112
387,-0.02813,0.0501112
388,-0.02812,0.0501112
389,-0.02811,0.0501112
390,-0.0281,0.0501112
391,-0.02809,0.0501112
392,-0.02808,0.0501112
393,-0.02807,0.0501112
394,-0.02806,0.0501112
395,-0.02805,0.0501112
396,-0.02804,0.0501112
397,-0.02803,0.0501112
398,-0.02802,0.0501112
399,-0.02801,0.0501112
400,-0.028,0.0501112
401,-0.02799,0.0501112
402,-0.02798,0.0501112
403,-0.02797,0.0501112
404,-0.02796,0.0501112
405,-0.02795,0.0501112
406,-0.02794,0.0501112
407,-0.02793,0.0501112
408,-0.02792,0.0501112
409,-0.02791,0.0501112
410,-0.0279,0.0501112
411,-0.02789,0.0501112
412,-0.02788,0.0501112
413,-0.02787,0.0501112
414,-0.02786,0.0501112
415,-0.02785,0.0501112
416,-0.02784,0.0501112
417,-0.02783,0.0501112
418,-0.02782,0.0501112
419,-0.02781,0.0501112
420,-0.0278,0.0501112
421,-0.02779,0.0501112
422,-0.02778,0.0501112
423,-0.02777,0.0501112
424,-0.02776,0.0501112
425,-0.02775,0.0501112
426,-0.02774,0.0501112
427,-0.02773,0.0501112
428,-0.02772,0.0501112
429,-0.02771,0.0501112
430,-0.0277,0.0501112
431,-0.02769,0.0501112
432,-0.02768,0.0501112
433,-0.02767,0.0501112
434,-0.02766,0.0501112
435,-0.02765,0.0501112
436,-0.02764,0.0501112
437,-0.02763,0.0501112
438,-0.02762,0.0501112
439,-0.02761,0.0501112
440,-0.0276,0.0501112
441,-0.02759,0.0501112
442,-0.02758,0.0501112
443,-0.02757,0.0501112
444,-0.02756,0.0501112
445,-0.02755,0.0501112
446,-0.02754,0.0501112
447,-0.02753,0.0501112
448,-0.02752,0.0501112
449,-0.02751,0.0501112
450,-0.0275,0.0501112
451,-0.02749,0.0501112
452,-0.02748,0.0501112
453,-0.02747,0.0501112
454,-0.02746,0.0501112
455,-0.02745,0.0501112
456,-0.02744,0.0501112
457,-0.02743,0.0501112
458,-0.02742,0.0501112
459,-0.02741,0.0501112
460,-0.0274,0.0501112
461,-0.02739,0.0501112
462,-0.02738,0.0501112
463,-0.02737,0.0501112
464,-0.02736,0.0501112
465,-0.02735,0.0501112
466,-0.02734,0.0501112
467,-0.02733,0.0501112
468,-0.02732,0.0501112
469,-0.02731,0.0501112
470,-0.0273,0.0501112
471,-0.02729,0.0501112
472,-0.02728,0.0501112
473,-0.02727,0.0501112
474,-0.02726,0.0501112
475,-0.02725,0.0501112
476,-0.02724,0.0501112
477,-0.02723,0.0501112
478,-0.02722,0.0501112
479,-0.02721,0.0501112
480,-0.0272,0.0501112
481,-0.02719,0.0501112
482,-0.02718,0.0501112
483,-0.02717,0.0501112
484,-0.02716,0.0501112
485,-0.02715,0.0501112
486,-0.02714,0.0501112
487,-0.02713,0.0501112
488,-0.02712,0.0501112
489,-0.02711,0.0501112
490,-0.0271,0.0501112
491,-0.02709,0.0501112
492,-0.02708,0.0501112
493,-0.02707,0.0501112
494,-0.02706,0.0501112
495,-0.02705,0.0501112
496,-0.02704,0.0501112
497,-0.02703,0.0501112
498,-0.02702,0.0501112
499,-0.02701,0.0501112
500,-0.027,0.0501112
501,-0.02699,0.0501112
502,-0.02698,0.0501112
503,-0.02697,0.0501112
504,-0.02696,0.0501112
505,-0.02695,0.0501112
506,-0.02694,0.0501112
507,-0.02693,0.0501112
508,-0.02692,0.0501112
509,-0.02691,0.0501112
510,-0.0269,0.0501112
511,-0.02689,0.0501112
512,-0.02688,0.0501112
513,-0.02687,0.0501112
514,-0.02686,0.0501112
515,-0.02685,0.0501112
516,-0.02684,0.0501112
517,-0.02683,0.0501112
518,-0.02682,0.0501112
519,-0.02681,0.0501112
520,-0.0268,0.0501112
521,-0.02679,0.0501112
522,-0.02678,0.0501112
523,-0.02677,0.0501112
524,-0.02676,0.0501112
525,-0.02675,0.0501112
526,-0.02674,0.0501112
527,-0.02673,0.0501112
528,-0.02672,0.0501112
529,-0.02671,0.0501112
530,-0.0267,0.0501112
531,-0.02669,0.0501112
532,-0.02668,0.0501112
533,-0.02667,0.0501112
534,-0.02666,0.0501112
535,-0.02665,0.0501112
536,-0.02664,0.0501112
537,-0.02663,0.0501112
538,-0.02662,0.0501112
539,-0.02661,0.0501112
540,-0.0266,0.0501112
541,-0.02659,0.0501112
542,-0.02658,0.0501112
543,-0.02657,0.0501112
544,-0.02656,0.0501112
545,-0.02655,0.0501112
546,-0.02654,0.0501112
547,-0.02653,0.0501112
548,-0.02652,0.0501112
549,-0.02651,0.0501112
550,-0.0265,0.0501112
551,-0.02649,0.317371
552,-0.02648,1.00222
553,-0.02647,14.6659
554,-0.02646,-1.01893
555,-0.02645,0.167037
556,-0.02644,-0.0501112
557,-0.02643,0
558,-0.02642,0
559,-0.02641,0
560,-0.0264,0.0167037
561,-0.02639,0.0167037
562,-0.02638,0.0167037
563,-0.02637,0.0167037
564,-0.02636,0.0501112
565,-0.02635,0.0501112
566,-0.02634,0.0501112
567,-0.02633,0.0501112
568,-0.02632,0.0501112
569,-0.02631,0.0501112
570,-0.0263,0.0501112
571,-0.02629,0.0501112
572,-0.02628,0.0501112
573,-0.02627,0.0501112
574,-0.02626,0.0501112
575,-0.02625,0.0501112
576,-0.02624,0.0501112
577,-0.02623,0.0501112
578,-0.02622,0.0501112
579,-0.02621,0.0501112
580,-0.0262,0.0501112
581,-0.02619,0.0501112
582,-0.02618,0.0501112
583,-0.02617,0.0501112
584,-0.02616,0.0501112
585,-0.02615,0.0501112
586,-0.02614,0.0501112
587,-0.02613,0.0501112
588,-0.02612,0.0501112
589,-0.02611,0.0501112
590,-0.0261,0.0501112
591,-0.02609,0.0501112
592,-0.02608,0.0501112
593,-0.02607,0.0501112
594,-0.02606,0.0501112
595,-0.02605,0.0501112
596,-0.02604,0.0501112
597,-0.02603,0.0501112
598,-0.02602,0.0501112
599,-0.02601,0.0501112
600,-0.026,0.0501112
601,-0.02599,0.0501112
602,-0.02598,0.0501112
603,-0.02597,0.0501112
604,-0.02596,0.0501112
605,-0.02595,0.0501112
606,-0.02594,0.0501112
607,-0.02593,0.0501112
608,-0.02592,0.0501112
609,-0.02591,0.0501112
610,-0.0259,0.0501112
611,-0.02589,0.0501112
612,-0.02588,0.0501112
613,-0.02587,0.0501112
614,-0.02586,0.0501112
615,-0.02585,0.0501112
616,-0.02584,0.0501112
617,-0.02583,0.0501112
618,-0.02582,0.0501112
619,-0.02581,0.0501112
620,-0.0258,0.0501112
621,-0.02579,0.0501112
622,-0.02578,0.0501112
623,-0.02577,0.0501112
624,-0.02576,0.0501112
625,-0.02575,0.0501112
626,-0.02574,0.0501112
627,-0.02573,0.0501112
628,-0.02572,0.0501112
629,-0.02571,0.0501112
630,-0.0257,0.0501112
631,-0.02569,0.0501112
632,-0.02568,0.0501112
633,-0.02567,0.0501112
634,-0.02566,0.0501112
635,-0.02565,0.0501112
636,-0.02564,0.0501112
637,-0.02563,0.0501112
638,-0.02562,0.0501112
639,-0.02561,0.0501112
640,-0.0256,0.0501112
641,-0.02559,0.0501112
642,-0.02558,0.0501112
643,-0.02557,0.0501112
644,-0.02556,0.0501112
645,-0.02555,0.0501112
646,-0.02554,0.0501112
647,-0.02553,0.0501112
648,-0.02552,0.0501112
649,-0.02551,0.0501112
650,-0.0255,0.0501112
651,-0.02549,0.0501112
652,-0.02548,0.0501112
653,-0.02547,0.0501112
654,-0.02546,0.0501112
655,-0.02545,0.0501112
656,-0.02544,0.0501112
657,-0.02543,0.0501112
658,-0.02542,0.0501112
659,-0.02541,0.0501112
660,-0.0254,0.0501112
661,-0.02539,0.0501112
662,-0.02538,0.0501112
663,-0.02537,0.0501112
664,-0.02536,0.0501112
665,-0.02535,0.0501112
666,-0.02534,0.0501112
667,-0.02533,0.0501112
668,-0.02532,0.0501112
669,-0.02531,0.0501112
670,-0.0253,0.0501112
671,-0.02529,0.0501112
672,-0.02528,0.0501112
673,-0.02527,0.0501112
674,-0.02526,0.0501112
675,-0.02525,0.0501112
676,-0.02524,0.0501112
677,-0.02523,0.0501112
678,-0.02522,0.0501112
679,-0.02521,0.0501112
680,-0.0252,0.0501112
681,-0.02519,0.0501112
682,-0.02518,0.0501112
683,-0.02517,0.0501112
684,-0.02516,0.0501112
685,-0.02515,0.0501112
686,-0.02514,0.0501112
687,-0.02513,0.0501112
688,-0.02512,0.0501112
689,-0.02511,0.0501112
690,-0.0251,0.0501112
691,-0.02509,0.0501112
692,-0.02508,0.0501112
693,-0.02507,0.0501112
694,-0.02506,0.0501112
695,-0.02505,0.0501112
696,-0.02504,0.0501112
697,-0.02503,0.0501112
698,-0.02502,0.0501112
699,-0.02501,0.0501112
700,-0.025,0.0501112
701,-0.02499,0.0501112
702,-0.02498,0.0501112
703,-0.02497,0.0501112
704,-0.02496,0.0501112
705,-0.02495,0.0501112
706,-0.02494,0.0501112
707,-0.02493,0.0501112
708,-0.02492,0.0501112
709,-0.02491,0.0501112
710,-0.0249,0.0501112
711,-0.02489,0.0501112
712,-0.02488,0.0501112
713,-0.02487,0.0501112
714,-0.02486,0.0501112
715,-0.02485,0.0501112
716,-0.02484,0.0501112
717,-0.02483,0.0501112
718,-0.02482,0.0501112
719,-0.02481,0.0501112
720,-0.0248,0.0501112
721,-0.02479,0.0501112
722,-0.02478,0.0501112
723,-0.02477,0.0501112
724,-0.02476,0.0501112
725,-0.02475,0.0501112
726,-0.02474,0.0501112
727,-0.02473,0.0501112
728,-0.02472,0.0501112
729,-0.02471,0.0501112
730,-0.0247,0.0501112
731,-0.02469,0.0501112
732,-0.02468,0.0501112
733,-0.02467,0.0501112
734,-0.02466,0.0501112
735,-0.02465,0.0501112
736,-0.02464,0.0501112
737,-0.02463,0.0501112
738,-0.02462,0.0501112
739,-0.02461,0.0501112
740,-0.0246,0.0501112
741,-0.02459,0.0501112
742,-0.02458,0.0501112
743,-0.02457,0.0501112
744,-0.02456,0.0501112
745,-0.02455,0.0501112
746,-0.02454,0.0501112
747,-0.02453,0.0501112
748,-0.02452,0.0501112
749,-0.02451,0.0501112
750,-0.0245,0.0501112
751,-0.02449,0.0501112
752,-0.02448,0.0501112
753,-0.02447,0.0501112
754,-0.02446,0.0501112
755,-0.02445,0.0501112
756,-0.02444,0.0501112
757,-0.02443,0.0501112
758,-0.02442,0.0501112
759,-0.02441,0.0501112
760,-0.0244,0.0501112
761,-0.02439,0.0501112
762,-0.02438,0.0501112
763,-0.02437,0.0501112
764,-0.02436,0.0501112
765,-0.02435,0.0501112
766,-0.02434,0.0501112
767,-0.02433,0.0501112
768,-0.02432,0.0501112
769,-0.02431,0.0501112
770,-0.0243,0.0501112
771,-0.02429,0.0501112
772,-0.02428,0.0501112
773,-0.02427,0.0501112
774,-0.02426,0.0501112
775,-0.02425,0.0501112
776,-0.02424,0.0501112
777,-0.02423,0.0501112
778,-0.02422,0.0501112
779,-0.02421,0.0501112
780,-0.0242,0.0501112
781,-0.02419,0.0501112
782,-0.02418,0.0501112
783,-0.02417,0.0501112
784,-0.02416,0.0501112
785,-0.02415,0.0501112
786,-0.02414,0.0501112
787,-0.02413,0.0501112
788,-0.02412,0.0501112
789,-0.02411,0.0501112
790,-0.0241,0.0501112
791,-0.02409,0.0501112
792,-0.02408,0.0501112
793,-0.02407,0.0501112
794,-0.02406,0.0501112
795,-0.02405,0.0501112
796,-0.02404,0.0501112
797,-0.02403,0.0501112
798,-0.02402,0.0501112
799,-0.02401,0.0501112
800,-0.024,0.0501112
801,-0.02399,0.0501112
802,-0.02398,0.0501112
803,-0.02397,0.0501112
804,-0.02396,0.0501112
805,-0.02395,0.0501112
806,-0.02394,0.0501112
807,-0.02393,0.0501112
808,-0.02392,0.0501112
809,-0.02391,0.0501112
810,-0.0239,0.0501112
811,-0.02389,0.0501112
812,-0.02388,0.0501112
813,-0.02387,0.0501112
814,-0.02386,0.0501112
815,-0.02385,0.0501112
816,-0.02384,0.0501112
817,-0.02383,0.0501112
818,-0.02382,0.0501112
819,-0.02381,0.0501112
820,-0.0238,0.0501112
821,-0.02379,0.0501112
822,-0.02378,0.0501112
823,-0.02377,0.0501112
824,-0.02376,0.0501112
825,-0.02375,0.0501112
826,-0.02374,0.0501112
827,-0.02373,0.0501112
828,-0.02372,0.0501112
829,-0.02371,0.0501112
830,-0.0237,0.0501112
831,-0.02369,0.0501112
832,-0.02368,0.0501112
833,-0.02367,0.0501112
834,-0.02366,0.0501112
835,-0.02365,0.0501112
836,-0.02364,0.0501112
837,-0.02363,0.0501112
838,-0.02362,0.0501112
839,-0.02361,0.0501112
840,-0.0236,0.0501112
841,-0.02359,0.0501112
842,-0.02358,0.0501112
843,-0.02357,0.0501112
844,-0.02356,0.0501112
845,-0.02355,0.0501112
846,-0.02354,0.0501112
847,-0.02353,0.0501112
848,-0.02352,0.0501112
849,-0.02351,0.0501112
850,-0.0235,0.0501112
851,-0.02349,0.0501112
852,-0.02348,0.0501112
853,-0.02347,0.0501112
854,-0.02346,0.0501112
855,-0.02345,0.0501112
856,-0.02344,0.0501112
857,-0.02343,0.0501112
858,-0.02342,0.0501112
859,-0.02341,0.0501112
860,-0.0234,0.0501112
861,-0.02339,0.0501112
862,-0.02338,0.0501112
863,-0.02337,0.0501112
864,-0.02336,0.0501112
865,-0.02335,0.0501112
866,-0.02334,0.0501112
867,-0.02333,0.0501112
868,-0.02332,0.0501112
869,-0.02331,0.0501112
870,-0.0233,0.0501112
871,-0.02329,0.0501112
872,-0.02328,0.0501112
873,-0.02327,0.0501112
