Mesures/Data/prevDC_4ms_5v.csv

;Scopy version,f4beeb1
;Exported on,Wednesday May 15/05/2024
;Device,M2K
;Nr of samples,6400
;Sample rate,100000
;Tool,Oscilloscope
;Additional Information,
Sample,Time(S),CH1(V)
0,-0.032,-0.0668149
1,-0.03199,-0.0668149
2,-0.03198,-0.0668149
3,-0.03197,-0.0668149
4,-0.03196,-0.0668149
5,-0.03195,-0.0668149
6,-0.03194,-0.0668149
7,-0.03193,-0.0668149
8,-0.03192,-0.0668149
9,-0.03191,-0.0668149
10,-0.0319,-0.0668149
11,-0.03189,-0.0668149
12,-0.03188,-0.0668149
13,-0.03187,-0.0668149
14,-0.03186,-0.0668149
15,-0.03185,-0.0668149
16,-0.03184,-0.0668149
17,-0.03183,-0.0668149
18,-0.03182,-0.0668149
19,-0.03181,-0.0668149
20,-0.0318,-0.0668149
21,-0.03179,-0.0668149
22,-0.03178,-0.0668149
23,-0.03177,-0.0668149
24,-0.03176,-0.0668149
25,-0.03175,-0.0668149
26,-0.03174,-0.0668149
27,-0.03173,-0.0668149
28,-0.03172,-0.0668149
29,-0.03171,-0.0668149
30,-0.0317,-0.0668149
31,-0.03169,-0.0668149
32,-0.03168,-0.0668149
33,-0.03167,-0.0668149
34,-0.03166,-0.0668149
35,-0.03165,-0.0668149
36,-0.03164,-0.0668149
37,-0.03163,-0.0668149
38,-0.03162,-0.0668149
39,-0.03161,-0.0668149
40,-0.0316,-0.0668149
41,-0.03159,-0.0668149
42,-0.03158,-0.0668149
43,-0.03157,-0.0668149
44,-0.03156,-0.0668149
45,-0.03155,-0.0501112
46,-0.03154,-0.0668149
47,-0.03153,-0.0668149
48,-0.03152,-0.0668149
49,-0.03151,-0.0668149
50,-0.0315,-0.0668149
51,-0.03149,-0.0668149
52,-0.03148,-0.0668149
53,-0.03147,-0.0668149
54,-0.03146,-0.0668149
55,-0.03145,-0.0501112
56,-0.03144,-0.0668149
57,-0.03143,-0.0668149
58,-0.03142,-0.0668149
59,-0.03141,-0.0668149
60,-0.0314,-0.0668149
61,-0.03139,-0.0668149
62,-0.03138,-0.0668149
63,-0.03137,-0.0668149
64,-0.03136,-0.0668149
65,-0.03135,-0.0668149
66,-0.03134,-0.0668149
67,-0.03133,-0.0668149
68,-0.03132,-0.0668149
69,-0.03131,-0.0668149
70,-0.0313,-0.0668149
71,-0.03129,-0.0668149
72,-0.03128,-0.0668149
73,-0.03127,-0.0668149
74,-0.03126,-0.0668149
75,-0.03125,-0.0668149
76,-0.03124,-0.0668149
77,-0.03123,-0.0668149
78,-0.03122,-0.0668149
79,-0.03121,-0.0668149
80,-0.0312,-0.0668149
81,-0.03119,-0.0668149
82,-0.03118,-0.0668149
83,-0.03117,-0.0668149
84,-0.03116,-0.0668149
85,-0.03115,-0.0668149
86,-0.03114,-0.0668149
87,-0.03113,-0.0668149
88,-0.03112,-0.0668149
89,-0.03111,-0.0668149
90,-0.0311,-0.0668149
91,-0.03109,-0.0668149
92,-0.03108,-0.0668149
93,-0.03107,-0.0668149
94,-0.03106,-0.0501112
95,-0.03105,-0.0668149
96,-0.03104,-0.0668149
97,-0.03103,-0.0668149
98,-0.03102,-0.0668149
99,-0.03101,-0.0668149
100,-0.031,-0.0668149
101,-0.03099,-0.0668149
102,-0.03098,-0.0668149
103,-0.03097,-0.0668149
104,-0.03096,-0.0668149
105,-0.03095,-0.0668149
106,-0.03094,-0.0668149
107,-0.03093,-0.0668149
108,-0.03092,-0.0668149
109,-0.03091,-0.0668149
110,-0.0309,-0.0668149
111,-0.03089,-0.0668149
112,-0.03088,-0.0668149
113,-0.03087,-0.0668149
114,-0.03086,-0.0668149
115,-0.03085,-0.0668149
116,-0.03084,-0.0668149
117,-0.03083,-0.0668149
118,-0.03082,-0.0668149
119,-0.03081,-0.0668149
120,-0.0308,-0.0668149
121,-0.03079,-0.0668149
122,-0.03078,-0.0668149
123,-0.03077,-0.0668149
124,-0.03076,-0.0668149
125,-0.03075,-0.0668149
126,-0.03074,-0.0668149
127,-0.03073,-0.0668149
128,-0.03072,-0.0668149
129,-0.03071,-0.0668149
130,-0.0307,-0.0668149
131,-0.03069,-0.0668149
132,-0.03068,-0.0668149
133,-0.03067,-0.0668149
134,-0.03066,-0.0668149
135,-0.03065,-0.0668149
136,-0.03064,-0.0668149
137,-0.03063,-0.0668149
138,-0.03062,-0.0668149
139,-0.03061,-0.0668149
140,-0.0306,-0.0668149
141,-0.03059,-0.0668149
142,-0.03058,-0.0668149
143,-0.03057,-0.0668149
144,-0.03056,-0.0668149
145,-0.03055,-0.0668149
146,-0.03054,-0.0668149
147,-0.03053,-0.0668149
148,-0.03052,-0.0501112
149,-0.03051,-0.0668149
150,-0.0305,0.150333
151,-0.03049,0.167037
152,-0.03048,0.167037
153,-0.03047,0.167037
154,-0.03046,0.200445
155,-0.03045,0.200445
156,-0.03044,0.183741
157,-0.03043,0.217148
158,-0.03042,0.217148
159,-0.03041,0.217148
160,-0.0304,0.217148
161,-0.03039,0.350778
162,-0.03038,0.334074
163,-0.03037,0.334074
164,-0.03036,0.317371
165,-0.03035,0.350778
166,-0.03034,0.317371
167,-0.03033,0.334074
168,-0.03032,0.334074
169,-0.03031,0.334074
170,-0.0303,0.334074
171,-0.03029,0.317371
172,-0.03028,0.317371
173,-0.03027,0.317371
174,-0.03026,0.317371
175,-0.03025,0.334074
176,-0.03024,0.300667
177,-0.03023,0.317371
178,-0.03022,0.300667
179,-0.03021,0.317371
180,-0.0302,0.317371
181,-0.03019,0.300667
182,-0.03018,0.317371
183,-0.03017,0.300667
184,-0.03016,0.334074
185,-0.03015,0.334074
186,-0.03014,0.334074
187,-0.03013,0.334074
188,-0.03012,0.334074
189,-0.03011,0.334074
190,-0.0301,0.334074
191,-0.03009,0.334074
192,-0.03008,0.334074
193,-0.03007,0.334074
194,-0.03006,0.334074
195,-0.03005,0.334074
196,-0.03004,0.334074
197,-0.03003,0.334074
198,-0.03002,0.334074
199,-0.03001,0.334074
200,-0.03,0.334074
201,-0.02999,0.334074
202,-0.02998,0.334074
203,-0.02997,0.334074
204,-0.02996,0.334074
205,-0.02995,0.334074
206,-0.02994,0.334074
207,-0.02993,0.334074
208,-0.02992,0.334074
209,-0.02991,0.334074
210,-0.0299,0.334074
211,-0.02989,0.334074
212,-0.02988,0.334074
213,-0.02987,0.334074
214,-0.02986,0.334074
215,-0.02985,0.334074
216,-0.02984,0.334074
217,-0.02983,0.334074
218,-0.02982,0.334074
219,-0.02981,0.334074
220,-0.0298,0.334074
221,-0.02979,0.334074
222,-0.02978,0.334074
223,-0.02977,0.334074
224,-0.02976,0.334074
225,-0.02975,0.334074
226,-0.02974,0.334074
227,-0.02973,0.334074
228,-0.02972,0.334074
229,-0.02971,0.334074
230,-0.0297,0.334074
231,-0.02969,0.334074
232,-0.02968,0.334074
233,-0.02967,0.334074
234,-0.02966,0.334074
235,-0.02965,0.334074
236,-0.02964,0.334074
237,-0.02963,0.334074
238,-0.02962,0.334074
239,-0.02961,0.334074
240,-0.0296,0.334074
241,-0.02959,0.334074
242,-0.02958,0.334074
243,-0.02957,0.334074
244,-0.02956,0.334074
245,-0.02955,0.334074
246,-0.02954,0.334074
247,-0.02953,0.334074
248,-0.02952,0.334074
249,-0.02951,0.334074
250,-0.0295,0.334074
251,-0.02949,0.334074
252,-0.02948,0.334074
253,-0.02947,0.334074
254,-0.02946,0.334074
255,-0.02945,0.334074
256,-0.02944,0.334074
257,-0.02943,0.334074
258,-0.02942,0.334074
259,-0.02941,0.334074
260,-0.0294,0.334074
261,-0.02939,0.334074
262,-0.02938,0.334074
263,-0.02937,0.334074
264,-0.02936,0.334074
265,-0.02935,0.334074
266,-0.02934,0.334074
267,-0.02933,0.334074
268,-0.02932,0.334074
269,-0.02931,0.334074
270,-0.0293,0.334074
271,-0.02929,0.334074
272,-0.02928,0.334074
273,-0.02927,0.334074
274,-0.02926,0.334074
275,-0.02925,0.334074
276,-0.02924,0.334074
277,-0.02923,0.334074
278,-0.02922,0.334074
279,-0.02921,0.334074
280,-0.0292,0.334074
281,-0.02919,0.334074
282,-0.02918,0.334074
283,-0.02917,0.334074
284,-0.02916,0.334074
285,-0.02915,0.334074
286,-0.02914,0.334074
287,-0.02913,0.334074
288,-0.02912,0.334074
289,-0.02911,0.334074
290,-0.0291,0.334074
291,-0.02909,0.334074
292,-0.02908,0.334074
293,-0.02907,0.334074
294,-0.02906,0.334074
295,-0.02905,0.334074
296,-0.02904,0.334074
297,-0.02903,0.334074
298,-0.02902,0.334074
299,-0.02901,0.334074
300,-0.029,0.334074
301,-0.02899,0.334074
302,-0.02898,0.334074
303,-0.02897,0.334074
304,-0.02896,0.334074
305,-0.02895,0.334074
306,-0.02894,0.334074
307,-0.02893,0.334074
308,-0.02892,0.334074
309,-0.02891,0.334074
310,-0.0289,0.334074
311,-0.02889,0.334074
312,-0.02888,0.334074
313,-0.02887,0.334074
314,-0.02886,0.334074
315,-0.02885,0.334074
316,-0.02884,0.334074
317,-0.02883,0.334074
318,-0.02882,0.334074
319,-0.02881,0.334074
320,-0.0288,0.334074
321,-0.02879,0.334074
322,-0.02878,0.334074
323,-0.02877,0.334074
324,-0.02876,0.334074
325,-0.02875,0.334074
326,-0.02874,0.334074
327,-0.02873,0.334074
328,-0.02872,0.334074
329,-0.02871,0.334074
330,-0.0287,0.334074
331,-0.02869,0.334074
332,-0.02868,0.334074
333,-0.02867,0.334074
334,-0.02866,0.334074
335,-0.02865,0.334074
336,-0.02864,0.334074
337,-0.02863,0.334074
338,-0.02862,0.334074
339,-0.02861,0.334074
340,-0.0286,0.334074
341,-0.02859,0.334074
342,-0.02858,0.334074
343,-0.02857,0.334074
344,-0.02856,0.334074
345,-0.02855,0.334074
346,-0.02854,0.334074
347,-0.02853,0.334074
348,-0.02852,0.334074
349,-0.02851,0.334074
350,-0.0285,0.334074
351,-0.02849,0.334074
352,-0.02848,0.334074
353,-0.02847,0.334074
354,-0.02846,0.334074
355,-0.02845,0.334074
356,-0.02844,0.334074
357,-0.02843,0.334074
358,-0.02842,0.334074
359,-0.02841,0.334074
360,-0.0284,0.334074
361,-0.02839,0.334074
362,-0.02838,0.334074
363,-0.02837,0.334074
364,-0.02836,0.334074
365,-0.02835,0.334074
366,-0.02834,0.334074
367,-0.02833,0.334074
368,-0.02832,0.334074
369,-0.02831,0.334074
370,-0.0283,0.334074
371,-0.02829,0.334074
372,-0.02828,0.334074
373,-0.02827,0.334074
374,-0.02826,0.334074
375,-0.02825,0.334074
376,-0.02824,0.334074
377,-0.02823,0.334074
378,-0.02822,0.334074
379,-0.02821,0.334074
380,-0.0282,0.334074
381,-0.02819,0.334074
382,-0.02818,0.334074
383,-0.02817,0.334074
384,-0.02816,0.334074
385,-0.02815,0.334074
386,-0.02814,0.334074
387,-0.02813,0.334074
388,-0.02812,0.334074
389,-0.02811,0.334074
390,-0.0281,0.334074
391,-0.02809,0.334074
392,-0.02808,0.334074
393,-0.02807,0.334074
394,-0.02806,0.334074
395,-0.02805,0.334074
396,-0.02804,0.334074
397,-0.02803,0.334074
398,-0.02802,0.334074
399,-0.02801,0.334074
400,-0.028,0.334074
401,-0.02799,0.334074
402,-0.02798,0.334074
403,-0.02797,0.334074
404,-0.02796,0.334074
405,-0.02795,0.334074
406,-0.02794,0.334074
407,-0.02793,0.334074
408,-0.02792,0.334074
409,-0.02791,0.334074
410,-0.0279,0.334074
411,-0.02789,0.334074
412,-0.02788,0.334074
413,-0.02787,0.334074
414,-0.02786,0.334074
415,-0.02785,0.334074
416,-0.02784,0.334074
417,-0.02783,0.334074
418,-0.02782,0.334074
419,-0.02781,0.334074
420,-0.0278,0.334074
421,-0.02779,0.334074
422,-0.02778,0.334074
423,-0.02777,0.334074
424,-0.02776,0.334074
425,-0.02775,0.334074
426,-0.02774,0.334074
427,-0.02773,0.334074
428,-0.02772,0.334074
429,-0.02771,0.334074
430,-0.0277,0.334074
431,-0.02769,0.334074
432,-0.02768,0.334074
433,-0.02767,0.334074
434,-0.02766,0.334074
435,-0.02765,0.334074
436,-0.02764,0.334074
437,-0.02763,0.334074
438,-0.02762,0.334074
439,-0.02761,0.334074
440,-0.0276,0.334074
441,-0.02759,0.334074
442,-0.02758,0.334074
443,-0.02757,0.334074
444,-0.02756,0.334074
445,-0.02755,0.334074
446,-0.02754,0.334074
447,-0.02753,0.334074
448,-0.02752,0.334074
449,-0.02751,0.334074
450,-0.0275,0.334074
451,-0.02749,0.334074
452,-0.02748,0.334074
453,-0.02747,0.334074
454,-0.02746,0.334074
455,-0.02745,0.334074
456,-0.02744,0.334074
457,-0.02743,0.334074
458,-0.02742,0.334074
459,-0.02741,0.334074
460,-0.0274,0.334074
461,-0.02739,0.334074
462,-0.02738,0.334074
463,-0.02737,0.334074
464,-0.02736,0.334074
465,-0.02735,0.334074
466,-0.02734,0.334074
467,-0.02733,0.334074
468,-0.02732,0.334074
469,-0.02731,0.334074
470,-0.0273,0.334074
471,-0.02729,0.334074
472,-0.02728,0.334074
473,-0.02727,0.334074
474,-0.02726,0.334074
475,-0.02725,0.334074
476,-0.02724,0.334074
477,-0.02723,0.334074
478,-0.02722,0.334074
479,-0.02721,0.334074
480,-0.0272,0.334074
481,-0.02719,0.334074
482,-0.02718,0.334074
483,-0.02717,0.334074
484,-0.02716,0.334074
485,-0.02715,0.334074
486,-0.02714,0.334074
487,-0.02713,0.334074
488,-0.02712,0.334074
489,-0.02711,0.334074
490,-0.0271,0.334074
491,-0.02709,0.334074
492,-0.02708,0.334074
493,-0.02707,0.334074
494,-0.02706,0.334074
495,-0.02705,0.334074
496,-0.02704,0.334074
497,-0.02703,0.334074
498,-0.02702,0.334074
499,-0.02701,0.334074
500,-0.027,0.334074
501,-0.02699,0.334074
502,-0.02698,0.334074
503,-0.02697,0.334074
504,-0.02696,0.334074
505,-0.02695,0.334074
506,-0.02694,0.334074
507,-0.02693,0.334074
508,-0.02692,0.334074
509,-0.02691,0.334074
510,-0.0269,0.334074
511,-0.02689,0.334074
512,-0.02688,0.334074
513,-0.02687,0.334074
514,-0.02686,0.334074
515,-0.02685,0.334074
516,-0.02684,0.334074
517,-0.02683,0.334074
518,-0.02682,0.334074
519,-0.02681,0.334074
520,-0.0268,0.334074
521,-0.02679,0.334074
522,-0.02678,0.334074
523,-0.02677,0.334074
524,-0.02676,0.334074
525,-0.02675,0.334074
526,-0.02674,0.334074
527,-0.02673,0.334074
528,-0.02672,0.334074
529,-0.02671,0.334074
530,-0.0267,0.334074
531,-0.02669,0.334074
532,-0.02668,0.334074
533,-0.02667,0.334074
534,-0.02666,0.334074
535,-0.02665,0.334074
536,-0.02664,0.334074
537,-0.02663,0.334074
538,-0.02662,0.334074
539,-0.02661,0.334074
540,-0.0266,0.334074
541,-0.02659,0.334074
542,-0.02658,0.334074
543,-0.02657,0.334074
544,-0.02656,0.334074
545,-0.02655,0.334074
546,-0.02654,0.334074
547,-0.02653,0.334074
548,-0.02652,0.334074
549,-0.02651,0.334074
550,-0.0265,0.334074
551,-0.02649,0.334074
552,-0.02648,0.334074
553,-0.02647,0.334074
554,-0.02646,0.334074
555,-0.02645,0.334074
556,-0.02644,0.334074
557,-0.02643,0.334074
558,-0.02642,0.334074
559,-0.02641,0.334074
560,-0.0264,0.334074
561,-0.02639,0.334074
562,-0.02638,0.334074
563,-0.02637,0.334074
564,-0.02636,0.334074
565,-0.02635,0.334074
566,-0.02634,0.334074
567,-0.02633,0.334074
568,-0.02632,0.334074
569,-0.02631,0.334074
570,-0.0263,0.334074
571,-0.02629,0.334074
572,-0.02628,0.334074
573,-0.02627,0.334074
574,-0.02626,0.334074
575,-0.02625,0.334074
576,-0.02624,0.334074
577,-0.02623,0.334074
578,-0.02622,0.334074
579,-0.02621,0.334074
580,-0.0262,0.334074
581,-0.02619,0.334074
582,-0.02618,0.334074
583,-0.02617,0.334074
584,-0.02616,0.334074
585,-0.02615,0.334074
586,-0.02614,0.334074
587,-0.02613,0.334074
588,-0.02612,0.334074
589,-0.02611,0.334074
590,-0.0261,0.334074
591,-0.02609,0.334074
592,-0.02608,0.334074
593,-0.02607,0.334074
594,-0.02606,0.334074
595,-0.02605,0.334074
596,-0.02604,0.334074
597,-0.02603,0.334074
598,-0.02602,0.334074
599,-0.02601,0.334074
600,-0.026,0.334074
601,-0.02599,0.334074
602,-0.02598,0.334074
603,-0.02597,0.334074
604,-0.02596,0.334074
605,-0.02595,0.334074
606,-0.02594,0.334074
607,-0.02593,0.334074
608,-0.02592,0.334074
609,-0.02591,0.334074
610,-0.0259,0.334074
611,-0.02589,0.334074
612,-0.02588,0.334074
613,-0.02587,0.334074
614,-0.02586,0.334074
615,-0.02585,0.334074
616,-0.02584,0.334074
617,-0.02583,0.334074
618,-0.02582,0.334074
619,-0.02581,0.334074
620,-0.0258,0.334074
621,-0.02579,0.334074
622,-0.02578,0.334074
623,-0.02577,0.334074
624,-0.02576,0.334074
625,-0.02575,0.334074
626,-0.02574,0.334074
627,-0.02573,0.334074
628,-0.02572,0.334074
629,-0.02571,0.334074
630,-0.0257,0.334074
631,-0.02569,0.334074
632,-0.02568,0.334074
633,-0.02567,0.334074
634,-0.02566,0.334074
635,-0.02565,0.334074
636,-0.02564,0.334074
637,-0.02563,0.334074
638,-0.02562,0.334074
639,-0.02561,0.334074
640,-0.0256,0.334074
641,-0.02559,0.334074
642,-0.02558,0.334074
643,-0.02557,0.334074
644,-0.02556,0.334074
645,-0.02555,0.334074
646,-0.02554,0.334074
647,-0.02553,0.334074
648,-0.02552,0.334074
649,-0.02551,0.334074
650,-0.0255,0.334074
651,-0.02549,0.334074
652,-0.02548,0.334074
653,-0.02547,0.334074
654,-0.02546,0.334074
655,-0.02545,0.334074
656,-0.02544,0.334074
657,-0.02543,0.334074
658,-0.02542,0.334074
659,-0.02541,0.334074
660,-0.0254,0.334074
661,-0.02539,0.334074
662,-0.02538,0.334074
663,-0.02537,0.334074
664,-0.02536,0.334074
665,-0.02535,0.334074
666,-0.02534,0.334074
667,-0.02533,0.334074
668,-0.02532,0.334074
669,-0.02531,0.334074
670,-0.0253,0.334074
671,-0.02529,0.334074
672,-0.02528,0.334074
673,-0.02527,0.334074
674,-0.02526,0.334074
675,-0.02525,0.334074
676,-0.02524,0.334074
677,-0.02523,0.334074
678,-0.02522,0.334074
679,-0.02521,0.334074
680,-0.0252,0.334074
681,-0.02519,0.334074
682,-0.02518,0.334074
683,-0.02517,0.334074
684,-0.02516,0.334074
685,-0.02515,0.334074
686,-0.02514,0.334074
687,-0.02513,0.334074
688,-0.02512,0.334074
689,-0.02511,0.334074
690,-0.0251,0.334074
691,-0.02509,0.334074
692,-0.02508,0.334074
693,-0.02507,0.334074
694,-0.02506,0.334074
695,-0.02505,0.334074
696,-0.02504,0.334074
697,-0.02503,0.334074
698,-0.02502,0.334074
699,-0.02501,0.334074
700,-0.025,0.334074
701,-0.02499,0.334074
702,-0.02498,0.334074
703,-0.02497,0.334074
704,-0.02496,0.334074
705,-0.02495,0.334074
706,-0.02494,0.334074
707,-0.02493,0.334074
708,-0.02492,0.334074
709,-0.02491,0.334074
710,-0.0249,0.334074
711,-0.02489,0.334074
712,-0.02488,0.334074
713,-0.02487,0.334074
714,-0.02486,0.334074
715,-0.02485,0.334074
716,-0.02484,0.334074
717,-0.02483,0.334074
718,-0.02482,0.334074
719,-0.02481,0.334074
720,-0.0248,0.334074
721,-0.02479,0.334074
722,-0.02478,0.334074
723,-0.02477,0.334074
724,-0.02476,0.334074
725,-0.02475,0.334074
726,-0.02474,0.334074
727,-0.02473,0.334074
728,-0.02472,0.334074
729,-0.02471,0.334074
730,-0.0247,0.334074
731,-0.02469,0.334074
732,-0.02468,0.334074
733,-0.02467,0.334074
734,-0.02466,0.334074
735,-0.02465,0.334074
736,-0.02464,0.334074
737,-0.02463,0.334074
738,-0.02462,0.334074
739,-0.02461,0.334074
740,-0.0246,0.334074
741,-0.02459,0.334074
742,-0.02458,0.334074
743,-0.02457,0.334074
744,-0.02456,0.334074
745,-0.02455,0.334074
746,-0.02454,0.334074
747,-0.02453,0.334074
748,-0.02452,0.334074
749,-0.02451,0.334074
750,-0.0245,0.334074
751,-0.02449,0.334074
752,-0.02448,0.334074
753,-0.02447,0.334074
754,-0.02446,0.334074
755,-0.02445,0.334074
756,-0.02444,0.334074
757,-0.02443,0.334074
758,-0.02442,0.334074
759,-0.02441,0.334074
760,-0.0244,0.334074
761,-0.02439,0.334074
762,-0.02438,0.334074
763,-0.02437,0.334074
764,-0.02436,0.334074
765,-0.02435,0.334074
766,-0.02434,0.334074
767,-0.02433,0.334074
768,-0.02432,0.334074
769,-0.02431,0.334074
770,-0.0243,0.334074
771,-0.02429,0.334074
772,-0.02428,0.334074
773,-0.02427,0.334074
774,-0.02426,0.334074
775,-0.02425,0.334074
776,-0.02424,0.334074
777,-0.02423,0.334074
778,-0.02422,0.334074
779,-0.02421,0.334074
780,-0.0242,0.334074
781,-0.02419,0.334074
782,-0.02418,0.334074
783,-0.02417,0.334074
784,-0.02416,0.334074
785,-0.02415,0.334074
786,-0.02414,0.334074
787,-0.02413,0.334074
788,-0.02412,0.334074
789,-0.02411,0.334074
790,-0.0241,0.334074
791,-0.02409,0.334074
792,-0.02408,0.334074
793,-0.02407,0.334074
794,-0.02406,0.334074
795,-0.02405,0.334074
796,-0.02404,0.334074
797,-0.02403,0.334074
798,-0.02402,0.334074
799,-0.02401,0.334074
800,-0.024,0.334074
801,-0.02399,0.334074
802,-0.02398,0.334074
803,-0.02397,0.334074
804,-0.02396,0.334074
805,-0.02395,0.334074
806,-0.02394,0.334074
807,-0.02393,0.334074
808,-0.02392,0.334074
809,-0.02391,0.334074
810,-0.0239,0.334074
811,-0.02389,0.334074
812,-0.02388,0.334074
813,-0.02387,0.334074
814,-0.02386,0.334074
815,-0.02385,0.334074
816,-0.02384,0.334074
817,-0.02383,0.334074
818,-0.02382,0.334074
819,-0.02381,0.334074
820,-0.0238,0.334074
821,-0.02379,0.334074
822,-0.02378,0.334074
823,-0.02377,0.334074
824,-0.02376,0.334074
825,-0.02375,0.334074
826,-0.02374,0.334074
827,-0.02373,0.334074
828,-0.02372,0.334074
829,-0.02371,0.334074
830,-0.0237,0.334074
831,-0.02369,0.334074
832,-0.02368,0.334074
833,-0.02367,0.334074
834,-0.02366,0.334074
835,-0.02365,0.334074
836,-0.02364,0.334074
837,-0.02363,0.334074
838,-0.02362,0.334074
839,-0.02361,0.334074
840,-0.0236,0.334074
841,-0.02359,0.334074
842,-0.02358,0.334074
843,-0.02357,0.334074
844,-0.02356,0.334074
845,-0.02355,0.334074
846,-0.02354,0.334074
847,-0.02353,0.334074
848,-0.02352,0.334074
849,-0.02351,0.334074
850,-0.0235,0.334074
851,-0.02349,0.334074
852,-0.02348,0.334074
853,-0.02347,0.334074
854,-0.02346,0.334074
855,-0.02345,0.334074
856,-0.02344,0.334074
857,-0.02343,0.334074
858,-0.02342,0.334074
859,-0.02341,0.334074
860,-0.0234,0.334074
861,-0.02339,0.334074
862,-0.02338,0.334074
863,-0.02337,0.334074
864,-0.02336,0.334074
865,-0.02335,0.334074
866,-0.02334,0.334074
867,-0.02333,0.334074
868,-0.02332,0.334074
869,-0.02331,0.334074
870,-0.0233,0.334074
871,-0.02329,0.334074
872,-0.02328,0.334074
873,-0.02327,0.334074
874,-0.02326,0.334074
875,-0.02325,0.334074
876,-0.02324,0.334074
877,-0.02323,0.334074
878,-0.02322,0.334074
879,-0.02321,0.334074
880,-0.0232,0.334074
881,-0.02319,0.334074
882,-0.02318,0.334074
883,-0.02317,0.334074
884,-0.02316,0.334074
885,-0.02315,0.334074
886,-0.02314,0.334074
887,-0.02313,0.334074
888,-0.02312,0.334074
889,-0.02311,0.334074
890,-0.0231,0.334074
891,-0.02309,0.334074
892,-0.02308,0.334074
893,-0.02307,0.334074
894,-0.02306,0.334074
895,-0.02305,0.334074
