Mesures/Data/SH_4ms_5v_1m5.csv

;Scopy version,f4beeb1
;Exported on,Wednesday May 15/05/2024
;Device,M2K
;Nr of samples,6400
;Sample rate,100000
;Tool,Oscilloscope
;Additional Information,
Sample,Time(S),CH1(V)
0,-0.032,7.88416
1,-0.03199,7.88416
2,-0.03198,7.88416
3,-0.03197,7.88416
4,-0.03196,7.88416
5,-0.03195,7.88416
6,-0.03194,7.88416
7,-0.03193,7.88416
8,-0.03192,7.88416
9,-0.03191,7.88416
10,-0.0319,7.88416
11,-0.03189,7.88416
12,-0.03188,7.88416
13,-0.03187,7.88416
14,-0.03186,7.88416
15,-0.03185,7.88416
16,-0.03184,7.88416
17,-0.03183,7.88416
18,-0.03182,7.88416
19,-0.03181,7.88416
20,-0.0318,7.88416
21,-0.03179,7.88416
22,-0.03178,7.88416
23,-0.03177,7.88416
24,-0.03176,7.88416
25,-0.03175,7.88416
26,-0.03174,7.88416
27,-0.03173,7.88416
28,-0.03172,7.88416
29,-0.03171,7.88416
30,-0.0317,7.88416
31,-0.03169,7.85075
32,-0.03168,7.83405
33,-0.03167,7.88416
34,-0.03166,7.88416
35,-0.03165,7.85075
36,-0.03164,7.88416
37,-0.03163,7.88416
38,-0.03162,7.88416
39,-0.03161,7.88416
40,-0.0316,7.85075
41,-0.03159,7.83405
42,-0.03158,7.83405
43,-0.03157,7.88416
44,-0.03156,7.88416
45,-0.03155,7.85075
46,-0.03154,7.88416
47,-0.03153,7.88416
48,-0.03152,7.88416
49,-0.03151,7.85075
50,-0.0315,7.85075
51,-0.03149,7.88416
52,-0.03148,7.88416
53,-0.03147,7.85075
54,-0.03146,7.85075
55,-0.03145,7.88416
56,-0.03144,7.88416
57,-0.03143,7.88416
58,-0.03142,7.88416
59,-0.03141,7.88416
60,-0.0314,7.88416
61,-0.03139,7.88416
62,-0.03138,7.88416
63,-0.03137,7.88416
64,-0.03136,7.88416
65,-0.03135,7.88416
66,-0.03134,7.88416
67,-0.03133,7.88416
68,-0.03132,7.88416
69,-0.03131,7.85075
70,-0.0313,7.88416
71,-0.03129,7.83405
72,-0.03128,7.88416
73,-0.03127,7.85075
74,-0.03126,7.88416
75,-0.03125,7.88416
76,-0.03124,7.88416
77,-0.03123,7.88416
78,-0.03122,7.88416
79,-0.03121,7.88416
80,-0.0312,7.88416
81,-0.03119,7.88416
82,-0.03118,7.85075
83,-0.03117,7.88416
84,-0.03116,7.83405
85,-0.03115,7.85075
86,-0.03114,7.85075
87,-0.03113,7.85075
88,-0.03112,7.85075
89,-0.03111,7.83405
90,-0.0311,7.88416
91,-0.03109,7.88416
92,-0.03108,7.88416
93,-0.03107,7.88416
94,-0.03106,7.83405
95,-0.03105,7.85075
96,-0.03104,7.88416
97,-0.03103,7.83405
98,-0.03102,7.88416
99,-0.03101,7.83405
100,-0.031,7.85075
101,-0.03099,7.85075
102,-0.03098,7.85075
103,-0.03097,7.85075
104,-0.03096,7.85075
105,-0.03095,7.85075
106,-0.03094,7.85075
107,-0.03093,7.85075
108,-0.03092,7.85075
109,-0.03091,7.85075
110,-0.0309,7.85075
111,-0.03089,7.85075
112,-0.03088,7.85075
113,-0.03087,7.85075
114,-0.03086,7.85075
115,-0.03085,7.85075
116,-0.03084,7.85075
117,-0.03083,7.85075
118,-0.03082,7.85075
119,-0.03081,7.85075
120,-0.0308,7.85075
121,-0.03079,7.85075
122,-0.03078,7.85075
123,-0.03077,7.85075
124,-0.03076,7.85075
125,-0.03075,7.88416
126,-0.03074,7.83405
127,-0.03073,7.85075
128,-0.03072,7.85075
129,-0.03071,7.85075
130,-0.0307,7.85075
131,-0.03069,7.85075
132,-0.03068,7.85075
133,-0.03067,7.85075
134,-0.03066,7.85075
135,-0.03065,7.85075
136,-0.03064,7.85075
137,-0.03063,7.85075
138,-0.03062,7.85075
139,-0.03061,7.85075
140,-0.0306,7.85075
141,-0.03059,7.85075
142,-0.03058,7.85075
143,-0.03057,7.85075
144,-0.03056,7.85075
145,-0.03055,7.85075
146,-0.03054,7.85075
147,-0.03053,7.85075
148,-0.03052,7.85075
149,-0.03051,7.85075
150,-0.0305,7.85075
151,-0.03049,7.85075
152,-0.03048,7.85075
153,-0.03047,7.85075
154,-0.03046,7.85075
155,-0.03045,7.85075
156,-0.03044,7.85075
157,-0.03043,7.85075
158,-0.03042,7.85075
159,-0.03041,7.85075
160,-0.0304,7.85075
161,-0.03039,7.85075
162,-0.03038,7.85075
163,-0.03037,7.85075
164,-0.03036,7.85075
165,-0.03035,7.85075
166,-0.03034,7.85075
167,-0.03033,7.85075
168,-0.03032,7.85075
169,-0.03031,7.85075
170,-0.0303,7.85075
171,-0.03029,7.85075
172,-0.03028,7.85075
173,-0.03027,7.85075
174,-0.03026,7.85075
175,-0.03025,7.85075
176,-0.03024,7.85075
177,-0.03023,7.85075
178,-0.03022,7.85075
179,-0.03021,7.85075
180,-0.0302,7.85075
181,-0.03019,7.85075
182,-0.03018,7.85075
183,-0.03017,7.85075
184,-0.03016,7.85075
185,-0.03015,7.85075
186,-0.03014,7.85075
187,-0.03013,7.85075
188,-0.03012,7.85075
189,-0.03011,7.85075
190,-0.0301,7.85075
191,-0.03009,7.85075
192,-0.03008,7.85075
193,-0.03007,7.85075
194,-0.03006,7.85075
195,-0.03005,7.85075
196,-0.03004,7.85075
197,-0.03003,7.85075
198,-0.03002,7.85075
199,-0.03001,7.85075
200,-0.03,7.85075
201,-0.02999,7.85075
202,-0.02998,7.85075
203,-0.02997,7.85075
204,-0.02996,7.85075
205,-0.02995,7.85075
206,-0.02994,7.85075
207,-0.02993,7.85075
208,-0.02992,7.85075
209,-0.02991,7.85075
210,-0.0299,7.85075
211,-0.02989,7.85075
212,-0.02988,7.85075
213,-0.02987,7.85075
214,-0.02986,7.85075
215,-0.02985,7.85075
216,-0.02984,7.85075
217,-0.02983,7.85075
218,-0.02982,7.85075
219,-0.02981,7.85075
220,-0.0298,7.85075
221,-0.02979,7.85075
222,-0.02978,7.85075
223,-0.02977,7.85075
224,-0.02976,7.85075
225,-0.02975,7.85075
226,-0.02974,7.85075
227,-0.02973,7.85075
228,-0.02972,7.85075
229,-0.02971,7.85075
230,-0.0297,7.85075
231,-0.02969,7.85075
232,-0.02968,7.85075
233,-0.02967,7.85075
234,-0.02966,7.85075
235,-0.02965,7.85075
236,-0.02964,7.85075
237,-0.02963,7.85075
238,-0.02962,7.85075
239,-0.02961,7.85075
240,-0.0296,7.85075
241,-0.02959,7.85075
242,-0.02958,7.85075
243,-0.02957,7.85075
244,-0.02956,7.85075
245,-0.02955,7.85075
246,-0.02954,7.85075
247,-0.02953,7.85075
248,-0.02952,7.85075
249,-0.02951,7.85075
250,-0.0295,7.85075
251,-0.02949,7.85075
252,-0.02948,7.85075
253,-0.02947,7.85075
254,-0.02946,7.85075
255,-0.02945,7.85075
256,-0.02944,7.85075
257,-0.02943,7.85075
258,-0.02942,7.85075
259,-0.02941,7.85075
260,-0.0294,7.85075
261,-0.02939,7.85075
262,-0.02938,7.85075
263,-0.02937,7.85075
264,-0.02936,7.85075
265,-0.02935,7.85075
266,-0.02934,7.85075
267,-0.02933,7.85075
268,-0.02932,7.85075
269,-0.02931,7.85075
270,-0.0293,7.85075
271,-0.02929,7.85075
272,-0.02928,7.85075
273,-0.02927,7.85075
274,-0.02926,7.85075
275,-0.02925,7.85075
276,-0.02924,7.85075
277,-0.02923,7.85075
278,-0.02922,7.85075
279,-0.02921,7.85075
280,-0.0292,7.85075
281,-0.02919,7.85075
282,-0.02918,7.85075
283,-0.02917,7.85075
284,-0.02916,7.85075
285,-0.02915,7.85075
286,-0.02914,7.85075
287,-0.02913,7.85075
288,-0.02912,7.85075
289,-0.02911,7.85075
290,-0.0291,7.85075
291,-0.02909,7.85075
292,-0.02908,7.85075
293,-0.02907,7.85075
294,-0.02906,7.85075
295,-0.02905,7.85075
296,-0.02904,7.85075
297,-0.02903,7.85075
298,-0.02902,7.85075
299,-0.02901,7.85075
300,-0.029,7.85075
301,-0.02899,7.85075
302,-0.02898,7.85075
303,-0.02897,7.85075
304,-0.02896,7.85075
305,-0.02895,7.85075
306,-0.02894,7.85075
307,-0.02893,7.85075
308,-0.02892,7.85075
309,-0.02891,7.85075
310,-0.0289,7.85075
311,-0.02889,7.85075
312,-0.02888,7.85075
313,-0.02887,7.85075
314,-0.02886,7.85075
315,-0.02885,7.85075
316,-0.02884,7.85075
317,-0.02883,7.85075
318,-0.02882,7.85075
319,-0.02881,7.85075
320,-0.0288,7.85075
321,-0.02879,7.85075
322,-0.02878,7.85075
323,-0.02877,7.85075
324,-0.02876,7.85075
325,-0.02875,7.85075
326,-0.02874,7.85075
327,-0.02873,7.85075
328,-0.02872,7.85075
329,-0.02871,7.85075
330,-0.0287,7.85075
331,-0.02869,7.85075
332,-0.02868,7.85075
333,-0.02867,7.85075
334,-0.02866,7.85075
335,-0.02865,7.85075
336,-0.02864,7.85075
337,-0.02863,7.85075
338,-0.02862,7.85075
339,-0.02861,7.85075
340,-0.0286,7.85075
341,-0.02859,7.85075
342,-0.02858,7.85075
343,-0.02857,7.85075
344,-0.02856,7.85075
345,-0.02855,7.85075
346,-0.02854,7.85075
347,-0.02853,7.85075
348,-0.02852,7.85075
349,-0.02851,7.85075
350,-0.0285,7.85075
351,-0.02849,7.83405
352,-0.02848,7.83405
353,-0.02847,7.85075
354,-0.02846,7.85075
355,-0.02845,7.85075
356,-0.02844,7.85075
357,-0.02843,7.85075
358,-0.02842,7.85075
359,-0.02841,7.83405
360,-0.0284,7.83405
361,-0.02839,7.83405
362,-0.02838,7.83405
363,-0.02837,7.83405
364,-0.02836,7.85075
365,-0.02835,7.81734
366,-0.02834,7.83405
367,-0.02833,7.83405
368,-0.02832,7.83405
369,-0.02831,7.83405
370,-0.0283,7.83405
371,-0.02829,7.83405
372,-0.02828,7.83405
373,-0.02827,7.83405
374,-0.02826,7.83405
375,-0.02825,7.81734
376,-0.02824,7.85075
377,-0.02823,7.81734
378,-0.02822,7.83405
379,-0.02821,7.83405
380,-0.0282,7.83405
381,-0.02819,7.83405
382,-0.02818,7.83405
383,-0.02817,7.83405
384,-0.02816,7.83405
385,-0.02815,7.83405
386,-0.02814,7.83405
387,-0.02813,7.83405
388,-0.02812,7.83405
389,-0.02811,7.83405
390,-0.0281,7.83405
391,-0.02809,7.83405
392,-0.02808,7.83405
393,-0.02807,7.83405
394,-0.02806,7.83405
395,-0.02805,7.83405
396,-0.02804,7.83405
397,-0.02803,7.83405
398,-0.02802,7.83405
399,-0.02801,7.83405
400,-0.028,7.83405
401,-0.02799,7.83405
402,-0.02798,7.83405
403,-0.02797,7.83405
404,-0.02796,7.83405
405,-0.02795,7.83405
406,-0.02794,7.83405
407,-0.02793,7.83405
408,-0.02792,7.83405
409,-0.02791,7.83405
410,-0.0279,7.83405
411,-0.02789,7.83405
412,-0.02788,7.83405
413,-0.02787,7.83405
414,-0.02786,7.83405
415,-0.02785,7.83405
416,-0.02784,7.83405
417,-0.02783,7.83405
418,-0.02782,7.83405
419,-0.02781,7.83405
420,-0.0278,7.83405
421,-0.02779,7.83405
422,-0.02778,7.83405
423,-0.02777,7.83405
424,-0.02776,7.83405
425,-0.02775,7.83405
426,-0.02774,7.83405
427,-0.02773,7.83405
428,-0.02772,7.83405
429,-0.02771,7.83405
430,-0.0277,7.83405
431,-0.02769,7.83405
432,-0.02768,7.83405
433,-0.02767,7.83405
434,-0.02766,7.83405
435,-0.02765,7.83405
436,-0.02764,7.83405
437,-0.02763,7.83405
438,-0.02762,7.83405
439,-0.02761,7.83405
440,-0.0276,7.83405
441,-0.02759,7.83405
442,-0.02758,7.83405
443,-0.02757,7.83405
444,-0.02756,7.83405
445,-0.02755,7.83405
446,-0.02754,7.83405
447,-0.02753,7.83405
448,-0.02752,7.83405
449,-0.02751,7.83405
450,-0.0275,7.83405
451,-0.02749,7.83405
452,-0.02748,7.83405
453,-0.02747,7.83405
454,-0.02746,7.83405
455,-0.02745,7.83405
456,-0.02744,7.83405
457,-0.02743,7.83405
458,-0.02742,7.83405
459,-0.02741,7.83405
460,-0.0274,7.83405
461,-0.02739,7.83405
462,-0.02738,7.83405
463,-0.02737,7.83405
464,-0.02736,7.83405
465,-0.02735,7.83405
466,-0.02734,7.83405
467,-0.02733,7.83405
468,-0.02732,7.83405
469,-0.02731,7.83405
470,-0.0273,7.83405
471,-0.02729,7.83405
472,-0.02728,7.83405
473,-0.02727,7.83405
474,-0.02726,7.83405
475,-0.02725,7.83405
476,-0.02724,7.83405
477,-0.02723,7.83405
478,-0.02722,7.83405
479,-0.02721,7.83405
480,-0.0272,7.83405
481,-0.02719,7.83405
482,-0.02718,7.83405
483,-0.02717,7.83405
484,-0.02716,7.83405
485,-0.02715,7.83405
486,-0.02714,7.83405
487,-0.02713,7.83405
488,-0.02712,7.83405
489,-0.02711,7.83405
490,-0.0271,7.83405
491,-0.02709,7.83405
492,-0.02708,7.83405
493,-0.02707,7.83405
494,-0.02706,7.83405
495,-0.02705,7.83405
496,-0.02704,7.83405
497,-0.02703,7.83405
498,-0.02702,7.83405
499,-0.02701,7.83405
500,-0.027,7.83405
501,-0.02699,7.83405
502,-0.02698,7.83405
503,-0.02697,7.83405
504,-0.02696,7.83405
505,-0.02695,7.83405
506,-0.02694,7.83405
507,-0.02693,7.83405
508,-0.02692,7.83405
509,-0.02691,7.83405
510,-0.0269,7.83405
511,-0.02689,7.83405
512,-0.02688,7.83405
513,-0.02687,7.83405
514,-0.02686,7.83405
515,-0.02685,7.83405
516,-0.02684,7.83405
517,-0.02683,7.83405
518,-0.02682,7.83405
519,-0.02681,7.83405
520,-0.0268,7.83405
521,-0.02679,7.83405
522,-0.02678,7.83405
523,-0.02677,7.83405
524,-0.02676,7.83405
525,-0.02675,7.83405
526,-0.02674,7.83405
527,-0.02673,7.83405
528,-0.02672,7.83405
529,-0.02671,7.83405
530,-0.0267,7.83405
531,-0.02669,7.83405
532,-0.02668,7.83405
533,-0.02667,7.83405
534,-0.02666,7.83405
535,-0.02665,7.83405
536,-0.02664,7.83405
537,-0.02663,7.83405
538,-0.02662,7.83405
539,-0.02661,7.83405
540,-0.0266,7.83405
541,-0.02659,7.83405
542,-0.02658,7.83405
543,-0.02657,7.83405
544,-0.02656,7.83405
545,-0.02655,7.83405
546,-0.02654,7.83405
547,-0.02653,7.83405
548,-0.02652,7.83405
549,-0.02651,7.83405
550,-0.0265,7.83405
551,-0.02649,7.83405
552,-0.02648,7.83405
553,-0.02647,7.83405
554,-0.02646,7.83405
555,-0.02645,7.83405
556,-0.02644,7.83405
557,-0.02643,7.83405
558,-0.02642,7.83405
559,-0.02641,7.83405
560,-0.0264,7.83405
561,-0.02639,7.83405
562,-0.02638,7.83405
563,-0.02637,7.83405
564,-0.02636,7.83405
565,-0.02635,7.83405
566,-0.02634,7.83405
567,-0.02633,7.83405
568,-0.02632,7.83405
569,-0.02631,7.83405
570,-0.0263,7.83405
571,-0.02629,7.83405
572,-0.02628,7.83405
573,-0.02627,7.83405
574,-0.02626,7.83405
575,-0.02625,7.83405
576,-0.02624,7.83405
577,-0.02623,7.83405
578,-0.02622,7.83405
579,-0.02621,7.83405
580,-0.0262,7.83405
581,-0.02619,7.83405
582,-0.02618,7.83405
583,-0.02617,7.83405
584,-0.02616,7.83405
585,-0.02615,7.83405
586,-0.02614,7.83405
587,-0.02613,7.83405
588,-0.02612,7.83405
589,-0.02611,7.83405
590,-0.0261,7.83405
591,-0.02609,7.83405
592,-0.02608,7.83405
593,-0.02607,7.83405
594,-0.02606,7.83405
595,-0.02605,7.83405
596,-0.02604,7.83405
597,-0.02603,7.83405
598,-0.02602,7.83405
599,-0.02601,7.83405
600,-0.026,7.83405
601,-0.02599,7.83405
602,-0.02598,7.83405
603,-0.02597,7.83405
604,-0.02596,7.81734
605,-0.02595,7.83405
606,-0.02594,7.83405
607,-0.02593,7.83405
608,-0.02592,7.83405
609,-0.02591,7.83405
610,-0.0259,7.81734
611,-0.02589,7.81734
612,-0.02588,7.81734
613,-0.02587,7.81734
614,-0.02586,7.83405
615,-0.02585,7.83405
616,-0.02584,7.83405
617,-0.02583,7.83405
618,-0.02582,7.83405
619,-0.02581,7.81734
620,-0.0258,7.83405
621,-0.02579,7.83405
622,-0.02578,7.83405
623,-0.02577,7.83405
624,-0.02576,7.83405
625,-0.02575,7.83405
626,-0.02574,7.83405
627,-0.02573,7.83405
628,-0.02572,7.83405
629,-0.02571,7.81734
630,-0.0257,7.83405
631,-0.02569,7.80064
632,-0.02568,7.83405
633,-0.02567,7.81734
634,-0.02566,7.81734
635,-0.02565,7.81734
636,-0.02564,7.81734
637,-0.02563,7.83405
638,-0.02562,7.83405
639,-0.02561,7.83405
640,-0.0256,7.81734
641,-0.02559,7.85075
642,-0.02558,7.85075
643,-0.02557,7.85075
644,-0.02556,7.88416
645,-0.02555,7.88416
646,-0.02554,7.88416
647,-0.02553,7.90086
648,-0.02552,7.90086
649,-0.02551,7.88416
650,-0.0255,7.91756
651,-0.02549,7.91756
652,-0.02548,7.91756
653,-0.02547,7.91756
654,-0.02546,7.93427
655,-0.02545,7.93427
656,-0.02544,7.93427
657,-0.02543,7.93427
658,-0.02542,7.95097
659,-0.02541,7.95097
660,-0.0254,7.93427
661,-0.02539,7.96768
662,-0.02538,7.96768
663,-0.02537,7.96768
664,-0.02536,7.96768
665,-0.02535,7.96768
666,-0.02534,7.96768
667,-0.02533,7.96768
668,-0.02532,7.98438
669,-0.02531,7.95097
670,-0.0253,7.98438
671,-0.02529,7.98438
672,-0.02528,7.98438
673,-0.02527,7.98438
674,-0.02526,7.98438
675,-0.02525,7.98438
676,-0.02524,7.98438
677,-0.02523,7.98438
678,-0.02522,7.98438
679,-0.02521,7.98438
680,-0.0252,7.98438
681,-0.02519,7.98438
682,-0.02518,7.98438
683,-0.02517,7.98438
684,-0.02516,7.98438
685,-0.02515,7.95097
686,-0.02514,7.96768
687,-0.02513,7.96768
688,-0.02512,7.96768
689,-0.02511,7.96768
690,-0.0251,7.96768
691,-0.02509,7.96768
692,-0.02508,7.96768
693,-0.02507,7.96768
694,-0.02506,7.96768
695,-0.02505,7.96768
696,-0.02504,7.96768
697,-0.02503,7.96768
698,-0.02502,7.96768
699,-0.02501,7.96768
700,-0.025,7.96768
701,-0.02499,7.96768
702,-0.02498,7.96768
703,-0.02497,7.96768
704,-0.02496,7.98438
705,-0.02495,7.95097
706,-0.02494,7.96768
707,-0.02493,7.96768
708,-0.02492,7.96768
709,-0.02491,7.96768
710,-0.0249,7.96768
711,-0.02489,7.96768
712,-0.02488,7.96768
713,-0.02487,7.96768
714,-0.02486,7.96768
715,-0.02485,7.96768
716,-0.02484,7.96768
717,-0.02483,7.96768
718,-0.02482,7.96768
719,-0.02481,7.96768
720,-0.0248,7.96768
721,-0.02479,7.96768
722,-0.02478,7.96768
723,-0.02477,7.96768
724,-0.02476,7.96768
725,-0.02475,7.96768
726,-0.02474,7.96768
727,-0.02473,7.96768
728,-0.02472,7.96768
729,-0.02471,7.96768
730,-0.0247,7.96768
731,-0.02469,7.96768
732,-0.02468,7.96768
733,-0.02467,7.96768
734,-0.02466,7.96768
735,-0.02465,7.96768
736,-0.02464,7.96768
737,-0.02463,7.96768
738,-0.02462,7.96768
739,-0.02461,7.96768
740,-0.0246,7.96768
741,-0.02459,7.96768
742,-0.02458,7.96768
743,-0.02457,7.96768
744,-0.02456,7.96768
745,-0.02455,7.96768
746,-0.02454,7.96768
747,-0.02453,7.96768
748,-0.02452,7.96768
749,-0.02451,7.96768
750,-0.0245,7.96768
751,-0.02449,7.96768
752,-0.02448,7.96768
753,-0.02447,7.96768
754,-0.02446,7.96768
755,-0.02445,7.96768
756,-0.02444,7.96768
757,-0.02443,7.96768
758,-0.02442,7.96768
759,-0.02441,7.96768
760,-0.0244,7.96768
761,-0.02439,7.96768
762,-0.02438,7.96768
763,-0.02437,7.96768
764,-0.02436,7.96768
765,-0.02435,7.96768
766,-0.02434,7.96768
767,-0.02433,7.96768
768,-0.02432,7.96768
769,-0.02431,7.96768
770,-0.0243,7.96768
771,-0.02429,7.96768
772,-0.02428,7.96768
773,-0.02427,7.96768
774,-0.02426,7.96768
775,-0.02425,7.96768
776,-0.02424,7.96768
777,-0.02423,7.96768
778,-0.02422,7.96768
779,-0.02421,7.96768
780,-0.0242,7.96768
781,-0.02419,7.96768
782,-0.02418,7.96768
783,-0.02417,7.96768
784,-0.02416,7.96768
785,-0.02415,7.96768
786,-0.02414,7.96768
787,-0.02413,7.96768
788,-0.02412,7.96768
789,-0.02411,7.96768
790,-0.0241,7.96768
791,-0.02409,7.96768
792,-0.02408,7.96768
793,-0.02407,7.96768
794,-0.02406,7.96768
795,-0.02405,7.96768
796,-0.02404,7.96768
797,-0.02403,7.96768
798,-0.02402,7.96768
799,-0.02401,7.96768
800,-0.024,7.96768
801,-0.02399,7.96768
802,-0.02398,7.96768
803,-0.02397,7.96768
804,-0.02396,7.96768
805,-0.02395,7.96768
806,-0.02394,7.96768
807,-0.02393,7.96768
808,-0.02392,7.96768
809,-0.02391,7.96768
810,-0.0239,7.96768
811,-0.02389,7.96768
812,-0.02388,7.96768
813,-0.02387,7.96768
814,-0.02386,7.96768
815,-0.02385,7.96768
816,-0.02384,7.96768
817,-0.02383,7.96768
818,-0.02382,7.96768
819,-0.02381,7.96768
820,-0.0238,7.96768
821,-0.02379,7.96768
822,-0.02378,7.96768
823,-0.02377,7.96768
824,-0.02376,7.96768
825,-0.02375,7.96768
826,-0.02374,7.96768
827,-0.02373,7.96768
828,-0.02372,7.96768
829,-0.02371,7.96768
830,-0.0237,7.96768
831,-0.02369,7.96768
832,-0.02368,7.96768
833,-0.02367,7.96768
834,-0.02366,7.96768
835,-0.02365,7.96768
836,-0.02364,7.96768
837,-0.02363,7.96768
838,-0.02362,7.96768
839,-0.02361,7.96768
840,-0.0236,7.96768
841,-0.02359,7.96768
842,-0.02358,7.96768
843,-0.02357,7.96768
844,-0.02356,7.96768
845,-0.02355,7.96768
846,-0.02354,7.96768
847,-0.02353,7.96768
848,-0.02352,7.96768
849,-0.02351,7.96768
850,-0.0235,7.96768
851,-0.02349,7.96768
852,-0.02348,7.96768
853,-0.02347,7.96768
854,-0.02346,7.96768
855,-0.02345,7.96768
856,-0.02344,7.96768
857,-0.02343,7.96768
858,-0.02342,7.96768
859,-0.02341,7.96768
860,-0.0234,7.96768
861,-0.02339,7.96768
862,-0.02338,7.96768
863,-0.02337,7.96768
864,-0.02336,7.96768
865,-0.02335,7.96768
866,-0.02334,7.96768
867,-0.02333,7.96768
868,-0.02332,7.96768
869,-0.02331,7.96768
870,-0.0233,7.96768
871,-0.02329,7.96768
872,-0.02328,7.96768
873,-0.02327,7.96768
874,-0.02326,7.96768
875,-0.02325,7.96768
876,-0.02324,7.96768
877,-0.02323,7.96768
878,-0.02322,7.96768
879,-0.02321,7.96768
880,-0.0232,7.96768
881,-0.02319,7.96768
882,-0.02318,7.96768
883,-0.02317,7.96768
884,-0.02316,7.96768
885,-0.02315,7.96768
886,-0.02314,7.96768
887,-0.02313,7.96768
888,-0.02312,7.96768
889,-0.02311,7.96768
890,-0.0231,7.96768
891,-0.02309,7.96768
892,-0.02308,7.96768
893,-0.02307,7.96768
894,-0.02306,7.96768
895,-0.02305,7.96768
896,-0.02304,7.96768
897,-0.02303,7.96768
898,-0.02302,7.96768
899,-0.02301,7.96768
900,-0.023,7.96768
901,-0.02299,7.96768
902,-0.02298,7.96768
903,-0.02297,7.96768
904,-0.02296,7.96768
905,-0.02295,7.96768
906,-0.02294,7.96768
907,-0.02293,7.96768
908,-0.02292,7.96768
909,-0.02291,7.96768
910,-0.0229,7.96768
911,-0.02289,7.96768
912,-0.02288,7.96768
913,-0.02287,7.96768
914,-0.02286,7.96768
915,-0.02285,7.96768
916,-0.02284,7.96768
917,-0.02283,7.96768
918,-0.02282,7.96768
919,-0.02281,7.96768
920,-0.0228,7.96768
921,-0.02279,7.96768
922,-0.02278,7.96768
923,-0.02277,7.95097
924,-0.02276,7.96768
925,-0.02275,7.96768
926,-0.02274,7.96768
927,-0.02273,7.96768
928,-0.02272,7.96768
929,-0.02271,7.96768
930,-0.0227,7.95097
931,-0.02269,7.95097
932,-0.02268,7.95097
933,-0.02267,7.95097
934,-0.02266,7.96768
935,-0.02265,7.96768
936,-0.02264,7.96768
937,-0.02263,7.96768
938,-0.02262,7.96768
939,-0.02261,7.95097
940,-0.0226,7.96768
941,-0.02259,7.96768
942,-0.02258,7.96768
943,-0.02257,7.95097
944,-0.02256,7.95097
945,-0.02255,7.95097
946,-0.02254,7.96768
947,-0.02253,7.96768
948,-0.02252,7.96768
949,-0.02251,7.96768
950,-0.0225,7.96768
951,-0.02249,7.96768
952,-0.02248,7.96768
953,-0.02247,7.95097
